HAWO SPECTRUM A1~~~~~~~~~~~~~~~~
151~~~~~~~~~~~~~~~~~~~~~~~~~~~~~
1~~~~~~~~~~~~~~~~~~~~~~~~~~~~~~~
2018-12-21~~~~~~~~~~~~~~~~~~~~~~
cielab~~~~~~~~~~~~~~~~~~~~~~~~~~
8940,255,399~~~~~~~~~~~~~~~~~~~~
8833,306,1808~~~~~~~~~~~~~~~~~~~
9038,191,1207~~~~~~~~~~~~~~~~~~~
8347,480,3870~~~~~~~~~~~~~~~~~~~
8809,361,2578~~~~~~~~~~~~~~~~~~~
7688,935,5200~~~~~~~~~~~~~~~~~~~
7988,726,4162~~~~~~~~~~~~~~~~~~~
8411,103,-450~~~~~~~~~~~~~~~~~~~
8603,146,-105~~~~~~~~~~~~~~~~~~~
7665,26,-1791~~~~~~~~~~~~~~~~~~~
8235,95,-1025~~~~~~~~~~~~~~~~~~~
6508,153,-3268~~~~~~~~~~~~~~~~~~
7315,-185,-2174~~~~~~~~~~~~~~~~~
7798,102,-64~~~~~~~~~~~~~~~~~~~~
8238,99,74~~~~~~~~~~~~~~~~~~~~~~
6713,106,-187~~~~~~~~~~~~~~~~~~~
7232,43,-209~~~~~~~~~~~~~~~~~~~~
4902,87,-297~~~~~~~~~~~~~~~~~~~~
5908,60,-310~~~~~~~~~~~~~~~~~~~~
8643,316,1514~~~~~~~~~~~~~~~~~~~
8836,244,1155~~~~~~~~~~~~~~~~~~~
8310,110,2777~~~~~~~~~~~~~~~~~~~
8396,102,2327~~~~~~~~~~~~~~~~~~~
7516,502,3733~~~~~~~~~~~~~~~~~~~
8075,376,3391~~~~~~~~~~~~~~~~~~~
8659,-287,1447~~~~~~~~~~~~~~~~~~
8952,-9,1220~~~~~~~~~~~~~~~~~~~~
8216,-226,2467~~~~~~~~~~~~~~~~~~
8388,-138,1689~~~~~~~~~~~~~~~~~~
7324,-521,3096~~~~~~~~~~~~~~~~~~
7645,-316,2923~~~~~~~~~~~~~~~~~~
8668,448,1717~~~~~~~~~~~~~~~~~~~
8688,397,1144~~~~~~~~~~~~~~~~~~~
8087,680,2553~~~~~~~~~~~~~~~~~~~
8369,793,2070~~~~~~~~~~~~~~~~~~~
7212,1177,3762~~~~~~~~~~~~~~~~~~
7584,939,3204~~~~~~~~~~~~~~~~~~~
8297,599,1188~~~~~~~~~~~~~~~~~~~
8560,591,795~~~~~~~~~~~~~~~~~~~~
7668,895,1354~~~~~~~~~~~~~~~~~~~
8000,893,1140~~~~~~~~~~~~~~~~~~~
6194,1631,2244~~~~~~~~~~~~~~~~~~
7128,1509,1745~~~~~~~~~~~~~~~~~~
8538,784,1504~~~~~~~~~~~~~~~~~~~
8462,668,1098~~~~~~~~~~~~~~~~~~~
7775,1299,2509~~~~~~~~~~~~~~~~~~
8263,984,2399~~~~~~~~~~~~~~~~~~~
6690,2245,3420~~~~~~~~~~~~~~~~~~
7492,1524,3219~~~~~~~~~~~~~~~~~~
7938,1770,1108~~~~~~~~~~~~~~~~~~
8294,1565,815~~~~~~~~~~~~~~~~~~~
6791,2652,1824~~~~~~~~~~~~~~~~~~
7479,2154,1458~~~~~~~~~~~~~~~~~~
5544,3405,2362~~~~~~~~~~~~~~~~~~
6196,3089,1999~~~~~~~~~~~~~~~~~~
7958,35,187~~~~~~~~~~~~~~~~~~~~~
8260,71,41~~~~~~~~~~~~~~~~~~~~~~
6865,-7,146~~~~~~~~~~~~~~~~~~~~~
7611,-1,129~~~~~~~~~~~~~~~~~~~~~
5283,18,183~~~~~~~~~~~~~~~~~~~~~
6153,10,296~~~~~~~~~~~~~~~~~~~~~
8396,-72,-269~~~~~~~~~~~~~~~~~~~
8728,53,99~~~~~~~~~~~~~~~~~~~~~~
7798,-212,-829~~~~~~~~~~~~~~~~~~
8017,-177,-584~~~~~~~~~~~~~~~~~~
6489,-383,-1937~~~~~~~~~~~~~~~~~
7289,-284,-1328~~~~~~~~~~~~~~~~~
8128,919,540~~~~~~~~~~~~~~~~~~~~
8393,721,557~~~~~~~~~~~~~~~~~~~~
7183,1385,1057~~~~~~~~~~~~~~~~~~
7761,1315,796~~~~~~~~~~~~~~~~~~~
5809,2148,1723~~~~~~~~~~~~~~~~~~
6596,1798,1485~~~~~~~~~~~~~~~~~~
8224,460,22~~~~~~~~~~~~~~~~~~~~~
8505,398,253~~~~~~~~~~~~~~~~~~~~
7268,698,-385~~~~~~~~~~~~~~~~~~~
7944,565,-128~~~~~~~~~~~~~~~~~~~
5930,853,-407~~~~~~~~~~~~~~~~~~~
6723,674,-398~~~~~~~~~~~~~~~~~~~
8472,-164,714~~~~~~~~~~~~~~~~~~~
8551,-58,548~~~~~~~~~~~~~~~~~~~~
7909,-659,1012~~~~~~~~~~~~~~~~~~
8190,-448,859~~~~~~~~~~~~~~~~~~~
6651,-1226,1663~~~~~~~~~~~~~~~~~
7440,-953,1502~~~~~~~~~~~~~~~~~~
8361,314,-212~~~~~~~~~~~~~~~~~~~
8604,183,-92~~~~~~~~~~~~~~~~~~~~
7593,448,-757~~~~~~~~~~~~~~~~~~~
7999,379,-685~~~~~~~~~~~~~~~~~~~
6179,439,-1347~~~~~~~~~~~~~~~~~~
6994,354,-1031~~~~~~~~~~~~~~~~~~
8425,592,1840~~~~~~~~~~~~~~~~~~~
8666,538,1245~~~~~~~~~~~~~~~~~~~
8008,963,2904~~~~~~~~~~~~~~~~~~~
8285,755,2433~~~~~~~~~~~~~~~~~~~
7140,1793,4131~~~~~~~~~~~~~~~~~~
7562,1290,3863~~~~~~~~~~~~~~~~~~
8806,90,1582~~~~~~~~~~~~~~~~~~~~
8868,115,972~~~~~~~~~~~~~~~~~~~~
8205,69,2517~~~~~~~~~~~~~~~~~~~~
8487,78,1944~~~~~~~~~~~~~~~~~~~~
6914,294,3911~~~~~~~~~~~~~~~~~~~
7721,191,3559~~~~~~~~~~~~~~~~~~~
8479,569,1248~~~~~~~~~~~~~~~~~~~
8670,460,923~~~~~~~~~~~~~~~~~~~~
7753,972,2182~~~~~~~~~~~~~~~~~~~
8122,716,1723~~~~~~~~~~~~~~~~~~~
6269,1661,2834~~~~~~~~~~~~~~~~~~
7180,1259,2555~~~~~~~~~~~~~~~~~~
7981,6,-342~~~~~~~~~~~~~~~~~~~~~
8485,96,67~~~~~~~~~~~~~~~~~~~~~~
6974,35,-577~~~~~~~~~~~~~~~~~~~~
7741,95,-319~~~~~~~~~~~~~~~~~~~~
5379,-1,-812~~~~~~~~~~~~~~~~~~~~
6308,-3,-731~~~~~~~~~~~~~~~~~~~~
8159,1377,1379~~~~~~~~~~~~~~~~~~
7728,1823,1736~~~~~~~~~~~~~~~~~~
8287,1042,790~~~~~~~~~~~~~~~~~~~
7371,1983,2274~~~~~~~~~~~~~~~~~~
7729,1824,1674~~~~~~~~~~~~~~~~~~
6154,3011,2582~~~~~~~~~~~~~~~~~~
8328,-65,371~~~~~~~~~~~~~~~~~~~~
8526,-198,240~~~~~~~~~~~~~~~~~~~
7538,-173,189~~~~~~~~~~~~~~~~~~~
7793,-74,214~~~~~~~~~~~~~~~~~~~~
6193,-435,390~~~~~~~~~~~~~~~~~~~
6759,-557,512~~~~~~~~~~~~~~~~~~~
8349,447,1112~~~~~~~~~~~~~~~~~~~
8567,374,853~~~~~~~~~~~~~~~~~~~~
7466,663,1523~~~~~~~~~~~~~~~~~~~
8029,595,1454~~~~~~~~~~~~~~~~~~~
6150,1057,2073~~~~~~~~~~~~~~~~~~
6914,794,1726~~~~~~~~~~~~~~~~~~~
8315,-140,132~~~~~~~~~~~~~~~~~~~
8458,-84,251~~~~~~~~~~~~~~~~~~~~
7449,-436,-389~~~~~~~~~~~~~~~~~~
8067,-214,-34~~~~~~~~~~~~~~~~~~~
6419,-477,-343~~~~~~~~~~~~~~~~~~
7157,-460,-201~~~~~~~~~~~~~~~~~~
7889,870,292~~~~~~~~~~~~~~~~~~~~
8234,635,198~~~~~~~~~~~~~~~~~~~~
6981,1327,457~~~~~~~~~~~~~~~~~~~
7423,1062,307~~~~~~~~~~~~~~~~~~~
5497,1705,632~~~~~~~~~~~~~~~~~~~
6348,1623,677~~~~~~~~~~~~~~~~~~~
7868,137,-24~~~~~~~~~~~~~~~~~~~~
8153,155,77~~~~~~~~~~~~~~~~~~~~~
6687,213,-45~~~~~~~~~~~~~~~~~~~~
7168,222,-119~~~~~~~~~~~~~~~~~~~
4839,176,3~~~~~~~~~~~~~~~~~~~~~~
5763,268,-102~~~~~~~~~~~~~~~~~~~
names~~~~~~~~~~~~~~~~~~~~~~~~~~~
26004~~~~~~~~~~~~~~~~~~~~~~~~~~~
01010~~~~~~~~~~~~~~~~~~~~~~~~~~~
01005~~~~~~~~~~~~~~~~~~~~~~~~~~~
01040~~~~~~~~~~~~~~~~~~~~~~~~~~~
01020~~~~~~~~~~~~~~~~~~~~~~~~~~~
01160~~~~~~~~~~~~~~~~~~~~~~~~~~~
01080~~~~~~~~~~~~~~~~~~~~~~~~~~~
05010~~~~~~~~~~~~~~~~~~~~~~~~~~~
05005~~~~~~~~~~~~~~~~~~~~~~~~~~~
05040~~~~~~~~~~~~~~~~~~~~~~~~~~~
05020~~~~~~~~~~~~~~~~~~~~~~~~~~~
05160~~~~~~~~~~~~~~~~~~~~~~~~~~~
05080~~~~~~~~~~~~~~~~~~~~~~~~~~~
07010~~~~~~~~~~~~~~~~~~~~~~~~~~~
07005~~~~~~~~~~~~~~~~~~~~~~~~~~~
07040~~~~~~~~~~~~~~~~~~~~~~~~~~~
07020~~~~~~~~~~~~~~~~~~~~~~~~~~~
07160~~~~~~~~~~~~~~~~~~~~~~~~~~~
07080~~~~~~~~~~~~~~~~~~~~~~~~~~~
10010~~~~~~~~~~~~~~~~~~~~~~~~~~~
10005~~~~~~~~~~~~~~~~~~~~~~~~~~~
10040~~~~~~~~~~~~~~~~~~~~~~~~~~~
10020~~~~~~~~~~~~~~~~~~~~~~~~~~~
10160~~~~~~~~~~~~~~~~~~~~~~~~~~~
10080~~~~~~~~~~~~~~~~~~~~~~~~~~~
11010~~~~~~~~~~~~~~~~~~~~~~~~~~~
11005~~~~~~~~~~~~~~~~~~~~~~~~~~~
11040~~~~~~~~~~~~~~~~~~~~~~~~~~~
11020~~~~~~~~~~~~~~~~~~~~~~~~~~~
11160~~~~~~~~~~~~~~~~~~~~~~~~~~~
11080~~~~~~~~~~~~~~~~~~~~~~~~~~~
14010~~~~~~~~~~~~~~~~~~~~~~~~~~~
14005~~~~~~~~~~~~~~~~~~~~~~~~~~~
14040~~~~~~~~~~~~~~~~~~~~~~~~~~~
14020~~~~~~~~~~~~~~~~~~~~~~~~~~~
14160~~~~~~~~~~~~~~~~~~~~~~~~~~~
14080~~~~~~~~~~~~~~~~~~~~~~~~~~~
15010~~~~~~~~~~~~~~~~~~~~~~~~~~~
15005~~~~~~~~~~~~~~~~~~~~~~~~~~~
15040~~~~~~~~~~~~~~~~~~~~~~~~~~~
15020~~~~~~~~~~~~~~~~~~~~~~~~~~~
15160~~~~~~~~~~~~~~~~~~~~~~~~~~~
15080~~~~~~~~~~~~~~~~~~~~~~~~~~~
16010~~~~~~~~~~~~~~~~~~~~~~~~~~~
16005~~~~~~~~~~~~~~~~~~~~~~~~~~~
16040~~~~~~~~~~~~~~~~~~~~~~~~~~~
16020~~~~~~~~~~~~~~~~~~~~~~~~~~~
16160~~~~~~~~~~~~~~~~~~~~~~~~~~~
16080~~~~~~~~~~~~~~~~~~~~~~~~~~~
18010~~~~~~~~~~~~~~~~~~~~~~~~~~~
18005~~~~~~~~~~~~~~~~~~~~~~~~~~~
18040~~~~~~~~~~~~~~~~~~~~~~~~~~~
18020~~~~~~~~~~~~~~~~~~~~~~~~~~~
18160~~~~~~~~~~~~~~~~~~~~~~~~~~~
18080~~~~~~~~~~~~~~~~~~~~~~~~~~~
20010~~~~~~~~~~~~~~~~~~~~~~~~~~~
20005~~~~~~~~~~~~~~~~~~~~~~~~~~~
20040~~~~~~~~~~~~~~~~~~~~~~~~~~~
20020~~~~~~~~~~~~~~~~~~~~~~~~~~~
20160~~~~~~~~~~~~~~~~~~~~~~~~~~~
20080~~~~~~~~~~~~~~~~~~~~~~~~~~~
23010~~~~~~~~~~~~~~~~~~~~~~~~~~~
23005~~~~~~~~~~~~~~~~~~~~~~~~~~~
23040~~~~~~~~~~~~~~~~~~~~~~~~~~~
23020~~~~~~~~~~~~~~~~~~~~~~~~~~~
23160~~~~~~~~~~~~~~~~~~~~~~~~~~~
23080~~~~~~~~~~~~~~~~~~~~~~~~~~~
27010~~~~~~~~~~~~~~~~~~~~~~~~~~~
27005~~~~~~~~~~~~~~~~~~~~~~~~~~~
27040~~~~~~~~~~~~~~~~~~~~~~~~~~~
27020~~~~~~~~~~~~~~~~~~~~~~~~~~~
27160~~~~~~~~~~~~~~~~~~~~~~~~~~~
27080~~~~~~~~~~~~~~~~~~~~~~~~~~~
34010~~~~~~~~~~~~~~~~~~~~~~~~~~~
34005~~~~~~~~~~~~~~~~~~~~~~~~~~~
34040~~~~~~~~~~~~~~~~~~~~~~~~~~~
34020~~~~~~~~~~~~~~~~~~~~~~~~~~~
34160~~~~~~~~~~~~~~~~~~~~~~~~~~~
34080~~~~~~~~~~~~~~~~~~~~~~~~~~~
43010~~~~~~~~~~~~~~~~~~~~~~~~~~~
43005~~~~~~~~~~~~~~~~~~~~~~~~~~~
43040~~~~~~~~~~~~~~~~~~~~~~~~~~~
43020~~~~~~~~~~~~~~~~~~~~~~~~~~~
43160~~~~~~~~~~~~~~~~~~~~~~~~~~~
43080~~~~~~~~~~~~~~~~~~~~~~~~~~~
47010~~~~~~~~~~~~~~~~~~~~~~~~~~~
47005~~~~~~~~~~~~~~~~~~~~~~~~~~~
47040~~~~~~~~~~~~~~~~~~~~~~~~~~~
47020~~~~~~~~~~~~~~~~~~~~~~~~~~~
47160~~~~~~~~~~~~~~~~~~~~~~~~~~~
47080~~~~~~~~~~~~~~~~~~~~~~~~~~~
48010~~~~~~~~~~~~~~~~~~~~~~~~~~~
48005~~~~~~~~~~~~~~~~~~~~~~~~~~~
48040~~~~~~~~~~~~~~~~~~~~~~~~~~~
48020~~~~~~~~~~~~~~~~~~~~~~~~~~~
48160~~~~~~~~~~~~~~~~~~~~~~~~~~~
48080~~~~~~~~~~~~~~~~~~~~~~~~~~~
50010~~~~~~~~~~~~~~~~~~~~~~~~~~~
50005~~~~~~~~~~~~~~~~~~~~~~~~~~~
50040~~~~~~~~~~~~~~~~~~~~~~~~~~~
50020~~~~~~~~~~~~~~~~~~~~~~~~~~~
50160~~~~~~~~~~~~~~~~~~~~~~~~~~~
50080~~~~~~~~~~~~~~~~~~~~~~~~~~~
51010~~~~~~~~~~~~~~~~~~~~~~~~~~~
51005~~~~~~~~~~~~~~~~~~~~~~~~~~~
51040~~~~~~~~~~~~~~~~~~~~~~~~~~~
51020~~~~~~~~~~~~~~~~~~~~~~~~~~~
51160~~~~~~~~~~~~~~~~~~~~~~~~~~~
51080~~~~~~~~~~~~~~~~~~~~~~~~~~~
52010~~~~~~~~~~~~~~~~~~~~~~~~~~~
52005~~~~~~~~~~~~~~~~~~~~~~~~~~~
52040~~~~~~~~~~~~~~~~~~~~~~~~~~~
52020~~~~~~~~~~~~~~~~~~~~~~~~~~~
52160~~~~~~~~~~~~~~~~~~~~~~~~~~~
52080~~~~~~~~~~~~~~~~~~~~~~~~~~~
54010~~~~~~~~~~~~~~~~~~~~~~~~~~~
54020~~~~~~~~~~~~~~~~~~~~~~~~~~~
54005~~~~~~~~~~~~~~~~~~~~~~~~~~~
54040~~~~~~~~~~~~~~~~~~~~~~~~~~~
54160~~~~~~~~~~~~~~~~~~~~~~~~~~~
54080~~~~~~~~~~~~~~~~~~~~~~~~~~~
58010~~~~~~~~~~~~~~~~~~~~~~~~~~~
58005~~~~~~~~~~~~~~~~~~~~~~~~~~~
58040~~~~~~~~~~~~~~~~~~~~~~~~~~~
58020~~~~~~~~~~~~~~~~~~~~~~~~~~~
58160~~~~~~~~~~~~~~~~~~~~~~~~~~~
58080~~~~~~~~~~~~~~~~~~~~~~~~~~~
61010~~~~~~~~~~~~~~~~~~~~~~~~~~~
61005~~~~~~~~~~~~~~~~~~~~~~~~~~~
61040~~~~~~~~~~~~~~~~~~~~~~~~~~~
61020~~~~~~~~~~~~~~~~~~~~~~~~~~~
61160~~~~~~~~~~~~~~~~~~~~~~~~~~~
61080~~~~~~~~~~~~~~~~~~~~~~~~~~~
68010~~~~~~~~~~~~~~~~~~~~~~~~~~~
68005~~~~~~~~~~~~~~~~~~~~~~~~~~~
68040~~~~~~~~~~~~~~~~~~~~~~~~~~~
68020~~~~~~~~~~~~~~~~~~~~~~~~~~~
68160~~~~~~~~~~~~~~~~~~~~~~~~~~~
68080~~~~~~~~~~~~~~~~~~~~~~~~~~~
85010~~~~~~~~~~~~~~~~~~~~~~~~~~~
85005~~~~~~~~~~~~~~~~~~~~~~~~~~~
85040~~~~~~~~~~~~~~~~~~~~~~~~~~~
85020~~~~~~~~~~~~~~~~~~~~~~~~~~~
85160~~~~~~~~~~~~~~~~~~~~~~~~~~~
85080~~~~~~~~~~~~~~~~~~~~~~~~~~~
93010~~~~~~~~~~~~~~~~~~~~~~~~~~~
93005~~~~~~~~~~~~~~~~~~~~~~~~~~~
93040~~~~~~~~~~~~~~~~~~~~~~~~~~~
93020~~~~~~~~~~~~~~~~~~~~~~~~~~~
93160~~~~~~~~~~~~~~~~~~~~~~~~~~~
93080~~~~~~~~~~~~~~~~~~~~~~~~~~~