BLX SKALA~~~~~~~~~~~~~~~~~~~~~~~
1500~~~~~~~~~~~~~~~~~~~~~~~~~~~~
1~~~~~~~~~~~~~~~~~~~~~~~~~~~~~~~
2018-12-21~~~~~~~~~~~~~~~~~~~~~~
cielab~~~~~~~~~~~~~~~~~~~~~~~~~~
8935,26,393~~~~~~~~~~~~~~~~~~~~~
8630,77,513~~~~~~~~~~~~~~~~~~~~~
8357,-44,429~~~~~~~~~~~~~~~~~~~~
7714,49,534~~~~~~~~~~~~~~~~~~~~~
7242,-19,662~~~~~~~~~~~~~~~~~~~~
6503,65,459~~~~~~~~~~~~~~~~~~~~~
5886,-33,685~~~~~~~~~~~~~~~~~~~~
5269,36,504~~~~~~~~~~~~~~~~~~~~~
4567,46,557~~~~~~~~~~~~~~~~~~~~~
4191,70,620~~~~~~~~~~~~~~~~~~~~~
3734,-17,1034~~~~~~~~~~~~~~~~~~~
3192,-90,911~~~~~~~~~~~~~~~~~~~~
9211,-6,1262~~~~~~~~~~~~~~~~~~~~
9085,-9,1492~~~~~~~~~~~~~~~~~~~~
8724,0,1494~~~~~~~~~~~~~~~~~~~~~
8080,-3,1584~~~~~~~~~~~~~~~~~~~~
6915,41,1248~~~~~~~~~~~~~~~~~~~~
6396,64,1375~~~~~~~~~~~~~~~~~~~~
6081,90,1523~~~~~~~~~~~~~~~~~~~~
5213,132,1511~~~~~~~~~~~~~~~~~~~
4255,168,1461~~~~~~~~~~~~~~~~~~~
3697,124,1133~~~~~~~~~~~~~~~~~~~
2821,-238,721~~~~~~~~~~~~~~~~~~~
9203,0,1273~~~~~~~~~~~~~~~~~~~~~
9156,79,1828~~~~~~~~~~~~~~~~~~~~
8913,76,2175~~~~~~~~~~~~~~~~~~~~
8507,61,3082~~~~~~~~~~~~~~~~~~~~
8147,67,3275~~~~~~~~~~~~~~~~~~~~
7183,32,3094~~~~~~~~~~~~~~~~~~~~
6487,106,2820~~~~~~~~~~~~~~~~~~~
6113,97,2857~~~~~~~~~~~~~~~~~~~~
5436,389,2612~~~~~~~~~~~~~~~~~~~
4539,324,2133~~~~~~~~~~~~~~~~~~~
3596,209,1836~~~~~~~~~~~~~~~~~~~
9217,-9,2218~~~~~~~~~~~~~~~~~~~~
9165,-8,2738~~~~~~~~~~~~~~~~~~~~
8918,118,3682~~~~~~~~~~~~~~~~~~~
8636,-97,4385~~~~~~~~~~~~~~~~~~~
8312,157,4663~~~~~~~~~~~~~~~~~~~
7227,189,4557~~~~~~~~~~~~~~~~~~~
6803,255,4363~~~~~~~~~~~~~~~~~~~
6478,272,4240~~~~~~~~~~~~~~~~~~~
5319,276,3817~~~~~~~~~~~~~~~~~~~
4409,662,2854~~~~~~~~~~~~~~~~~~~
9247,-141,2439~~~~~~~~~~~~~~~~~~
9182,-103,2966~~~~~~~~~~~~~~~~~~
9038,35,3715~~~~~~~~~~~~~~~~~~~~
9028,60,5728~~~~~~~~~~~~~~~~~~~~
8772,228,6378~~~~~~~~~~~~~~~~~~~
8674,295,7296~~~~~~~~~~~~~~~~~~~
7578,280,7095~~~~~~~~~~~~~~~~~~~
7253,329,7978~~~~~~~~~~~~~~~~~~~
6322,528,6419~~~~~~~~~~~~~~~~~~~
5893,257,6081~~~~~~~~~~~~~~~~~~~
8190,555,8456~~~~~~~~~~~~~~~~~~~
8077,608,9570~~~~~~~~~~~~~~~~~~~
8661,336,8741~~~~~~~~~~~~~~~~~~~
8513,554,9250~~~~~~~~~~~~~~~~~~~
8078,613,10004~~~~~~~~~~~~~~~~~~
8954,94,962~~~~~~~~~~~~~~~~~~~~~
8611,13,1253~~~~~~~~~~~~~~~~~~~~
8284,74,1275~~~~~~~~~~~~~~~~~~~~
7784,85,1403~~~~~~~~~~~~~~~~~~~~
7388,119,1539~~~~~~~~~~~~~~~~~~~
6065,164,1467~~~~~~~~~~~~~~~~~~~
5426,282,1281~~~~~~~~~~~~~~~~~~~
3941,349,1097~~~~~~~~~~~~~~~~~~~
2937,123,595~~~~~~~~~~~~~~~~~~~~
9113,149,1414~~~~~~~~~~~~~~~~~~~
8781,174,2069~~~~~~~~~~~~~~~~~~~
8236,221,2598~~~~~~~~~~~~~~~~~~~
8031,200,2819~~~~~~~~~~~~~~~~~~~
7261,455,3122~~~~~~~~~~~~~~~~~~~
6114,333,2783~~~~~~~~~~~~~~~~~~~
5025,454,2704~~~~~~~~~~~~~~~~~~~
4207,375,2110~~~~~~~~~~~~~~~~~~~
3749,245,1854~~~~~~~~~~~~~~~~~~~
9190,-46,1212~~~~~~~~~~~~~~~~~~~
9039,-23,1592~~~~~~~~~~~~~~~~~~~
8900,35,2135~~~~~~~~~~~~~~~~~~~~
8857,283,2987~~~~~~~~~~~~~~~~~~~
8303,249,3676~~~~~~~~~~~~~~~~~~~
7924,318,4433~~~~~~~~~~~~~~~~~~~
7443,663,4924~~~~~~~~~~~~~~~~~~~
6471,431,4037~~~~~~~~~~~~~~~~~~~
5623,664,4250~~~~~~~~~~~~~~~~~~~
4626,790,3298~~~~~~~~~~~~~~~~~~~
9216,-44,1839~~~~~~~~~~~~~~~~~~~
9135,-18,2640~~~~~~~~~~~~~~~~~~~
9070,19,3322~~~~~~~~~~~~~~~~~~~~
8888,109,4066~~~~~~~~~~~~~~~~~~~
8566,495,5390~~~~~~~~~~~~~~~~~~~
8073,596,6147~~~~~~~~~~~~~~~~~~~
7345,710,6824~~~~~~~~~~~~~~~~~~~
6707,1277,6341~~~~~~~~~~~~~~~~~~
5445,838,4636~~~~~~~~~~~~~~~~~~~
8579,778,6130~~~~~~~~~~~~~~~~~~~
8174,606,6703~~~~~~~~~~~~~~~~~~~
7340,844,7967~~~~~~~~~~~~~~~~~~~
6652,931,7223~~~~~~~~~~~~~~~~~~~
8560,584,6666~~~~~~~~~~~~~~~~~~~
8129,1471,9139~~~~~~~~~~~~~~~~~~
7293,1405,8547~~~~~~~~~~~~~~~~~~
8944,38,445~~~~~~~~~~~~~~~~~~~~~
8958,153,750~~~~~~~~~~~~~~~~~~~~
8814,129,712~~~~~~~~~~~~~~~~~~~~
8301,191,866~~~~~~~~~~~~~~~~~~~~
7876,142,1085~~~~~~~~~~~~~~~~~~~
7212,290,1151~~~~~~~~~~~~~~~~~~~
6039,290,1133~~~~~~~~~~~~~~~~~~~
4706,256,1010~~~~~~~~~~~~~~~~~~~
3594,389,1114~~~~~~~~~~~~~~~~~~~
2771,129,732~~~~~~~~~~~~~~~~~~~~
8962,134,1152~~~~~~~~~~~~~~~~~~~
8695,164,1144~~~~~~~~~~~~~~~~~~~
8249,245,1415~~~~~~~~~~~~~~~~~~~
9337,29,992~~~~~~~~~~~~~~~~~~~~~
9284,117,1301~~~~~~~~~~~~~~~~~~~
9150,280,1610~~~~~~~~~~~~~~~~~~~
8768,273,1745~~~~~~~~~~~~~~~~~~~
8408,218,1941~~~~~~~~~~~~~~~~~~~
7788,284,2060~~~~~~~~~~~~~~~~~~~
7454,554,2822~~~~~~~~~~~~~~~~~~~
6077,517,2540~~~~~~~~~~~~~~~~~~~
5015,686,2937~~~~~~~~~~~~~~~~~~~
3693,635,1691~~~~~~~~~~~~~~~~~~~
8720,273,2380~~~~~~~~~~~~~~~~~~~
8430,365,2603~~~~~~~~~~~~~~~~~~~
7991,435,2956~~~~~~~~~~~~~~~~~~~
7284,804,3348~~~~~~~~~~~~~~~~~~~
9060,33,1122~~~~~~~~~~~~~~~~~~~~
9119,191,2000~~~~~~~~~~~~~~~~~~~
8980,246,2312~~~~~~~~~~~~~~~~~~~
8923,269,2742~~~~~~~~~~~~~~~~~~~
8345,348,3195~~~~~~~~~~~~~~~~~~~
8040,510,3743~~~~~~~~~~~~~~~~~~~
7365,634,4073~~~~~~~~~~~~~~~~~~~
6451,577,4666~~~~~~~~~~~~~~~~~~~
5164,826,3927~~~~~~~~~~~~~~~~~~~
4508,1115,2582~~~~~~~~~~~~~~~~~~
9062,176,2095~~~~~~~~~~~~~~~~~~~
8997,401,3001~~~~~~~~~~~~~~~~~~~
8972,449,3773~~~~~~~~~~~~~~~~~~~
8651,679,3908~~~~~~~~~~~~~~~~~~~
8509,565,4139~~~~~~~~~~~~~~~~~~~
7993,719,4971~~~~~~~~~~~~~~~~~~~
7317,859,5104~~~~~~~~~~~~~~~~~~~
6323,985,5309~~~~~~~~~~~~~~~~~~~
9072,129,2721~~~~~~~~~~~~~~~~~~~
8911,443,3947~~~~~~~~~~~~~~~~~~~
8737,465,4459~~~~~~~~~~~~~~~~~~~
8211,775,6011~~~~~~~~~~~~~~~~~~~
7646,1305,5249~~~~~~~~~~~~~~~~~~
7180,1293,5506~~~~~~~~~~~~~~~~~~
8488,1160,6391~~~~~~~~~~~~~~~~~~
7733,1725,8586~~~~~~~~~~~~~~~~~~
7029,1762,8563~~~~~~~~~~~~~~~~~~
7919,2099,9322~~~~~~~~~~~~~~~~~~
8822,279,480~~~~~~~~~~~~~~~~~~~~
8483,189,591~~~~~~~~~~~~~~~~~~~~
7885,106,659~~~~~~~~~~~~~~~~~~~~
7266,157,549~~~~~~~~~~~~~~~~~~~~
6659,131,581~~~~~~~~~~~~~~~~~~~~
6212,90,490~~~~~~~~~~~~~~~~~~~~~
5805,20,396~~~~~~~~~~~~~~~~~~~~~
5294,57,419~~~~~~~~~~~~~~~~~~~~~
4687,101,447~~~~~~~~~~~~~~~~~~~~
3963,126,540~~~~~~~~~~~~~~~~~~~~
7169,476,1156~~~~~~~~~~~~~~~~~~~
6912,519,1183~~~~~~~~~~~~~~~~~~~
6127,477,1735~~~~~~~~~~~~~~~~~~~
5717,518,1225~~~~~~~~~~~~~~~~~~~
5233,581,1236~~~~~~~~~~~~~~~~~~~
4310,618,1152~~~~~~~~~~~~~~~~~~~
3649,622,1154~~~~~~~~~~~~~~~~~~~
8705,519,1877~~~~~~~~~~~~~~~~~~~
7927,742,2254~~~~~~~~~~~~~~~~~~~
7453,818,2073~~~~~~~~~~~~~~~~~~~
6986,879,2029~~~~~~~~~~~~~~~~~~~
6191,1018,2324~~~~~~~~~~~~~~~~~~
5644,1024,2137~~~~~~~~~~~~~~~~~~
5095,1019,2155~~~~~~~~~~~~~~~~~~
4359,870,1926~~~~~~~~~~~~~~~~~~~
3651,741,1575~~~~~~~~~~~~~~~~~~~
3069,624,1119~~~~~~~~~~~~~~~~~~~
2041,69,119~~~~~~~~~~~~~~~~~~~~~
8772,561,2532~~~~~~~~~~~~~~~~~~~
8408,600,2776~~~~~~~~~~~~~~~~~~~
7715,936,3303~~~~~~~~~~~~~~~~~~~
6968,1179,3183~~~~~~~~~~~~~~~~~~
6509,1205,3190~~~~~~~~~~~~~~~~~~
6036,1138,3551~~~~~~~~~~~~~~~~~~
5141,1335,3324~~~~~~~~~~~~~~~~~~
4554,1477,2784~~~~~~~~~~~~~~~~~~
3996,1164,2653~~~~~~~~~~~~~~~~~~
7883,1063,4385~~~~~~~~~~~~~~~~~~
7392,1058,4311~~~~~~~~~~~~~~~~~~
6338,1296,4203~~~~~~~~~~~~~~~~~~
9188,166,1988~~~~~~~~~~~~~~~~~~~
8843,478,2546~~~~~~~~~~~~~~~~~~~
8266,819,3429~~~~~~~~~~~~~~~~~~~
8053,1476,4885~~~~~~~~~~~~~~~~~~
7630,1440,4903~~~~~~~~~~~~~~~~~~
7195,1649,5367~~~~~~~~~~~~~~~~~~
6297,1778,4779~~~~~~~~~~~~~~~~~~
5108,1718,4348~~~~~~~~~~~~~~~~~~
4378,1833,3300~~~~~~~~~~~~~~~~~~
9027,200,2484~~~~~~~~~~~~~~~~~~~
9001,390,2886~~~~~~~~~~~~~~~~~~~
8879,831,3542~~~~~~~~~~~~~~~~~~~
8658,1117,3868~~~~~~~~~~~~~~~~~~
8510,1303,4474~~~~~~~~~~~~~~~~~~
7818,1876,6221~~~~~~~~~~~~~~~~~~
7528,2431,8038~~~~~~~~~~~~~~~~~~
7013,2303,8521~~~~~~~~~~~~~~~~~~
5567,2323,4959~~~~~~~~~~~~~~~~~~
8147,2200,7201~~~~~~~~~~~~~~~~~~
7794,2723,10053~~~~~~~~~~~~~~~~~
7263,2147,8581~~~~~~~~~~~~~~~~~~
9031,150,560~~~~~~~~~~~~~~~~~~~~
8704,307,628~~~~~~~~~~~~~~~~~~~~
8022,361,713~~~~~~~~~~~~~~~~~~~~
7426,351,850~~~~~~~~~~~~~~~~~~~~
6696,356,824~~~~~~~~~~~~~~~~~~~~
6043,322,592~~~~~~~~~~~~~~~~~~~~
5341,370,641~~~~~~~~~~~~~~~~~~~~
4988,347,516~~~~~~~~~~~~~~~~~~~~
4631,426,632~~~~~~~~~~~~~~~~~~~~
9227,257,690~~~~~~~~~~~~~~~~~~~~
8784,240,703~~~~~~~~~~~~~~~~~~~~
8335,367,975~~~~~~~~~~~~~~~~~~~~
7852,478,1076~~~~~~~~~~~~~~~~~~~
7041,680,1211~~~~~~~~~~~~~~~~~~~
6550,695,1061~~~~~~~~~~~~~~~~~~~
6052,761,1117~~~~~~~~~~~~~~~~~~~
5685,735,1180~~~~~~~~~~~~~~~~~~~
4984,829,1325~~~~~~~~~~~~~~~~~~~
4297,1008,1529~~~~~~~~~~~~~~~~~~
3405,668,963~~~~~~~~~~~~~~~~~~~~
2772,854,725~~~~~~~~~~~~~~~~~~~~
9136,199,1243~~~~~~~~~~~~~~~~~~~
8815,354,1235~~~~~~~~~~~~~~~~~~~
8218,690,1480~~~~~~~~~~~~~~~~~~~
7910,847,1767~~~~~~~~~~~~~~~~~~~
7303,1076,1942~~~~~~~~~~~~~~~~~~
6702,1145,1965~~~~~~~~~~~~~~~~~~
6195,1314,2131~~~~~~~~~~~~~~~~~~
5281,1306,2024~~~~~~~~~~~~~~~~~~
4180,1323,2217~~~~~~~~~~~~~~~~~~
3561,998,1556~~~~~~~~~~~~~~~~~~~
3212,674,1233~~~~~~~~~~~~~~~~~~~
8899,372,1551~~~~~~~~~~~~~~~~~~~
8811,692,1783~~~~~~~~~~~~~~~~~~~
8431,873,2329~~~~~~~~~~~~~~~~~~~
7916,1181,2730~~~~~~~~~~~~~~~~~~
7147,1699,3356~~~~~~~~~~~~~~~~~~
6225,1735,2985~~~~~~~~~~~~~~~~~~
5308,1771,3435~~~~~~~~~~~~~~~~~~
4201,1665,2984~~~~~~~~~~~~~~~~~~
3842,1559,2387~~~~~~~~~~~~~~~~~~
9166,157,1200~~~~~~~~~~~~~~~~~~~
9080,300,1467~~~~~~~~~~~~~~~~~~~
8815,707,2247~~~~~~~~~~~~~~~~~~~
8431,1177,3069~~~~~~~~~~~~~~~~~~
7921,1698,3526~~~~~~~~~~~~~~~~~~
7516,2053,4732~~~~~~~~~~~~~~~~~~
6372,2080,4508~~~~~~~~~~~~~~~~~~
5381,2318,4153~~~~~~~~~~~~~~~~~~
4520,2326,3441~~~~~~~~~~~~~~~~~~
8871,879,2322~~~~~~~~~~~~~~~~~~~
8610,1088,3074~~~~~~~~~~~~~~~~~~
8486,1559,4068~~~~~~~~~~~~~~~~~~
8091,2376,5502~~~~~~~~~~~~~~~~~~
7395,2143,5641~~~~~~~~~~~~~~~~~~
6151,2453,5781~~~~~~~~~~~~~~~~~~
5497,2507,4850~~~~~~~~~~~~~~~~~~
7299,3072,7531~~~~~~~~~~~~~~~~~~
6305,2735,6326~~~~~~~~~~~~~~~~~~
9126,179,520~~~~~~~~~~~~~~~~~~~~
8652,288,516~~~~~~~~~~~~~~~~~~~~
8238,334,503~~~~~~~~~~~~~~~~~~~~
7662,388,502~~~~~~~~~~~~~~~~~~~~
7079,437,572~~~~~~~~~~~~~~~~~~~~
6549,349,479~~~~~~~~~~~~~~~~~~~~
6049,487,574~~~~~~~~~~~~~~~~~~~~
5156,424,537~~~~~~~~~~~~~~~~~~~~
4220,488,523~~~~~~~~~~~~~~~~~~~~
3397,466,462~~~~~~~~~~~~~~~~~~~~
2813,395,433~~~~~~~~~~~~~~~~~~~~
2466,395,378~~~~~~~~~~~~~~~~~~~~
8962,386,1248~~~~~~~~~~~~~~~~~~~
8588,632,1472~~~~~~~~~~~~~~~~~~~
8173,899,1772~~~~~~~~~~~~~~~~~~~
7815,1160,1945~~~~~~~~~~~~~~~~~~
7516,1246,1907~~~~~~~~~~~~~~~~~~
7102,1372,1914~~~~~~~~~~~~~~~~~~
6244,1573,2016~~~~~~~~~~~~~~~~~~
5253,1459,1837~~~~~~~~~~~~~~~~~~
4624,1600,1964~~~~~~~~~~~~~~~~~~
3907,1558,1688~~~~~~~~~~~~~~~~~~
3315,1234,1501~~~~~~~~~~~~~~~~~~
2993,1223,1285~~~~~~~~~~~~~~~~~~
8750,635,1506~~~~~~~~~~~~~~~~~~~
8890,943,2025~~~~~~~~~~~~~~~~~~~
8553,1114,2101~~~~~~~~~~~~~~~~~~
8263,1218,2219~~~~~~~~~~~~~~~~~~
7681,1639,2798~~~~~~~~~~~~~~~~~~
7170,1902,3110~~~~~~~~~~~~~~~~~~
6343,2153,3092~~~~~~~~~~~~~~~~~~
5485,2141,2971~~~~~~~~~~~~~~~~~~
4530,2130,2768~~~~~~~~~~~~~~~~~~
3790,1971,2202~~~~~~~~~~~~~~~~~~
3401,1675,1745~~~~~~~~~~~~~~~~~~
8374,1912,3443~~~~~~~~~~~~~~~~~~
8103,2474,3866~~~~~~~~~~~~~~~~~~
7378,2888,4275~~~~~~~~~~~~~~~~~~
6118,2697,4059~~~~~~~~~~~~~~~~~~
5402,2490,3962~~~~~~~~~~~~~~~~~~
5020,2763,3783~~~~~~~~~~~~~~~~~~
4511,2674,3176~~~~~~~~~~~~~~~~~~
4070,2266,2649~~~~~~~~~~~~~~~~~~
3451,1842,1935~~~~~~~~~~~~~~~~~~
7790,2623,4608~~~~~~~~~~~~~~~~~~
7346,3217,5394~~~~~~~~~~~~~~~~~~
6426,3381,5086~~~~~~~~~~~~~~~~~~
7360,3895,6447~~~~~~~~~~~~~~~~~~
6332,3996,6473~~~~~~~~~~~~~~~~~~
6942,4257,7387~~~~~~~~~~~~~~~~~~
6246,3659,6529~~~~~~~~~~~~~~~~~~
5545,902,905~~~~~~~~~~~~~~~~~~~~
4684,790,795~~~~~~~~~~~~~~~~~~~~
3889,648,737~~~~~~~~~~~~~~~~~~~~
3179,551,654~~~~~~~~~~~~~~~~~~~~
2490,486,505~~~~~~~~~~~~~~~~~~~~
9103,346,1043~~~~~~~~~~~~~~~~~~~
9115,408,1113~~~~~~~~~~~~~~~~~~~
8677,582,1170~~~~~~~~~~~~~~~~~~~
8310,706,1290~~~~~~~~~~~~~~~~~~~
7745,1014,1471~~~~~~~~~~~~~~~~~~
7124,1247,1524~~~~~~~~~~~~~~~~~~
6172,1462,1733~~~~~~~~~~~~~~~~~~
5309,1577,1453~~~~~~~~~~~~~~~~~~
4772,1601,1500~~~~~~~~~~~~~~~~~~
4082,1726,1767~~~~~~~~~~~~~~~~~~
3130,1966,1458~~~~~~~~~~~~~~~~~~
8863,1103,1740~~~~~~~~~~~~~~~~~~
8360,1218,1618~~~~~~~~~~~~~~~~~~
7719,1533,1971~~~~~~~~~~~~~~~~~~
7135,1967,2335~~~~~~~~~~~~~~~~~~
6697,1944,2267~~~~~~~~~~~~~~~~~~
6150,2246,2494~~~~~~~~~~~~~~~~~~
5400,2738,2646~~~~~~~~~~~~~~~~~~
4337,2592,2600~~~~~~~~~~~~~~~~~~
3620,2011,1848~~~~~~~~~~~~~~~~~~
3246,2094,1492~~~~~~~~~~~~~~~~~~
7859,1985,2833~~~~~~~~~~~~~~~~~~
7366,2771,3315~~~~~~~~~~~~~~~~~~
6896,2719,3284~~~~~~~~~~~~~~~~~~
6233,3109,3768~~~~~~~~~~~~~~~~~~
5319,3278,3781~~~~~~~~~~~~~~~~~~
4391,2905,2650~~~~~~~~~~~~~~~~~~
3855,2780,2552~~~~~~~~~~~~~~~~~~
6280,3599,4226~~~~~~~~~~~~~~~~~~
5857,3637,4116~~~~~~~~~~~~~~~~~~
5263,3921,4066~~~~~~~~~~~~~~~~~~
8223,2212,3194~~~~~~~~~~~~~~~~~~
7843,3017,4496~~~~~~~~~~~~~~~~~~
7432,3585,5290~~~~~~~~~~~~~~~~~~
6786,4425,6549~~~~~~~~~~~~~~~~~~
6432,4861,6456~~~~~~~~~~~~~~~~~~
5709,4413,5307~~~~~~~~~~~~~~~~~~
9133,463,584~~~~~~~~~~~~~~~~~~~~
8616,533,751~~~~~~~~~~~~~~~~~~~~
8420,690,786~~~~~~~~~~~~~~~~~~~~
7832,729,768~~~~~~~~~~~~~~~~~~~~
7105,837,799~~~~~~~~~~~~~~~~~~~~
6076,971,835~~~~~~~~~~~~~~~~~~~~
5440,966,843~~~~~~~~~~~~~~~~~~~~
4938,979,826~~~~~~~~~~~~~~~~~~~~
4439,1054,862~~~~~~~~~~~~~~~~~~~
3496,1062,579~~~~~~~~~~~~~~~~~~~
2433,1010,516~~~~~~~~~~~~~~~~~~~
8317,1130,1196~~~~~~~~~~~~~~~~~~
7760,1405,1473~~~~~~~~~~~~~~~~~~
7142,1616,1543~~~~~~~~~~~~~~~~~~
6753,1654,1506~~~~~~~~~~~~~~~~~~
6238,1781,1598~~~~~~~~~~~~~~~~~~
5623,1422,1373~~~~~~~~~~~~~~~~~~
4279,1755,1299~~~~~~~~~~~~~~~~~~
3392,1648,1049~~~~~~~~~~~~~~~~~~
2862,1255,1117~~~~~~~~~~~~~~~~~~
8948,707,1127~~~~~~~~~~~~~~~~~~~
8798,1116,1389~~~~~~~~~~~~~~~~~~
8436,1885,2149~~~~~~~~~~~~~~~~~~
7853,1886,2185~~~~~~~~~~~~~~~~~~
7290,2228,2351~~~~~~~~~~~~~~~~~~
6889,2355,2336~~~~~~~~~~~~~~~~~~
6322,2466,2419~~~~~~~~~~~~~~~~~~
5355,2597,2302~~~~~~~~~~~~~~~~~~
6467,2794,2471~~~~~~~~~~~~~~~~~~
5644,3027,2581~~~~~~~~~~~~~~~~~~
4803,2924,2227~~~~~~~~~~~~~~~~~~
7955,2571,2693~~~~~~~~~~~~~~~~~~
7420,3172,3170~~~~~~~~~~~~~~~~~~
6322,3586,3360~~~~~~~~~~~~~~~~~~
5957,4163,3465~~~~~~~~~~~~~~~~~~
4509,3248,2730~~~~~~~~~~~~~~~~~~
3394,2360,1668~~~~~~~~~~~~~~~~~~
2903,1846,1118~~~~~~~~~~~~~~~~~~
7242,3708,3779~~~~~~~~~~~~~~~~~~
6518,4160,3461~~~~~~~~~~~~~~~~~~
5867,4517,3887~~~~~~~~~~~~~~~~~~
5334,3904,3547~~~~~~~~~~~~~~~~~~
4417,3846,3323~~~~~~~~~~~~~~~~~~
4144,3111,2391~~~~~~~~~~~~~~~~~~
3296,3028,1911~~~~~~~~~~~~~~~~~~
6371,5272,5109~~~~~~~~~~~~~~~~~~
5877,5268,5808~~~~~~~~~~~~~~~~~~
5776,5094,6023~~~~~~~~~~~~~~~~~~
5074,4373,4311~~~~~~~~~~~~~~~~~~
5462,5398,5364~~~~~~~~~~~~~~~~~~
4559,4430,3778~~~~~~~~~~~~~~~~~~
8764,647,745~~~~~~~~~~~~~~~~~~~~
8876,854,701~~~~~~~~~~~~~~~~~~~~
8343,1023,718~~~~~~~~~~~~~~~~~~~
7883,1172,754~~~~~~~~~~~~~~~~~~~
7173,1407,786~~~~~~~~~~~~~~~~~~~
6855,1644,1287~~~~~~~~~~~~~~~~~~
6295,1831,1572~~~~~~~~~~~~~~~~~~
5741,2105,1804~~~~~~~~~~~~~~~~~~
5020,2040,1477~~~~~~~~~~~~~~~~~~
4275,2068,1359~~~~~~~~~~~~~~~~~~
3518,2496,1141~~~~~~~~~~~~~~~~~~
2366,2313,1142~~~~~~~~~~~~~~~~~~
2440,1294,509~~~~~~~~~~~~~~~~~~~
8881,1040,818~~~~~~~~~~~~~~~~~~~
8367,1329,1008~~~~~~~~~~~~~~~~~~
7940,1544,1100~~~~~~~~~~~~~~~~~~
7263,2092,1519~~~~~~~~~~~~~~~~~~
6226,2764,1894~~~~~~~~~~~~~~~~~~
5971,2537,1858~~~~~~~~~~~~~~~~~~
5677,2628,2116~~~~~~~~~~~~~~~~~~
5045,2704,1687~~~~~~~~~~~~~~~~~~
4188,2867,1803~~~~~~~~~~~~~~~~~~
3557,3147,1645~~~~~~~~~~~~~~~~~~
3224,3139,1876~~~~~~~~~~~~~~~~~~
6436,2867,2158~~~~~~~~~~~~~~~~~~
5586,3031,2169~~~~~~~~~~~~~~~~~~
5091,3358,2348~~~~~~~~~~~~~~~~~~
8737,1562,1401~~~~~~~~~~~~~~~~~~
8370,2202,1798~~~~~~~~~~~~~~~~~~
7871,2653,1953~~~~~~~~~~~~~~~~~~
7399,2610,1852~~~~~~~~~~~~~~~~~~
6212,3907,2462~~~~~~~~~~~~~~~~~~
5362,3594,2524~~~~~~~~~~~~~~~~~~
4388,4111,2458~~~~~~~~~~~~~~~~~~
7320,3747,2551~~~~~~~~~~~~~~~~~~
6313,4566,3437~~~~~~~~~~~~~~~~~~
5304,4492,2880~~~~~~~~~~~~~~~~~~
4596,4372,3021~~~~~~~~~~~~~~~~~~
4023,4305,2845~~~~~~~~~~~~~~~~~~
3191,3965,2615~~~~~~~~~~~~~~~~~~
6326,5063,3579~~~~~~~~~~~~~~~~~~
4831,5371,4333~~~~~~~~~~~~~~~~~~
4492,5203,3655~~~~~~~~~~~~~~~~~~
3842,4632,3165~~~~~~~~~~~~~~~~~~
4279,4763,2597~~~~~~~~~~~~~~~~~~
4371,5921,4649~~~~~~~~~~~~~~~~~~
4228,4976,3454~~~~~~~~~~~~~~~~~~
3879,4720,3157~~~~~~~~~~~~~~~~~~
8798,669,314~~~~~~~~~~~~~~~~~~~~
8270,930,243~~~~~~~~~~~~~~~~~~~~
7951,695,338~~~~~~~~~~~~~~~~~~~~
7004,684,288~~~~~~~~~~~~~~~~~~~~
6203,917,311~~~~~~~~~~~~~~~~~~~~
5162,1150,451~~~~~~~~~~~~~~~~~~~
4229,1058,383~~~~~~~~~~~~~~~~~~~
3515,1029,249~~~~~~~~~~~~~~~~~~~
2848,699,152~~~~~~~~~~~~~~~~~~~~
9087,752,516~~~~~~~~~~~~~~~~~~~~
8812,1091,427~~~~~~~~~~~~~~~~~~~
8265,1187,506~~~~~~~~~~~~~~~~~~~
7742,1785,686~~~~~~~~~~~~~~~~~~~
7048,2334,1085~~~~~~~~~~~~~~~~~~
6441,2894,1416~~~~~~~~~~~~~~~~~~
5290,1969,979~~~~~~~~~~~~~~~~~~~
4420,1917,875~~~~~~~~~~~~~~~~~~~
3436,1846,794~~~~~~~~~~~~~~~~~~~
2668,1576,419~~~~~~~~~~~~~~~~~~~
5162,2960,839~~~~~~~~~~~~~~~~~~~
4460,3082,959~~~~~~~~~~~~~~~~~~~
3547,2604,801~~~~~~~~~~~~~~~~~~~
2753,2150,535~~~~~~~~~~~~~~~~~~~
8750,1294,721~~~~~~~~~~~~~~~~~~~
8365,1905,984~~~~~~~~~~~~~~~~~~~
7865,2463,1230~~~~~~~~~~~~~~~~~~
7142,3214,1492~~~~~~~~~~~~~~~~~~
6457,3564,1752~~~~~~~~~~~~~~~~~~
5961,3940,1739~~~~~~~~~~~~~~~~~~
5336,3739,2156~~~~~~~~~~~~~~~~~~
4356,3598,1819~~~~~~~~~~~~~~~~~~
3623,3450,1300~~~~~~~~~~~~~~~~~~
2838,2590,896~~~~~~~~~~~~~~~~~~~
7811,2859,1091~~~~~~~~~~~~~~~~~~
7112,4050,1569~~~~~~~~~~~~~~~~~~
6064,4987,2151~~~~~~~~~~~~~~~~~~
5416,5005,2338~~~~~~~~~~~~~~~~~~
5099,5567,2758~~~~~~~~~~~~~~~~~~
4068,5188,2479~~~~~~~~~~~~~~~~~~
3493,4479,2648~~~~~~~~~~~~~~~~~~
2617,3108,1603~~~~~~~~~~~~~~~~~~
5309,5026,1887~~~~~~~~~~~~~~~~~~
4356,4332,1317~~~~~~~~~~~~~~~~~~
4524,5365,2925~~~~~~~~~~~~~~~~~~
4001,4796,2506~~~~~~~~~~~~~~~~~~
9066,277,135~~~~~~~~~~~~~~~~~~~~
8795,451,322~~~~~~~~~~~~~~~~~~~~
8255,598,330~~~~~~~~~~~~~~~~~~~~
7781,540,275~~~~~~~~~~~~~~~~~~~~
7085,468,210~~~~~~~~~~~~~~~~~~~~
6643,495,171~~~~~~~~~~~~~~~~~~~~
6340,523,247~~~~~~~~~~~~~~~~~~~~
6067,433,262~~~~~~~~~~~~~~~~~~~~
5090,657,284~~~~~~~~~~~~~~~~~~~~
4258,647,221~~~~~~~~~~~~~~~~~~~~
3465,503,16~~~~~~~~~~~~~~~~~~~~~
8356,1045,247~~~~~~~~~~~~~~~~~~~
7731,1004,306~~~~~~~~~~~~~~~~~~~
7203,1176,416~~~~~~~~~~~~~~~~~~~
6764,1063,483~~~~~~~~~~~~~~~~~~~
6160,1086,308~~~~~~~~~~~~~~~~~~~
5565,1284,406~~~~~~~~~~~~~~~~~~~
5309,1844,395~~~~~~~~~~~~~~~~~~~
4258,1974,289~~~~~~~~~~~~~~~~~~~
3371,1947,278~~~~~~~~~~~~~~~~~~~
2880,2204,460~~~~~~~~~~~~~~~~~~~
8848,838,306~~~~~~~~~~~~~~~~~~~~
8242,1247,249~~~~~~~~~~~~~~~~~~~
7803,2039,347~~~~~~~~~~~~~~~~~~~
7089,2447,714~~~~~~~~~~~~~~~~~~~
6499,2419,342~~~~~~~~~~~~~~~~~~~
6085,2567,630~~~~~~~~~~~~~~~~~~~
5215,2899,309~~~~~~~~~~~~~~~~~~~
4537,2872,54~~~~~~~~~~~~~~~~~~~~
3509,2716,20~~~~~~~~~~~~~~~~~~~~
2708,1950,-55~~~~~~~~~~~~~~~~~~~
5220,3808,277~~~~~~~~~~~~~~~~~~~
4061,3554,1075~~~~~~~~~~~~~~~~~~
2657,2727,429~~~~~~~~~~~~~~~~~~~
4325,5225,2065~~~~~~~~~~~~~~~~~~
3366,3973,1189~~~~~~~~~~~~~~~~~~
9025,429,134~~~~~~~~~~~~~~~~~~~~
8791,409,85~~~~~~~~~~~~~~~~~~~~~
8235,432,-12~~~~~~~~~~~~~~~~~~~~
7584,505,49~~~~~~~~~~~~~~~~~~~~~
7160,514,55~~~~~~~~~~~~~~~~~~~~~
6032,647,-88~~~~~~~~~~~~~~~~~~~~
5066,425,22~~~~~~~~~~~~~~~~~~~~~
4237,643,-74~~~~~~~~~~~~~~~~~~~~
3374,442,-103~~~~~~~~~~~~~~~~~~~
2689,412,-122~~~~~~~~~~~~~~~~~~~
9108,527,144~~~~~~~~~~~~~~~~~~~~
8755,823,74~~~~~~~~~~~~~~~~~~~~~
8251,1148,-10~~~~~~~~~~~~~~~~~~~
7850,1460,-58~~~~~~~~~~~~~~~~~~~
7058,1594,-160~~~~~~~~~~~~~~~~~~
6066,1873,-60~~~~~~~~~~~~~~~~~~~
5174,1773,-68~~~~~~~~~~~~~~~~~~~
4266,1702,-153~~~~~~~~~~~~~~~~~~
3409,1557,-162~~~~~~~~~~~~~~~~~~
2845,1363,-184~~~~~~~~~~~~~~~~~~
2510,1114,-28~~~~~~~~~~~~~~~~~~~
8600,1310,-42~~~~~~~~~~~~~~~~~~~
8191,2101,-104~~~~~~~~~~~~~~~~~~
7761,2753,-139~~~~~~~~~~~~~~~~~~
7027,3616,-260~~~~~~~~~~~~~~~~~~
6141,3431,-228~~~~~~~~~~~~~~~~~~
5188,3549,-270~~~~~~~~~~~~~~~~~~
4235,3513,-322~~~~~~~~~~~~~~~~~~
3396,3129,-422~~~~~~~~~~~~~~~~~~
2259,2267,-422~~~~~~~~~~~~~~~~~~
2408,1379,-272~~~~~~~~~~~~~~~~~~
1967,1128,-196~~~~~~~~~~~~~~~~~~
5426,4830,-189~~~~~~~~~~~~~~~~~~
4236,4575,-426~~~~~~~~~~~~~~~~~~
3378,3876,-283~~~~~~~~~~~~~~~~~~
4780,5260,438~~~~~~~~~~~~~~~~~~~
4106,5219,70~~~~~~~~~~~~~~~~~~~~
3520,4148,197~~~~~~~~~~~~~~~~~~~
8772,672,37~~~~~~~~~~~~~~~~~~~~~
8361,671,20~~~~~~~~~~~~~~~~~~~~~
7862,645,-37~~~~~~~~~~~~~~~~~~~~
7052,579,-152~~~~~~~~~~~~~~~~~~~
5987,640,-120~~~~~~~~~~~~~~~~~~~
5216,983,-279~~~~~~~~~~~~~~~~~~~
4280,959,-281~~~~~~~~~~~~~~~~~~~
3375,835,-319~~~~~~~~~~~~~~~~~~~
2896,227,251~~~~~~~~~~~~~~~~~~~~
8338,994,-91~~~~~~~~~~~~~~~~~~~~
7750,1133,-191~~~~~~~~~~~~~~~~~~
7061,1272,-351~~~~~~~~~~~~~~~~~~
6068,1378,-336~~~~~~~~~~~~~~~~~~
5703,1204,-218~~~~~~~~~~~~~~~~~~
4347,1677,-410~~~~~~~~~~~~~~~~~~
3297,1823,-660~~~~~~~~~~~~~~~~~~
8358,1560,-113~~~~~~~~~~~~~~~~~~
7687,1822,-450~~~~~~~~~~~~~~~~~~
6907,2103,-491~~~~~~~~~~~~~~~~~~
6198,2428,-723~~~~~~~~~~~~~~~~~~
5123,2464,-679~~~~~~~~~~~~~~~~~~
4207,2343,-729~~~~~~~~~~~~~~~~~~
3259,2461,-904~~~~~~~~~~~~~~~~~~
8801,1098,-38~~~~~~~~~~~~~~~~~~~
7603,2866,-633~~~~~~~~~~~~~~~~~~
6964,3640,-888~~~~~~~~~~~~~~~~~~
6090,3979,-874~~~~~~~~~~~~~~~~~~
5253,3421,-815~~~~~~~~~~~~~~~~~~
4157,3251,-853~~~~~~~~~~~~~~~~~~
3520,3058,-715~~~~~~~~~~~~~~~~~~
2566,1981,-580~~~~~~~~~~~~~~~~~~
5228,4730,-1068~~~~~~~~~~~~~~~~~
3862,4471,-1117~~~~~~~~~~~~~~~~~
8965,83,138~~~~~~~~~~~~~~~~~~~~~
8529,124,188~~~~~~~~~~~~~~~~~~~~
8239,133,214~~~~~~~~~~~~~~~~~~~~
7810,161,171~~~~~~~~~~~~~~~~~~~~
6864,187,199~~~~~~~~~~~~~~~~~~~~
6079,218,131~~~~~~~~~~~~~~~~~~~~
5388,129,148~~~~~~~~~~~~~~~~~~~~
4861,90,122~~~~~~~~~~~~~~~~~~~~~
4382,122,131~~~~~~~~~~~~~~~~~~~~
3559,138,148~~~~~~~~~~~~~~~~~~~~
9042,107,47~~~~~~~~~~~~~~~~~~~~~
8731,460,-40~~~~~~~~~~~~~~~~~~~~
8203,570,-84~~~~~~~~~~~~~~~~~~~~
7803,530,-108~~~~~~~~~~~~~~~~~~~
7038,765,-366~~~~~~~~~~~~~~~~~~~
6126,729,-275~~~~~~~~~~~~~~~~~~~
5224,865,-331~~~~~~~~~~~~~~~~~~~
4271,892,-441~~~~~~~~~~~~~~~~~~~
3497,1138,-763~~~~~~~~~~~~~~~~~~
5971,1366,-647~~~~~~~~~~~~~~~~~~
5139,1413,-654~~~~~~~~~~~~~~~~~~
4277,1336,-785~~~~~~~~~~~~~~~~~~
3304,1414,-1010~~~~~~~~~~~~~~~~~
8747,1207,-238~~~~~~~~~~~~~~~~~~
8219,1347,-440~~~~~~~~~~~~~~~~~~
7772,1516,-384~~~~~~~~~~~~~~~~~~
7013,1943,-633~~~~~~~~~~~~~~~~~~
6042,2348,-993~~~~~~~~~~~~~~~~~~
5070,2253,-1009~~~~~~~~~~~~~~~~~
4433,2083,-1354~~~~~~~~~~~~~~~~~
6989,2576,-938~~~~~~~~~~~~~~~~~~
6163,2912,-1281~~~~~~~~~~~~~~~~~
5132,3206,-1372~~~~~~~~~~~~~~~~~
4277,2827,-1298~~~~~~~~~~~~~~~~~
3293,2199,-1349~~~~~~~~~~~~~~~~~
2512,1477,-838~~~~~~~~~~~~~~~~~~
6894,3613,-1361~~~~~~~~~~~~~~~~~
6079,4002,-1512~~~~~~~~~~~~~~~~~
5045,4187,-1798~~~~~~~~~~~~~~~~~
3941,4024,-1891~~~~~~~~~~~~~~~~~
3350,3713,-991~~~~~~~~~~~~~~~~~~
7639,2087,-1183~~~~~~~~~~~~~~~~~
6978,2502,-1566~~~~~~~~~~~~~~~~~
5911,2822,-2086~~~~~~~~~~~~~~~~~
5117,3257,-2003~~~~~~~~~~~~~~~~~
4082,3415,-1662~~~~~~~~~~~~~~~~~
3296,3259,-1760~~~~~~~~~~~~~~~~~
9082,242,-22~~~~~~~~~~~~~~~~~~~~
8779,196,-160~~~~~~~~~~~~~~~~~~~
8216,222,-146~~~~~~~~~~~~~~~~~~~
7463,270,-318~~~~~~~~~~~~~~~~~~~
7179,206,-204~~~~~~~~~~~~~~~~~~~
5999,387,-299~~~~~~~~~~~~~~~~~~~
5213,416,-310~~~~~~~~~~~~~~~~~~~
4178,538,-448~~~~~~~~~~~~~~~~~~~
3442,371,-438~~~~~~~~~~~~~~~~~~~
2531,317,-762~~~~~~~~~~~~~~~~~~~
8989,247,-131~~~~~~~~~~~~~~~~~~~
8228,770,-355~~~~~~~~~~~~~~~~~~~
7671,812,-493~~~~~~~~~~~~~~~~~~~
7130,967,-758~~~~~~~~~~~~~~~~~~~
6281,1025,-662~~~~~~~~~~~~~~~~~~
5193,1201,-1171~~~~~~~~~~~~~~~~~
4133,1231,-1307~~~~~~~~~~~~~~~~~
3229,1201,-1313~~~~~~~~~~~~~~~~~
2634,1091,-1482~~~~~~~~~~~~~~~~~
8626,564,-594~~~~~~~~~~~~~~~~~~~
8282,794,-753~~~~~~~~~~~~~~~~~~~
7721,1089,-1023~~~~~~~~~~~~~~~~~
6964,1277,-1369~~~~~~~~~~~~~~~~~
6023,1057,-1281~~~~~~~~~~~~~~~~~
5072,1525,-1826~~~~~~~~~~~~~~~~~
4289,1648,-1751~~~~~~~~~~~~~~~~~
3196,1729,-2029~~~~~~~~~~~~~~~~~
5051,1867,-1330~~~~~~~~~~~~~~~~~
4157,1948,-1537~~~~~~~~~~~~~~~~~
3240,1815,-1318~~~~~~~~~~~~~~~~~
7702,1262,-1365~~~~~~~~~~~~~~~~~
6870,2044,-2173~~~~~~~~~~~~~~~~~
5875,2464,-2695~~~~~~~~~~~~~~~~~
4923,2774,-2966~~~~~~~~~~~~~~~~~
3887,2896,-3169~~~~~~~~~~~~~~~~~
3074,2459,-2803~~~~~~~~~~~~~~~~~
2392,1648,-1795~~~~~~~~~~~~~~~~~
8608,145,-552~~~~~~~~~~~~~~~~~~~
8362,55,-549~~~~~~~~~~~~~~~~~~~~
7745,20,-443~~~~~~~~~~~~~~~~~~~~
6890,-48,-575~~~~~~~~~~~~~~~~~~~
6124,-19,-535~~~~~~~~~~~~~~~~~~~
5210,69,-707~~~~~~~~~~~~~~~~~~~~
4137,136,-823~~~~~~~~~~~~~~~~~~~
3464,148,-931~~~~~~~~~~~~~~~~~~~
2484,129,-787~~~~~~~~~~~~~~~~~~~
7681,503,-884~~~~~~~~~~~~~~~~~~~
6999,788,-1176~~~~~~~~~~~~~~~~~~
6056,785,-1154~~~~~~~~~~~~~~~~~~
5209,914,-1276~~~~~~~~~~~~~~~~~~
4219,1035,-1469~~~~~~~~~~~~~~~~~
3290,943,-1544~~~~~~~~~~~~~~~~~~
2587,908,-1443~~~~~~~~~~~~~~~~~~
8267,766,-1125~~~~~~~~~~~~~~~~~~
7640,930,-1598~~~~~~~~~~~~~~~~~~
6830,1095,-1651~~~~~~~~~~~~~~~~~
6014,1223,-1773~~~~~~~~~~~~~~~~~
4555,1615,-2395~~~~~~~~~~~~~~~~~
4006,1355,-1924~~~~~~~~~~~~~~~~~
3142,1293,-1956~~~~~~~~~~~~~~~~~
6890,1339,-2117~~~~~~~~~~~~~~~~~
6024,1543,-2400~~~~~~~~~~~~~~~~~
5027,2083,-3191~~~~~~~~~~~~~~~~~
4027,2281,-3416~~~~~~~~~~~~~~~~~
3131,2188,-3199~~~~~~~~~~~~~~~~~
2584,1628,-2370~~~~~~~~~~~~~~~~~
2529,1270,-2216~~~~~~~~~~~~~~~~~
3608,2368,-3568~~~~~~~~~~~~~~~~~
7901,62,70~~~~~~~~~~~~~~~~~~~~~~
6287,53,-25~~~~~~~~~~~~~~~~~~~~~
5229,-56,47~~~~~~~~~~~~~~~~~~~~~
8600,259,-401~~~~~~~~~~~~~~~~~~~
8279,170,-389~~~~~~~~~~~~~~~~~~~
7707,207,-529~~~~~~~~~~~~~~~~~~~
7056,283,-593~~~~~~~~~~~~~~~~~~~
6163,244,-567~~~~~~~~~~~~~~~~~~~
5210,269,-712~~~~~~~~~~~~~~~~~~~
4319,299,-922~~~~~~~~~~~~~~~~~~~
3500,394,-995~~~~~~~~~~~~~~~~~~~
2497,236,-808~~~~~~~~~~~~~~~~~~~
8597,124,-819~~~~~~~~~~~~~~~~~~~
8275,204,-787~~~~~~~~~~~~~~~~~~~
7718,300,-1032~~~~~~~~~~~~~~~~~~
6942,504,-1240~~~~~~~~~~~~~~~~~~
6065,477,-1305~~~~~~~~~~~~~~~~~~
5005,601,-1577~~~~~~~~~~~~~~~~~~
4259,476,-1508~~~~~~~~~~~~~~~~~~
3337,596,-1637~~~~~~~~~~~~~~~~~~
6954,724,-1662~~~~~~~~~~~~~~~~~~
5969,576,-1761~~~~~~~~~~~~~~~~~~
5129,806,-1967~~~~~~~~~~~~~~~~~~
4323,926,-2456~~~~~~~~~~~~~~~~~~
3434,855,-2134~~~~~~~~~~~~~~~~~~
2321,723,-2635~~~~~~~~~~~~~~~~~~
8109,413,-1393~~~~~~~~~~~~~~~~~~
7424,710,-2191~~~~~~~~~~~~~~~~~~
6738,1103,-2720~~~~~~~~~~~~~~~~~
6107,1126,-2833~~~~~~~~~~~~~~~~~
5029,1078,-2915~~~~~~~~~~~~~~~~~
4082,1175,-2874~~~~~~~~~~~~~~~~~
3302,1203,-2903~~~~~~~~~~~~~~~~~
2482,1293,-3076~~~~~~~~~~~~~~~~~
5116,1467,-3401~~~~~~~~~~~~~~~~~
4125,1461,-3425~~~~~~~~~~~~~~~~~
3235,1329,-3244~~~~~~~~~~~~~~~~~
7692,190,-984~~~~~~~~~~~~~~~~~~~
6948,129,-1248~~~~~~~~~~~~~~~~~~
6145,109,-1384~~~~~~~~~~~~~~~~~~
5110,142,-1407~~~~~~~~~~~~~~~~~~
4176,192,-1470~~~~~~~~~~~~~~~~~~
3387,165,-1675~~~~~~~~~~~~~~~~~~
2718,96,-1538~~~~~~~~~~~~~~~~~~~
8642,25,-549~~~~~~~~~~~~~~~~~~~~
8067,84,-1056~~~~~~~~~~~~~~~~~~~
7726,-12,-1453~~~~~~~~~~~~~~~~~~
6867,116,-1885~~~~~~~~~~~~~~~~~~
5936,201,-2195~~~~~~~~~~~~~~~~~~
5067,292,-2989~~~~~~~~~~~~~~~~~~
4047,440,-3229~~~~~~~~~~~~~~~~~~
3232,466,-3085~~~~~~~~~~~~~~~~~~
2552,447,-2855~~~~~~~~~~~~~~~~~~
7645,187,-2035~~~~~~~~~~~~~~~~~~
6745,206,-2851~~~~~~~~~~~~~~~~~~
5905,205,-3202~~~~~~~~~~~~~~~~~~
4951,262,-3607~~~~~~~~~~~~~~~~~~
3907,705,-4634~~~~~~~~~~~~~~~~~~
3057,1041,-4574~~~~~~~~~~~~~~~~~
2396,907,-4349~~~~~~~~~~~~~~~~~~
8869,-60,49~~~~~~~~~~~~~~~~~~~~~
8557,-8,-589~~~~~~~~~~~~~~~~~~~~
8303,54,-762~~~~~~~~~~~~~~~~~~~~
7962,-97,-727~~~~~~~~~~~~~~~~~~~
7061,-188,-810~~~~~~~~~~~~~~~~~~
6135,-123,-885~~~~~~~~~~~~~~~~~~
5291,-109,-835~~~~~~~~~~~~~~~~~~
4278,-171,-785~~~~~~~~~~~~~~~~~~
3460,-153,-866~~~~~~~~~~~~~~~~~~
2687,-110,-786~~~~~~~~~~~~~~~~~~
2166,-111,-72~~~~~~~~~~~~~~~~~~~
8091,-99,-1190~~~~~~~~~~~~~~~~~~
7576,-49,-1016~~~~~~~~~~~~~~~~~~
6795,-99,-1007~~~~~~~~~~~~~~~~~~
5950,-40,-1384~~~~~~~~~~~~~~~~~~
5324,-123,-1339~~~~~~~~~~~~~~~~~
4219,41,-1495~~~~~~~~~~~~~~~~~~~
3611,67,-1652~~~~~~~~~~~~~~~~~~~
2810,-106,-1328~~~~~~~~~~~~~~~~~
2229,-105,-1183~~~~~~~~~~~~~~~~~
1954,-21,-816~~~~~~~~~~~~~~~~~~~
8150,-90,-1320~~~~~~~~~~~~~~~~~~
7625,-107,-1789~~~~~~~~~~~~~~~~~
6977,-120,-1913~~~~~~~~~~~~~~~~~
6035,-84,-2181~~~~~~~~~~~~~~~~~~
5141,71,-2400~~~~~~~~~~~~~~~~~~~
4153,81,-2337~~~~~~~~~~~~~~~~~~~
3087,-52,-2677~~~~~~~~~~~~~~~~~~
2365,-36,-2128~~~~~~~~~~~~~~~~~~
2381,126,-2126~~~~~~~~~~~~~~~~~~
7485,-13,-2285~~~~~~~~~~~~~~~~~~
6703,-15,-2647~~~~~~~~~~~~~~~~~~
5992,-81,-3028~~~~~~~~~~~~~~~~~~
5052,-22,-3156~~~~~~~~~~~~~~~~~~
3949,134,-3212~~~~~~~~~~~~~~~~~~
3056,34,-3375~~~~~~~~~~~~~~~~~~~
2468,-54,-2997~~~~~~~~~~~~~~~~~~
6720,-126,-2991~~~~~~~~~~~~~~~~~
5876,-69,-3624~~~~~~~~~~~~~~~~~~
4563,-97,-3882~~~~~~~~~~~~~~~~~~
3829,73,-3951~~~~~~~~~~~~~~~~~~~
2939,156,-4099~~~~~~~~~~~~~~~~~~
2266,338,-3760~~~~~~~~~~~~~~~~~~
5676,-137,-4039~~~~~~~~~~~~~~~~~
5011,54,-4088~~~~~~~~~~~~~~~~~~~
4049,388,-4729~~~~~~~~~~~~~~~~~~
3551,184,-4244~~~~~~~~~~~~~~~~~~
2840,407,-4948~~~~~~~~~~~~~~~~~~
5977,-43,-225~~~~~~~~~~~~~~~~~~~
9029,59,16~~~~~~~~~~~~~~~~~~~~~~
8752,28,-270~~~~~~~~~~~~~~~~~~~~
8178,-67,-280~~~~~~~~~~~~~~~~~~~
7561,-74,-352~~~~~~~~~~~~~~~~~~~
7047,-39,-303~~~~~~~~~~~~~~~~~~~
6295,-77,-322~~~~~~~~~~~~~~~~~~~
5648,-92,-391~~~~~~~~~~~~~~~~~~~
5181,-59,-379~~~~~~~~~~~~~~~~~~~
4262,-86,-376~~~~~~~~~~~~~~~~~~~
3733,41,-274~~~~~~~~~~~~~~~~~~~~
3316,-105,-232~~~~~~~~~~~~~~~~~~
8918,-107,-377~~~~~~~~~~~~~~~~~~
8665,-176,-741~~~~~~~~~~~~~~~~~~
7948,-193,-863~~~~~~~~~~~~~~~~~~
7736,-138,-998~~~~~~~~~~~~~~~~~~
7023,-268,-1125~~~~~~~~~~~~~~~~~
6341,-235,-1149~~~~~~~~~~~~~~~~~
5665,-269,-1610~~~~~~~~~~~~~~~~~
4918,-215,-1858~~~~~~~~~~~~~~~~~
4195,-274,-1615~~~~~~~~~~~~~~~~~
3349,-246,-1683~~~~~~~~~~~~~~~~~
2643,-233,-1514~~~~~~~~~~~~~~~~~
2149,23,-502~~~~~~~~~~~~~~~~~~~~
8161,-222,-1147~~~~~~~~~~~~~~~~~
7558,-352,-1467~~~~~~~~~~~~~~~~~
6820,-330,-1921~~~~~~~~~~~~~~~~~
6002,-419,-2233~~~~~~~~~~~~~~~~~
5101,-382,-2450~~~~~~~~~~~~~~~~~
4123,-225,-2656~~~~~~~~~~~~~~~~~
3216,-198,-2227~~~~~~~~~~~~~~~~~
2532,-232,-2290~~~~~~~~~~~~~~~~~
8147,-351,-1458~~~~~~~~~~~~~~~~~
7650,-386,-1852~~~~~~~~~~~~~~~~~
6695,-445,-2623~~~~~~~~~~~~~~~~~
5904,-484,-2925~~~~~~~~~~~~~~~~~
4988,-468,-3141~~~~~~~~~~~~~~~~~
4023,-481,-3239~~~~~~~~~~~~~~~~~
3063,-468,-3263~~~~~~~~~~~~~~~~~
2383,-73,-3272~~~~~~~~~~~~~~~~~~
7645,-471,-2128~~~~~~~~~~~~~~~~~
6609,-606,-3167~~~~~~~~~~~~~~~~~
5833,-561,-3459~~~~~~~~~~~~~~~~~
4950,-708,-4225~~~~~~~~~~~~~~~~~
4036,-511,-4224~~~~~~~~~~~~~~~~~
2802,-155,-3992~~~~~~~~~~~~~~~~~
5653,-721,-4260~~~~~~~~~~~~~~~~~
4696,-767,-5077~~~~~~~~~~~~~~~~~
3878,-599,-5154~~~~~~~~~~~~~~~~~
2946,-249,-4578~~~~~~~~~~~~~~~~~
6381,-126,-279~~~~~~~~~~~~~~~~~~
6013,-219,-419~~~~~~~~~~~~~~~~~~
5455,-114,-306~~~~~~~~~~~~~~~~~~
8788,-41,-582~~~~~~~~~~~~~~~~~~~
8452,-151,-763~~~~~~~~~~~~~~~~~~
8135,-172,-709~~~~~~~~~~~~~~~~~~
7809,-191,-827~~~~~~~~~~~~~~~~~~
7065,-204,-771~~~~~~~~~~~~~~~~~~
6099,-237,-795~~~~~~~~~~~~~~~~~~
5104,-310,-657~~~~~~~~~~~~~~~~~~
4327,-281,-809~~~~~~~~~~~~~~~~~~
3401,-350,-833~~~~~~~~~~~~~~~~~~
2751,-316,-650~~~~~~~~~~~~~~~~~~
2668,-102,-50~~~~~~~~~~~~~~~~~~~
8849,-299,-463~~~~~~~~~~~~~~~~~~
8644,-483,-678~~~~~~~~~~~~~~~~~~
7884,-400,-899~~~~~~~~~~~~~~~~~~
7782,-631,-1268~~~~~~~~~~~~~~~~~
6996,-627,-1282~~~~~~~~~~~~~~~~~
6093,-510,-1249~~~~~~~~~~~~~~~~~
5087,-710,-1340~~~~~~~~~~~~~~~~~
4115,-700,-1595~~~~~~~~~~~~~~~~~
3445,-659,-1417~~~~~~~~~~~~~~~~~
8630,-449,-385~~~~~~~~~~~~~~~~~~
8509,-728,-1102~~~~~~~~~~~~~~~~~
7831,-1012,-1883~~~~~~~~~~~~~~~~
6920,-1039,-2070~~~~~~~~~~~~~~~~
6185,-1067,-2144~~~~~~~~~~~~~~~~
5494,-968,-2346~~~~~~~~~~~~~~~~~
5120,-828,-2250~~~~~~~~~~~~~~~~~
4040,-761,-2555~~~~~~~~~~~~~~~~~
3214,-747,-2443~~~~~~~~~~~~~~~~~
2532,-399,-2160~~~~~~~~~~~~~~~~~
7542,-1050,-2087~~~~~~~~~~~~~~~~
6787,-1266,-2673~~~~~~~~~~~~~~~~
6042,-1138,-3061~~~~~~~~~~~~~~~~
5050,-1164,-3005~~~~~~~~~~~~~~~~
4062,-1037,-3249~~~~~~~~~~~~~~~~
3484,-906,-2416~~~~~~~~~~~~~~~~~
7454,-1405,-2576~~~~~~~~~~~~~~~~
6595,-1677,-3510~~~~~~~~~~~~~~~~
5880,-1478,-3945~~~~~~~~~~~~~~~~
4708,-1170,-4192~~~~~~~~~~~~~~~~
4180,-1000,-4759~~~~~~~~~~~~~~~~
3317,-777,-3544~~~~~~~~~~~~~~~~~
3132,-616,-4663~~~~~~~~~~~~~~~~~
8632,-147,205~~~~~~~~~~~~~~~~~~~
8542,-176,74~~~~~~~~~~~~~~~~~~~~
8039,-248,-242~~~~~~~~~~~~~~~~~~
7761,-267,-294~~~~~~~~~~~~~~~~~~
7196,-335,-474~~~~~~~~~~~~~~~~~~
6354,-349,-676~~~~~~~~~~~~~~~~~~
8764,-308,-324~~~~~~~~~~~~~~~~~~
8595,-419,-452~~~~~~~~~~~~~~~~~~
8151,-355,-713~~~~~~~~~~~~~~~~~~
7720,-558,-670~~~~~~~~~~~~~~~~~~
6815,-510,-771~~~~~~~~~~~~~~~~~~
6131,-471,-801~~~~~~~~~~~~~~~~~~
5475,-314,-539~~~~~~~~~~~~~~~~~~
4393,-303,-475~~~~~~~~~~~~~~~~~~
3354,-449,-784~~~~~~~~~~~~~~~~~~
2611,-447,-559~~~~~~~~~~~~~~~~~~
7696,-585,-958~~~~~~~~~~~~~~~~~~
6995,-795,-1068~~~~~~~~~~~~~~~~~
5947,-837,-1279~~~~~~~~~~~~~~~~~
4997,-992,-1456~~~~~~~~~~~~~~~~~
4067,-989,-1518~~~~~~~~~~~~~~~~~
3167,-884,-1396~~~~~~~~~~~~~~~~~
2532,-643,-1297~~~~~~~~~~~~~~~~~
8745,-449,-555~~~~~~~~~~~~~~~~~~
8592,-594,-896~~~~~~~~~~~~~~~~~~
8279,-732,-1062~~~~~~~~~~~~~~~~~
7554,-1208,-1549~~~~~~~~~~~~~~~~
6818,-1528,-2211~~~~~~~~~~~~~~~~
5805,-1539,-2156~~~~~~~~~~~~~~~~
5003,-1362,-2249~~~~~~~~~~~~~~~~
4128,-1322,-2274~~~~~~~~~~~~~~~~
3194,-1067,-2399~~~~~~~~~~~~~~~~
2728,-936,-2189~~~~~~~~~~~~~~~~~
7821,-1312,-1933~~~~~~~~~~~~~~~~
7367,-1545,-2398~~~~~~~~~~~~~~~~
6751,-1955,-3190~~~~~~~~~~~~~~~~
5825,-1988,-3167~~~~~~~~~~~~~~~~
4935,-1808,-3312~~~~~~~~~~~~~~~~
4041,-1560,-3277~~~~~~~~~~~~~~~~
3196,-1170,-3259~~~~~~~~~~~~~~~~
2915,-663,-2259~~~~~~~~~~~~~~~~~
7354,-1904,-2590~~~~~~~~~~~~~~~~
6524,-2191,-3572~~~~~~~~~~~~~~~~
5587,-2335,-4240~~~~~~~~~~~~~~~~
4801,-2016,-4429~~~~~~~~~~~~~~~~
3763,-1447,-4653~~~~~~~~~~~~~~~~
3229,-1075,-4069~~~~~~~~~~~~~~~~
9091,-90,56~~~~~~~~~~~~~~~~~~~~~
8618,-295,-85~~~~~~~~~~~~~~~~~~~
8142,-369,-90~~~~~~~~~~~~~~~~~~~
7453,-380,-233~~~~~~~~~~~~~~~~~~
6916,-380,-233~~~~~~~~~~~~~~~~~~
6043,-330,-241~~~~~~~~~~~~~~~~~~
5153,-318,-207~~~~~~~~~~~~~~~~~~
4332,-335,-224~~~~~~~~~~~~~~~~~~
3656,-325,-291~~~~~~~~~~~~~~~~~~
2749,-365,-331~~~~~~~~~~~~~~~~~~
8019,-373,-299~~~~~~~~~~~~~~~~~~
7492,-444,-419~~~~~~~~~~~~~~~~~~
6916,-649,-389~~~~~~~~~~~~~~~~~~
6004,-680,-401~~~~~~~~~~~~~~~~~~
5120,-651,-560~~~~~~~~~~~~~~~~~~
4263,-808,-655~~~~~~~~~~~~~~~~~~
3491,-691,-583~~~~~~~~~~~~~~~~~~
3105,-389,-295~~~~~~~~~~~~~~~~~~
2699,-435,-230~~~~~~~~~~~~~~~~~~
2188,-361,-253~~~~~~~~~~~~~~~~~~
7742,-778,-806~~~~~~~~~~~~~~~~~~
6931,-1128,-1245~~~~~~~~~~~~~~~~
5910,-1162,-1342~~~~~~~~~~~~~~~~
5068,-1399,-1347~~~~~~~~~~~~~~~~
4125,-1278,-1364~~~~~~~~~~~~~~~~
3383,-1063,-1283~~~~~~~~~~~~~~~~
2751,-978,-1074~~~~~~~~~~~~~~~~~
8605,-810,-796~~~~~~~~~~~~~~~~~~
8133,-1089,-1055~~~~~~~~~~~~~~~~
7695,-1246,-1361~~~~~~~~~~~~~~~~
6890,-1807,-2147~~~~~~~~~~~~~~~~
5931,-1692,-2134~~~~~~~~~~~~~~~~
5019,-1703,-2249~~~~~~~~~~~~~~~~
4018,-1498,-2210~~~~~~~~~~~~~~~~
3180,-1244,-2257~~~~~~~~~~~~~~~~
2563,-753,-2312~~~~~~~~~~~~~~~~~
8509,-1066,-1049~~~~~~~~~~~~~~~~
7921,-1238,-1393~~~~~~~~~~~~~~~~
7541,-1703,-1998~~~~~~~~~~~~~~~~
6729,-2020,-2673~~~~~~~~~~~~~~~~
5963,-2114,-3073~~~~~~~~~~~~~~~~
4991,-2027,-3426~~~~~~~~~~~~~~~~
4014,-1911,-3296~~~~~~~~~~~~~~~~
3235,-1400,-3255~~~~~~~~~~~~~~~~
8684,-983,-520~~~~~~~~~~~~~~~~~~
8538,-1340,-785~~~~~~~~~~~~~~~~~
8054,-1888,-1389~~~~~~~~~~~~~~~~
7498,-2243,-1965~~~~~~~~~~~~~~~~
6579,-2749,-2845~~~~~~~~~~~~~~~~
5874,-2653,-3248~~~~~~~~~~~~~~~~
4897,-2609,-3605~~~~~~~~~~~~~~~~
4072,-2339,-3342~~~~~~~~~~~~~~~~
3192,-1474,-3221~~~~~~~~~~~~~~~~
8042,-2022,-1271~~~~~~~~~~~~~~~~
7355,-2714,-1808~~~~~~~~~~~~~~~~
6603,-3017,-2297~~~~~~~~~~~~~~~~
6001,-2941,-2559~~~~~~~~~~~~~~~~
4993,-3107,-3062~~~~~~~~~~~~~~~~
4046,-2451,-2877~~~~~~~~~~~~~~~~
3239,-1763,-2621~~~~~~~~~~~~~~~~
3875,-2182,-3349~~~~~~~~~~~~~~~~
4106,-193,-171~~~~~~~~~~~~~~~~~~
3910,-163,-235~~~~~~~~~~~~~~~~~~
3045,-213,-267~~~~~~~~~~~~~~~~~~
8606,-680,-37~~~~~~~~~~~~~~~~~~~
8534,-1046,-393~~~~~~~~~~~~~~~~~
8005,-1434,-313~~~~~~~~~~~~~~~~~
7424,-1504,-711~~~~~~~~~~~~~~~~~
6456,-1468,-950~~~~~~~~~~~~~~~~~
6132,-1473,-1093~~~~~~~~~~~~~~~~
5122,-1304,-932~~~~~~~~~~~~~~~~~
4164,-1351,-1173~~~~~~~~~~~~~~~~
3404,-1330,-942~~~~~~~~~~~~~~~~~
2912,-1267,-1193~~~~~~~~~~~~~~~~
8614,-1065,-661~~~~~~~~~~~~~~~~~
8125,-1527,-1029~~~~~~~~~~~~~~~~
7554,-1809,-1395~~~~~~~~~~~~~~~~
6810,-1843,-1630~~~~~~~~~~~~~~~~
5907,-1977,-1845~~~~~~~~~~~~~~~~
4917,-1926,-2135~~~~~~~~~~~~~~~~
4143,-1693,-2332~~~~~~~~~~~~~~~~
3277,-1422,-1998~~~~~~~~~~~~~~~~
2654,-748,-1892~~~~~~~~~~~~~~~~~
6807,-2394,-1376~~~~~~~~~~~~~~~~
6038,-2464,-1240~~~~~~~~~~~~~~~~
5018,-2253,-1519~~~~~~~~~~~~~~~~
4136,-2225,-1683~~~~~~~~~~~~~~~~
3320,-1731,-1655~~~~~~~~~~~~~~~~
2817,-1041,-1373~~~~~~~~~~~~~~~~
8027,-2561,-755~~~~~~~~~~~~~~~~~
7533,-3138,-1023~~~~~~~~~~~~~~~~
6674,-3650,-1530~~~~~~~~~~~~~~~~
6064,-3625,-1610~~~~~~~~~~~~~~~~
5172,-3390,-1694~~~~~~~~~~~~~~~~
4201,-2371,-1821~~~~~~~~~~~~~~~~
3228,-1950,-2183~~~~~~~~~~~~~~~~
5835,-3397,-2309~~~~~~~~~~~~~~~~
4624,-3201,-2473~~~~~~~~~~~~~~~~
4118,-2757,-2434~~~~~~~~~~~~~~~~
7824,-132,306~~~~~~~~~~~~~~~~~~~
7506,-149,412~~~~~~~~~~~~~~~~~~~
9239,-24,262~~~~~~~~~~~~~~~~~~~~
8433,-97,316~~~~~~~~~~~~~~~~~~~~
7992,-202,141~~~~~~~~~~~~~~~~~~~
7853,-141,209~~~~~~~~~~~~~~~~~~~
7086,-131,340~~~~~~~~~~~~~~~~~~~
5987,-109,8~~~~~~~~~~~~~~~~~~~~~
5264,-231,32~~~~~~~~~~~~~~~~~~~~
4709,-169,179~~~~~~~~~~~~~~~~~~~
3749,-133,-5~~~~~~~~~~~~~~~~~~~~
9101,-283,213~~~~~~~~~~~~~~~~~~~
8668,-221,81~~~~~~~~~~~~~~~~~~~~
8275,-344,79~~~~~~~~~~~~~~~~~~~~
7695,-444,-28~~~~~~~~~~~~~~~~~~~
6971,-410,-40~~~~~~~~~~~~~~~~~~~
5944,-506,-170~~~~~~~~~~~~~~~~~~
5223,-460,-50~~~~~~~~~~~~~~~~~~~
4323,-479,-83~~~~~~~~~~~~~~~~~~~
3361,-449,-40~~~~~~~~~~~~~~~~~~~
8994,-590,-12~~~~~~~~~~~~~~~~~~~
8761,-764,25~~~~~~~~~~~~~~~~~~~~
8235,-951,-15~~~~~~~~~~~~~~~~~~~
7672,-949,-15~~~~~~~~~~~~~~~~~~~
6978,-987,-148~~~~~~~~~~~~~~~~~~
6155,-915,-200~~~~~~~~~~~~~~~~~~
5278,-925,-2~~~~~~~~~~~~~~~~~~~~
4267,-795,-204~~~~~~~~~~~~~~~~~~
2823,-1121,-153~~~~~~~~~~~~~~~~~
2489,-738,-92~~~~~~~~~~~~~~~~~~~
8642,-1049,-177~~~~~~~~~~~~~~~~~
8194,-1429,-307~~~~~~~~~~~~~~~~~
7585,-1835,-578~~~~~~~~~~~~~~~~~
6840,-2092,-737~~~~~~~~~~~~~~~~~
6034,-1707,-539~~~~~~~~~~~~~~~~~
5240,-1610,-660~~~~~~~~~~~~~~~~~
4276,-1467,-669~~~~~~~~~~~~~~~~~
2874,-1323,-609~~~~~~~~~~~~~~~~~
8169,-1567,-71~~~~~~~~~~~~~~~~~~
7684,-1818,-143~~~~~~~~~~~~~~~~~
6982,-1863,-205~~~~~~~~~~~~~~~~~
6191,-2001,-334~~~~~~~~~~~~~~~~~
5076,-2235,-575~~~~~~~~~~~~~~~~~
4273,-1640,-370~~~~~~~~~~~~~~~~~
3311,-1442,-649~~~~~~~~~~~~~~~~~
8834,-1389,-103~~~~~~~~~~~~~~~~~
8494,-1981,-309~~~~~~~~~~~~~~~~~
7943,-2874,-481~~~~~~~~~~~~~~~~~
7345,-3517,-614~~~~~~~~~~~~~~~~~
6677,-4061,-975~~~~~~~~~~~~~~~~~
6081,-4153,-1282~~~~~~~~~~~~~~~~
5142,-3956,-1338~~~~~~~~~~~~~~~~
4255,-3176,-1232~~~~~~~~~~~~~~~~
3374,-2385,-1222~~~~~~~~~~~~~~~~
3837,-3176,-814~~~~~~~~~~~~~~~~~
8967,-223,199~~~~~~~~~~~~~~~~~~~
8484,-227,209~~~~~~~~~~~~~~~~~~~
7970,-151,128~~~~~~~~~~~~~~~~~~~
7218,-158,108~~~~~~~~~~~~~~~~~~~
6367,-190,29~~~~~~~~~~~~~~~~~~~~
5674,-193,2~~~~~~~~~~~~~~~~~~~~~
5054,-195,31~~~~~~~~~~~~~~~~~~~~
4329,-201,54~~~~~~~~~~~~~~~~~~~~
3557,-162,25~~~~~~~~~~~~~~~~~~~~
3148,-173,103~~~~~~~~~~~~~~~~~~~
2499,-323,136~~~~~~~~~~~~~~~~~~~
9091,-458,448~~~~~~~~~~~~~~~~~~~
8770,-521,272~~~~~~~~~~~~~~~~~~~
8033,-656,389~~~~~~~~~~~~~~~~~~~
7740,-826,233~~~~~~~~~~~~~~~~~~~
7071,-989,184~~~~~~~~~~~~~~~~~~~
6020,-987,86~~~~~~~~~~~~~~~~~~~~
5182,-960,100~~~~~~~~~~~~~~~~~~~
4205,-790,72~~~~~~~~~~~~~~~~~~~~
3345,-909,-152~~~~~~~~~~~~~~~~~~
2875,-617,3~~~~~~~~~~~~~~~~~~~~~
9101,-729,536~~~~~~~~~~~~~~~~~~~
8751,-1331,460~~~~~~~~~~~~~~~~~~
8140,-2077,585~~~~~~~~~~~~~~~~~~
7499,-2475,573~~~~~~~~~~~~~~~~~~
7017,-2231,543~~~~~~~~~~~~~~~~~~
6258,-2362,693~~~~~~~~~~~~~~~~~~
5177,-2996,530~~~~~~~~~~~~~~~~~~
4569,-2256,179~~~~~~~~~~~~~~~~~~
3612,-1323,337~~~~~~~~~~~~~~~~~~
2964,-1158,358~~~~~~~~~~~~~~~~~~
8864,-606,288~~~~~~~~~~~~~~~~~~~
8616,-1071,203~~~~~~~~~~~~~~~~~~
8184,-1353,164~~~~~~~~~~~~~~~~~~
7671,-1845,335~~~~~~~~~~~~~~~~~~
6855,-2166,135~~~~~~~~~~~~~~~~~~
6139,-2116,131~~~~~~~~~~~~~~~~~~
5199,-2170,496~~~~~~~~~~~~~~~~~~
4279,-1973,345~~~~~~~~~~~~~~~~~~
7583,-2594,171~~~~~~~~~~~~~~~~~~
6861,-3276,279~~~~~~~~~~~~~~~~~~
6094,-3312,333~~~~~~~~~~~~~~~~~~
5253,-3847,-459~~~~~~~~~~~~~~~~~
4272,-3298,-447~~~~~~~~~~~~~~~~~
3452,-2516,-521~~~~~~~~~~~~~~~~~
6820,-3154,-125~~~~~~~~~~~~~~~~~
6107,-3145,-65~~~~~~~~~~~~~~~~~~
5285,-2944,122~~~~~~~~~~~~~~~~~~
4236,-2655,117~~~~~~~~~~~~~~~~~~
3339,-2043,-296~~~~~~~~~~~~~~~~~
8757,-1909,133~~~~~~~~~~~~~~~~~~
8529,-2301,125~~~~~~~~~~~~~~~~~~
7997,-2900,173~~~~~~~~~~~~~~~~~~
7474,-3690,119~~~~~~~~~~~~~~~~~~
6877,-4099,39~~~~~~~~~~~~~~~~~~~
6126,-4406,34~~~~~~~~~~~~~~~~~~~
5231,-4531,11~~~~~~~~~~~~~~~~~~~
4358,-3993,244~~~~~~~~~~~~~~~~~~
9095,-190,341~~~~~~~~~~~~~~~~~~~
8815,-356,388~~~~~~~~~~~~~~~~~~~
7898,-407,258~~~~~~~~~~~~~~~~~~~
7339,-447,265~~~~~~~~~~~~~~~~~~~
7046,-363,206~~~~~~~~~~~~~~~~~~~
6431,-450,220~~~~~~~~~~~~~~~~~~~
5969,-504,306~~~~~~~~~~~~~~~~~~~
5187,-409,235~~~~~~~~~~~~~~~~~~~
4423,-410,152~~~~~~~~~~~~~~~~~~~
3491,-532,94~~~~~~~~~~~~~~~~~~~~
2684,-419,138~~~~~~~~~~~~~~~~~~~
2220,-418,-101~~~~~~~~~~~~~~~~~~
9137,-504,520~~~~~~~~~~~~~~~~~~~
8629,-630,716~~~~~~~~~~~~~~~~~~~
8258,-601,600~~~~~~~~~~~~~~~~~~~
7696,-890,827~~~~~~~~~~~~~~~~~~~
6910,-1035,575~~~~~~~~~~~~~~~~~~
6494,-1081,909~~~~~~~~~~~~~~~~~~
6056,-806,539~~~~~~~~~~~~~~~~~~~
5055,-1050,1002~~~~~~~~~~~~~~~~~
4105,-1184,1033~~~~~~~~~~~~~~~~~
3441,-638,477~~~~~~~~~~~~~~~~~~~
2703,-691,473~~~~~~~~~~~~~~~~~~~
2531,-576,187~~~~~~~~~~~~~~~~~~~
9106,-715,1395~~~~~~~~~~~~~~~~~~
8741,-987,1372~~~~~~~~~~~~~~~~~~
8319,-1027,1466~~~~~~~~~~~~~~~~~
7910,-1636,1603~~~~~~~~~~~~~~~~~
7108,-1732,1318~~~~~~~~~~~~~~~~~
6668,-1824,1269~~~~~~~~~~~~~~~~~
6255,-1862,1337~~~~~~~~~~~~~~~~~
5175,-1847,984~~~~~~~~~~~~~~~~~~
4056,-1716,849~~~~~~~~~~~~~~~~~~
3463,-1521,571~~~~~~~~~~~~~~~~~~
2824,-1518,258~~~~~~~~~~~~~~~~~~
8751,-1703,2605~~~~~~~~~~~~~~~~~
8207,-1835,2323~~~~~~~~~~~~~~~~~
7708,-2286,2443~~~~~~~~~~~~~~~~~
7079,-2946,2625~~~~~~~~~~~~~~~~~
6642,-2570,2317~~~~~~~~~~~~~~~~~
6008,-2758,2323~~~~~~~~~~~~~~~~~
5513,-1772,1335~~~~~~~~~~~~~~~~~
4116,-1435,1155~~~~~~~~~~~~~~~~~
3381,-1346,873~~~~~~~~~~~~~~~~~~
2936,-1065,607~~~~~~~~~~~~~~~~~~
2713,-552,658~~~~~~~~~~~~~~~~~~~
8146,-2895,822~~~~~~~~~~~~~~~~~~
7548,-3657,1205~~~~~~~~~~~~~~~~~
6857,-4313,1329~~~~~~~~~~~~~~~~~
6333,-4711,1289~~~~~~~~~~~~~~~~~
5288,-4525,1421~~~~~~~~~~~~~~~~~
4852,-4009,1216~~~~~~~~~~~~~~~~~
4758,-3527,1297~~~~~~~~~~~~~~~~~
3863,-3102,242~~~~~~~~~~~~~~~~~~
7948,-2836,1811~~~~~~~~~~~~~~~~~
7269,-4103,2812~~~~~~~~~~~~~~~~~
6211,-4260,2680~~~~~~~~~~~~~~~~~
5274,-4776,2172~~~~~~~~~~~~~~~~~
4257,-3993,854~~~~~~~~~~~~~~~~~~
4086,-3630,1087~~~~~~~~~~~~~~~~~
3504,-3115,907~~~~~~~~~~~~~~~~~~
3226,-2573,408~~~~~~~~~~~~~~~~~~
5359,-142,597~~~~~~~~~~~~~~~~~~~
9093,-315,782~~~~~~~~~~~~~~~~~~~
8813,-215,985~~~~~~~~~~~~~~~~~~~
8756,-502,1062~~~~~~~~~~~~~~~~~~
8271,-318,965~~~~~~~~~~~~~~~~~~~
7878,-599,1170~~~~~~~~~~~~~~~~~~
7219,-598,1135~~~~~~~~~~~~~~~~~~
6075,-816,1356~~~~~~~~~~~~~~~~~~
5445,-427,894~~~~~~~~~~~~~~~~~~~
4716,-505,839~~~~~~~~~~~~~~~~~~~
4200,-467,856~~~~~~~~~~~~~~~~~~~
3439,-500,582~~~~~~~~~~~~~~~~~~~
8797,-691,1581~~~~~~~~~~~~~~~~~~
8233,-1133,1959~~~~~~~~~~~~~~~~~
7943,-1252,2209~~~~~~~~~~~~~~~~~
7116,-1453,2244~~~~~~~~~~~~~~~~~
6196,-1474,2232~~~~~~~~~~~~~~~~~
6204,-1572,1847~~~~~~~~~~~~~~~~~
5114,-1554,1774~~~~~~~~~~~~~~~~~
3549,-1123,1411~~~~~~~~~~~~~~~~~
3102,-953,963~~~~~~~~~~~~~~~~~~~
7204,-1957,3283~~~~~~~~~~~~~~~~~
6232,-2547,3589~~~~~~~~~~~~~~~~~
5336,-2111,2812~~~~~~~~~~~~~~~~~
4616,-1854,2755~~~~~~~~~~~~~~~~~
3623,-1513,1451~~~~~~~~~~~~~~~~~
8880,-1359,2854~~~~~~~~~~~~~~~~~
8522,-1885,3347~~~~~~~~~~~~~~~~~
7936,-2424,3727~~~~~~~~~~~~~~~~~
7206,-3114,4395~~~~~~~~~~~~~~~~~
6125,-3597,4376~~~~~~~~~~~~~~~~~
5197,-3062,3675~~~~~~~~~~~~~~~~~
4467,-2401,2465~~~~~~~~~~~~~~~~~
3779,-2001,1653~~~~~~~~~~~~~~~~~
8732,-1950,2404~~~~~~~~~~~~~~~~~
8221,-2914,3230~~~~~~~~~~~~~~~~~
7876,-3419,3700~~~~~~~~~~~~~~~~~
7348,-4011,4223~~~~~~~~~~~~~~~~~
6282,-4227,3722~~~~~~~~~~~~~~~~~
5061,-2823,2844~~~~~~~~~~~~~~~~~
4184,-2772,1916~~~~~~~~~~~~~~~~~
8982,-569,1651~~~~~~~~~~~~~~~~~~
8799,-741,2101~~~~~~~~~~~~~~~~~~
8931,-1572,3798~~~~~~~~~~~~~~~~~
8562,-2361,4674~~~~~~~~~~~~~~~~~
7930,-3054,4999~~~~~~~~~~~~~~~~~
7304,-3559,5171~~~~~~~~~~~~~~~~~
6226,-3842,5818~~~~~~~~~~~~~~~~~
5831,-3648,3844~~~~~~~~~~~~~~~~~
5233,-4628,3493~~~~~~~~~~~~~~~~~
4162,-3638,1854~~~~~~~~~~~~~~~~~
9099,-93,508~~~~~~~~~~~~~~~~~~~~
8687,-150,463~~~~~~~~~~~~~~~~~~~
7984,-112,502~~~~~~~~~~~~~~~~~~~
7489,-141,503~~~~~~~~~~~~~~~~~~~
7054,-172,522~~~~~~~~~~~~~~~~~~~
6065,-160,535~~~~~~~~~~~~~~~~~~~
5223,-197,565~~~~~~~~~~~~~~~~~~~
4411,-190,585~~~~~~~~~~~~~~~~~~~
3717,-191,533~~~~~~~~~~~~~~~~~~~
2892,-90,441~~~~~~~~~~~~~~~~~~~~
9062,-191,916~~~~~~~~~~~~~~~~~~~
8738,-272,1210~~~~~~~~~~~~~~~~~~
8252,-533,1363~~~~~~~~~~~~~~~~~~
7807,-575,1385~~~~~~~~~~~~~~~~~~
7095,-637,1540~~~~~~~~~~~~~~~~~~
6109,-360,1225~~~~~~~~~~~~~~~~~~
5310,-328,1056~~~~~~~~~~~~~~~~~~
4170,-541,1173~~~~~~~~~~~~~~~~~~
9144,-423,1935~~~~~~~~~~~~~~~~~~
8853,-783,2822~~~~~~~~~~~~~~~~~~
8340,-1001,3160~~~~~~~~~~~~~~~~~
7785,-974,2497~~~~~~~~~~~~~~~~~~
7173,-1149,2764~~~~~~~~~~~~~~~~~
6208,-1188,2866~~~~~~~~~~~~~~~~~
5364,-1101,2249~~~~~~~~~~~~~~~~~
4335,-1067,2144~~~~~~~~~~~~~~~~~
3658,-762,1449~~~~~~~~~~~~~~~~~~
8455,-1185,3910~~~~~~~~~~~~~~~~~
7969,-1421,3544~~~~~~~~~~~~~~~~~
7185,-1584,3913~~~~~~~~~~~~~~~~~
6463,-1358,3567~~~~~~~~~~~~~~~~~
5192,-1278,3012~~~~~~~~~~~~~~~~~
4368,-961,2512~~~~~~~~~~~~~~~~~~
3496,-1329,1768~~~~~~~~~~~~~~~~~
9151,-582,2597~~~~~~~~~~~~~~~~~~
9105,-1005,3501~~~~~~~~~~~~~~~~~
8801,-1618,4850~~~~~~~~~~~~~~~~~
8499,-2113,6326~~~~~~~~~~~~~~~~~
7313,-1949,5868~~~~~~~~~~~~~~~~~
6626,-2348,6584~~~~~~~~~~~~~~~~~
5675,-2492,5496~~~~~~~~~~~~~~~~~
8238,-2396,7205~~~~~~~~~~~~~~~~~
7405,-2935,7200~~~~~~~~~~~~~~~~~
8637,-216,812~~~~~~~~~~~~~~~~~~~
8131,-207,850~~~~~~~~~~~~~~~~~~~
7392,-52,791~~~~~~~~~~~~~~~~~~~~
7113,-121,987~~~~~~~~~~~~~~~~~~~
6176,-91,696~~~~~~~~~~~~~~~~~~~~
5012,-178,814~~~~~~~~~~~~~~~~~~~
4093,-317,579~~~~~~~~~~~~~~~~~~~
4039,-135,255~~~~~~~~~~~~~~~~~~~
3458,-39,365~~~~~~~~~~~~~~~~~~~~
9103,-223,1023~~~~~~~~~~~~~~~~~~
8765,-337,1384~~~~~~~~~~~~~~~~~~
8343,-268,1362~~~~~~~~~~~~~~~~~~
7688,-362,1293~~~~~~~~~~~~~~~~~~
7161,-309,1508~~~~~~~~~~~~~~~~~~
6038,-242,1447~~~~~~~~~~~~~~~~~~
5271,-237,1299~~~~~~~~~~~~~~~~~~
4298,-292,1167~~~~~~~~~~~~~~~~~~
3544,-329,896~~~~~~~~~~~~~~~~~~~
3010,-107,644~~~~~~~~~~~~~~~~~~~
2700,-274,759~~~~~~~~~~~~~~~~~~~
9237,-318,1673~~~~~~~~~~~~~~~~~~
8828,-545,1973~~~~~~~~~~~~~~~~~~
8252,-532,2132~~~~~~~~~~~~~~~~~~
7971,-652,2777~~~~~~~~~~~~~~~~~~
7139,-915,3044~~~~~~~~~~~~~~~~~~
6199,-814,2881~~~~~~~~~~~~~~~~~~
5328,-362,2505~~~~~~~~~~~~~~~~~~
4278,-641,2276~~~~~~~~~~~~~~~~~~
3677,-740,1470~~~~~~~~~~~~~~~~~~
8882,-626,2744~~~~~~~~~~~~~~~~~~
8468,-687,3244~~~~~~~~~~~~~~~~~~
8007,-1051,4286~~~~~~~~~~~~~~~~~
7218,-1125,5016~~~~~~~~~~~~~~~~~
6157,-1133,5289~~~~~~~~~~~~~~~~~
5220,-824,4363~~~~~~~~~~~~~~~~~~
4419,-843,3217~~~~~~~~~~~~~~~~~~
8933,-898,5348~~~~~~~~~~~~~~~~~~
8484,-1172,6219~~~~~~~~~~~~~~~~~
8009,-1466,7227~~~~~~~~~~~~~~~~~
7217,-1520,8105~~~~~~~~~~~~~~~~~
8179,-1357,7843~~~~~~~~~~~~~~~~~
9111,-6,142~~~~~~~~~~~~~~~~~~~~~
9204,1,490~~~~~~~~~~~~~~~~~~~~~~
8754,-142,880~~~~~~~~~~~~~~~~~~~
8446,32,1278~~~~~~~~~~~~~~~~~~~~
7880,-60,1242~~~~~~~~~~~~~~~~~~~
7001,-28,1486~~~~~~~~~~~~~~~~~~~
5788,-103,1629~~~~~~~~~~~~~~~~~~
5277,-53,1232~~~~~~~~~~~~~~~~~~~
4088,-25,1113~~~~~~~~~~~~~~~~~~~
3491,-22,957~~~~~~~~~~~~~~~~~~~~
3027,154,652~~~~~~~~~~~~~~~~~~~~
9293,-97,672~~~~~~~~~~~~~~~~~~~~
9064,-120,1082~~~~~~~~~~~~~~~~~~
8746,-214,1639~~~~~~~~~~~~~~~~~~
8313,-180,1737~~~~~~~~~~~~~~~~~~
7914,-245,1619~~~~~~~~~~~~~~~~~~
7215,-118,1732~~~~~~~~~~~~~~~~~~
6074,-135,1453~~~~~~~~~~~~~~~~~~
5069,-490,1935~~~~~~~~~~~~~~~~~~
4384,-153,1209~~~~~~~~~~~~~~~~~~
3616,-531,1384~~~~~~~~~~~~~~~~~~
8808,-266,2306~~~~~~~~~~~~~~~~~~
8418,-483,2793~~~~~~~~~~~~~~~~~~
8035,-680,3028~~~~~~~~~~~~~~~~~~
7138,-463,3003~~~~~~~~~~~~~~~~~~
6309,-578,2925~~~~~~~~~~~~~~~~~~
5436,-370,2827~~~~~~~~~~~~~~~~~~
4312,-166,2289~~~~~~~~~~~~~~~~~~
3556,-91,1563~~~~~~~~~~~~~~~~~~~
8933,-376,3326~~~~~~~~~~~~~~~~~~
8562,-362,4036~~~~~~~~~~~~~~~~~~
8074,-581,4686~~~~~~~~~~~~~~~~~~
7127,-353,3982~~~~~~~~~~~~~~~~~~
5881,-396,4055~~~~~~~~~~~~~~~~~~
5182,-350,3980~~~~~~~~~~~~~~~~~~
9348,-266,1954~~~~~~~~~~~~~~~~~~
9321,-364,2783~~~~~~~~~~~~~~~~~~
9155,-528,5209~~~~~~~~~~~~~~~~~~
8770,-364,6338~~~~~~~~~~~~~~~~~~
8229,-631,7443~~~~~~~~~~~~~~~~~~
7218,-805,6512~~~~~~~~~~~~~~~~~~
6102,-468,5778~~~~~~~~~~~~~~~~~~
8887,-687,7451~~~~~~~~~~~~~~~~~~
8579,-769,8865~~~~~~~~~~~~~~~~~~
9228,-57,1519~~~~~~~~~~~~~~~~~~~
8888,-137,2314~~~~~~~~~~~~~~~~~~
8379,-83,2811~~~~~~~~~~~~~~~~~~~
8182,-119,3218~~~~~~~~~~~~~~~~~~
7687,54,2893~~~~~~~~~~~~~~~~~~~~
6050,-69,2831~~~~~~~~~~~~~~~~~~~
5301,104,2714~~~~~~~~~~~~~~~~~~~
4362,-67,2357~~~~~~~~~~~~~~~~~~~
9179,-83,1011~~~~~~~~~~~~~~~~~~~
9120,-98,1271~~~~~~~~~~~~~~~~~~~
9077,-48,1405~~~~~~~~~~~~~~~~~~~
8866,-149,2325~~~~~~~~~~~~~~~~~~
8602,-232,3870~~~~~~~~~~~~~~~~~~
8190,-283,4596~~~~~~~~~~~~~~~~~~
7239,-70,4222~~~~~~~~~~~~~~~~~~~
6215,-231,4351~~~~~~~~~~~~~~~~~~
5223,-150,3742~~~~~~~~~~~~~~~~~~
8962,-179,2951~~~~~~~~~~~~~~~~~~
8666,-271,4855~~~~~~~~~~~~~~~~~~
8180,-289,5978~~~~~~~~~~~~~~~~~~
7296,-191,6093~~~~~~~~~~~~~~~~~~
6287,-207,5200~~~~~~~~~~~~~~~~~~
9141,-51,1373~~~~~~~~~~~~~~~~~~~
9154,-79,2530~~~~~~~~~~~~~~~~~~~
9102,-10,3390~~~~~~~~~~~~~~~~~~~
8986,-46,4303~~~~~~~~~~~~~~~~~~~
8486,-56,6214~~~~~~~~~~~~~~~~~~~
8291,-108,6084~~~~~~~~~~~~~~~~~~
7276,169,6825~~~~~~~~~~~~~~~~~~~
6489,-114,5904~~~~~~~~~~~~~~~~~~
9167,-161,4859~~~~~~~~~~~~~~~~~~
8697,-247,7191~~~~~~~~~~~~~~~~~~
8399,-227,7469~~~~~~~~~~~~~~~~~~
7539,-83,7447~~~~~~~~~~~~~~~~~~~
8617,-70,8033~~~~~~~~~~~~~~~~~~~
8810,-54,8653~~~~~~~~~~~~~~~~~~~
9123,25,317~~~~~~~~~~~~~~~~~~~~~
9016,5,221~~~~~~~~~~~~~~~~~~~~~~
8752,32,164~~~~~~~~~~~~~~~~~~~~~
8341,12,69~~~~~~~~~~~~~~~~~~~~~~
7997,-28,91~~~~~~~~~~~~~~~~~~~~~
7736,-12,40~~~~~~~~~~~~~~~~~~~~~
7323,-35,26~~~~~~~~~~~~~~~~~~~~~
7030,70,-9~~~~~~~~~~~~~~~~~~~~~~
6506,-14,-11~~~~~~~~~~~~~~~~~~~~
6161,-24,12~~~~~~~~~~~~~~~~~~~~~
5885,-18,-4~~~~~~~~~~~~~~~~~~~~~
5370,-36,-39~~~~~~~~~~~~~~~~~~~~
5130,-64,-59~~~~~~~~~~~~~~~~~~~~
4864,-58,-59~~~~~~~~~~~~~~~~~~~~
4447,-4,-44~~~~~~~~~~~~~~~~~~~~~
4017,1,-104~~~~~~~~~~~~~~~~~~~~~
3718,14,-152~~~~~~~~~~~~~~~~~~~~
3360,19,-111~~~~~~~~~~~~~~~~~~~~
3051,31,-109~~~~~~~~~~~~~~~~~~~~
2819,77,-146~~~~~~~~~~~~~~~~~~~~
2523,32,28~~~~~~~~~~~~~~~~~~~~~~
2264,1,33~~~~~~~~~~~~~~~~~~~~~~~
1791,-76,-38~~~~~~~~~~~~~~~~~~~~
names~~~~~~~~~~~~~~~~~~~~~~~~~~~
03.03.03~~~~~~~~~~~~~~~~~~~~~~~~
03.03.06~~~~~~~~~~~~~~~~~~~~~~~~
03.03.09~~~~~~~~~~~~~~~~~~~~~~~~
03.03.12~~~~~~~~~~~~~~~~~~~~~~~~
03.03.15~~~~~~~~~~~~~~~~~~~~~~~~
03.03.16~~~~~~~~~~~~~~~~~~~~~~~~
03.03.18~~~~~~~~~~~~~~~~~~~~~~~~
03.03.21~~~~~~~~~~~~~~~~~~~~~~~~
03.03.24~~~~~~~~~~~~~~~~~~~~~~~~
03.03.25~~~~~~~~~~~~~~~~~~~~~~~~
03.03.27~~~~~~~~~~~~~~~~~~~~~~~~
03.03.30~~~~~~~~~~~~~~~~~~~~~~~~
03.06.03~~~~~~~~~~~~~~~~~~~~~~~~
03.06.06~~~~~~~~~~~~~~~~~~~~~~~~
03.06.09~~~~~~~~~~~~~~~~~~~~~~~~
03.06.12~~~~~~~~~~~~~~~~~~~~~~~~
03.06.15~~~~~~~~~~~~~~~~~~~~~~~~
03.06.16~~~~~~~~~~~~~~~~~~~~~~~~
03.06.18~~~~~~~~~~~~~~~~~~~~~~~~
03.06.21~~~~~~~~~~~~~~~~~~~~~~~~
03.06.24~~~~~~~~~~~~~~~~~~~~~~~~
03.06.27~~~~~~~~~~~~~~~~~~~~~~~~
03.06.30~~~~~~~~~~~~~~~~~~~~~~~~
03.09.01~~~~~~~~~~~~~~~~~~~~~~~~
03.09.03~~~~~~~~~~~~~~~~~~~~~~~~
03.09.06~~~~~~~~~~~~~~~~~~~~~~~~
03.09.09~~~~~~~~~~~~~~~~~~~~~~~~
03.09.12~~~~~~~~~~~~~~~~~~~~~~~~
03.09.15~~~~~~~~~~~~~~~~~~~~~~~~
03.09.16~~~~~~~~~~~~~~~~~~~~~~~~
03.09.18~~~~~~~~~~~~~~~~~~~~~~~~
03.09.21~~~~~~~~~~~~~~~~~~~~~~~~
03.09.24~~~~~~~~~~~~~~~~~~~~~~~~
03.09.27~~~~~~~~~~~~~~~~~~~~~~~~
03.12.01~~~~~~~~~~~~~~~~~~~~~~~~
03.12.03~~~~~~~~~~~~~~~~~~~~~~~~
03.12.06~~~~~~~~~~~~~~~~~~~~~~~~
03.12.09~~~~~~~~~~~~~~~~~~~~~~~~
03.12.12~~~~~~~~~~~~~~~~~~~~~~~~
03.12.15~~~~~~~~~~~~~~~~~~~~~~~~
03.12.16~~~~~~~~~~~~~~~~~~~~~~~~
03.12.18~~~~~~~~~~~~~~~~~~~~~~~~
03.12.21~~~~~~~~~~~~~~~~~~~~~~~~
03.12.24~~~~~~~~~~~~~~~~~~~~~~~~
03.15.01~~~~~~~~~~~~~~~~~~~~~~~~
03.15.02~~~~~~~~~~~~~~~~~~~~~~~~
03.15.03~~~~~~~~~~~~~~~~~~~~~~~~
03.15.06~~~~~~~~~~~~~~~~~~~~~~~~
03.15.09~~~~~~~~~~~~~~~~~~~~~~~~
03.15.12~~~~~~~~~~~~~~~~~~~~~~~~
03.15.15~~~~~~~~~~~~~~~~~~~~~~~~
03.15.18~~~~~~~~~~~~~~~~~~~~~~~~
03.15.21~~~~~~~~~~~~~~~~~~~~~~~~
03.15.24~~~~~~~~~~~~~~~~~~~~~~~~
03.18.15~~~~~~~~~~~~~~~~~~~~~~~~
03.18.18~~~~~~~~~~~~~~~~~~~~~~~~
03.21.12~~~~~~~~~~~~~~~~~~~~~~~~
03.21.15~~~~~~~~~~~~~~~~~~~~~~~~
03.21.18~~~~~~~~~~~~~~~~~~~~~~~~
06.06.03~~~~~~~~~~~~~~~~~~~~~~~~
06.06.06~~~~~~~~~~~~~~~~~~~~~~~~
06.06.09~~~~~~~~~~~~~~~~~~~~~~~~
06.06.12~~~~~~~~~~~~~~~~~~~~~~~~
06.06.15~~~~~~~~~~~~~~~~~~~~~~~~
06.06.18~~~~~~~~~~~~~~~~~~~~~~~~
06.06.21~~~~~~~~~~~~~~~~~~~~~~~~
06.06.24~~~~~~~~~~~~~~~~~~~~~~~~
06.06.27~~~~~~~~~~~~~~~~~~~~~~~~
06.09.03~~~~~~~~~~~~~~~~~~~~~~~~
06.09.06~~~~~~~~~~~~~~~~~~~~~~~~
06.09.09~~~~~~~~~~~~~~~~~~~~~~~~
06.09.12~~~~~~~~~~~~~~~~~~~~~~~~
06.09.15~~~~~~~~~~~~~~~~~~~~~~~~
06.09.18~~~~~~~~~~~~~~~~~~~~~~~~
06.09.21~~~~~~~~~~~~~~~~~~~~~~~~
06.09.24~~~~~~~~~~~~~~~~~~~~~~~~
06.09.27~~~~~~~~~~~~~~~~~~~~~~~~
06.12.01~~~~~~~~~~~~~~~~~~~~~~~~
06.12.02~~~~~~~~~~~~~~~~~~~~~~~~
06.12.03~~~~~~~~~~~~~~~~~~~~~~~~
06.12.06~~~~~~~~~~~~~~~~~~~~~~~~
06.12.09~~~~~~~~~~~~~~~~~~~~~~~~
06.12.12~~~~~~~~~~~~~~~~~~~~~~~~
06.12.15~~~~~~~~~~~~~~~~~~~~~~~~
06.12.18~~~~~~~~~~~~~~~~~~~~~~~~
06.12.21~~~~~~~~~~~~~~~~~~~~~~~~
06.12.24~~~~~~~~~~~~~~~~~~~~~~~~
06.15.01~~~~~~~~~~~~~~~~~~~~~~~~
06.15.02~~~~~~~~~~~~~~~~~~~~~~~~
06.15.03~~~~~~~~~~~~~~~~~~~~~~~~
06.15.06~~~~~~~~~~~~~~~~~~~~~~~~
06.15.09~~~~~~~~~~~~~~~~~~~~~~~~
06.15.12~~~~~~~~~~~~~~~~~~~~~~~~
06.15.15~~~~~~~~~~~~~~~~~~~~~~~~
06.15.18~~~~~~~~~~~~~~~~~~~~~~~~
06.15.21~~~~~~~~~~~~~~~~~~~~~~~~
06.18.09~~~~~~~~~~~~~~~~~~~~~~~~
06.18.12~~~~~~~~~~~~~~~~~~~~~~~~
06.18.15~~~~~~~~~~~~~~~~~~~~~~~~
06.18.18~~~~~~~~~~~~~~~~~~~~~~~~
06.21.12~~~~~~~~~~~~~~~~~~~~~~~~
06.21.15~~~~~~~~~~~~~~~~~~~~~~~~
06.21.18~~~~~~~~~~~~~~~~~~~~~~~~
09.06.02~~~~~~~~~~~~~~~~~~~~~~~~
09.06.03~~~~~~~~~~~~~~~~~~~~~~~~
09.06.06~~~~~~~~~~~~~~~~~~~~~~~~
09.06.09~~~~~~~~~~~~~~~~~~~~~~~~
09.06.12~~~~~~~~~~~~~~~~~~~~~~~~
09.06.15~~~~~~~~~~~~~~~~~~~~~~~~
09.06.18~~~~~~~~~~~~~~~~~~~~~~~~
09.06.21~~~~~~~~~~~~~~~~~~~~~~~~
09.06.24~~~~~~~~~~~~~~~~~~~~~~~~
09.06.27~~~~~~~~~~~~~~~~~~~~~~~~
09.07.03~~~~~~~~~~~~~~~~~~~~~~~~
09.07.06~~~~~~~~~~~~~~~~~~~~~~~~
09.07.09~~~~~~~~~~~~~~~~~~~~~~~~
09.09.01~~~~~~~~~~~~~~~~~~~~~~~~
09.09.02~~~~~~~~~~~~~~~~~~~~~~~~
09.09.03~~~~~~~~~~~~~~~~~~~~~~~~
09.09.06~~~~~~~~~~~~~~~~~~~~~~~~
09.09.09~~~~~~~~~~~~~~~~~~~~~~~~
09.09.12~~~~~~~~~~~~~~~~~~~~~~~~
09.09.15~~~~~~~~~~~~~~~~~~~~~~~~
09.09.18~~~~~~~~~~~~~~~~~~~~~~~~
09.09.21~~~~~~~~~~~~~~~~~~~~~~~~
09.09.24~~~~~~~~~~~~~~~~~~~~~~~~
09.11.06~~~~~~~~~~~~~~~~~~~~~~~~
09.11.09~~~~~~~~~~~~~~~~~~~~~~~~
09.11.12~~~~~~~~~~~~~~~~~~~~~~~~
09.11.15~~~~~~~~~~~~~~~~~~~~~~~~
09.12.01~~~~~~~~~~~~~~~~~~~~~~~~
09.12.02~~~~~~~~~~~~~~~~~~~~~~~~
09.12.03~~~~~~~~~~~~~~~~~~~~~~~~
09.12.06~~~~~~~~~~~~~~~~~~~~~~~~
09.12.09~~~~~~~~~~~~~~~~~~~~~~~~
09.12.12~~~~~~~~~~~~~~~~~~~~~~~~
09.12.15~~~~~~~~~~~~~~~~~~~~~~~~
09.12.18~~~~~~~~~~~~~~~~~~~~~~~~
09.12.21~~~~~~~~~~~~~~~~~~~~~~~~
09.12.24~~~~~~~~~~~~~~~~~~~~~~~~
09.15.02~~~~~~~~~~~~~~~~~~~~~~~~
09.15.03~~~~~~~~~~~~~~~~~~~~~~~~
09.15.06~~~~~~~~~~~~~~~~~~~~~~~~
09.15.07~~~~~~~~~~~~~~~~~~~~~~~~
09.15.09~~~~~~~~~~~~~~~~~~~~~~~~
09.15.12~~~~~~~~~~~~~~~~~~~~~~~~
09.15.15~~~~~~~~~~~~~~~~~~~~~~~~
09.15.18~~~~~~~~~~~~~~~~~~~~~~~~
09.18.03~~~~~~~~~~~~~~~~~~~~~~~~
09.18.06~~~~~~~~~~~~~~~~~~~~~~~~
09.18.09~~~~~~~~~~~~~~~~~~~~~~~~
09.18.12~~~~~~~~~~~~~~~~~~~~~~~~
09.18.15~~~~~~~~~~~~~~~~~~~~~~~~
09.18.18~~~~~~~~~~~~~~~~~~~~~~~~
09.21.12~~~~~~~~~~~~~~~~~~~~~~~~
09.21.15~~~~~~~~~~~~~~~~~~~~~~~~
09.21.18~~~~~~~~~~~~~~~~~~~~~~~~
09.24.15~~~~~~~~~~~~~~~~~~~~~~~~
12.03.03~~~~~~~~~~~~~~~~~~~~~~~~
12.03.06~~~~~~~~~~~~~~~~~~~~~~~~
12.03.09~~~~~~~~~~~~~~~~~~~~~~~~
12.03.12~~~~~~~~~~~~~~~~~~~~~~~~
12.03.15~~~~~~~~~~~~~~~~~~~~~~~~
12.03.18~~~~~~~~~~~~~~~~~~~~~~~~
12.03.19~~~~~~~~~~~~~~~~~~~~~~~~
12.03.21~~~~~~~~~~~~~~~~~~~~~~~~
12.03.24~~~~~~~~~~~~~~~~~~~~~~~~
12.03.27~~~~~~~~~~~~~~~~~~~~~~~~
12.06.12~~~~~~~~~~~~~~~~~~~~~~~~
12.06.15~~~~~~~~~~~~~~~~~~~~~~~~
12.06.18~~~~~~~~~~~~~~~~~~~~~~~~
12.06.19~~~~~~~~~~~~~~~~~~~~~~~~
12.06.21~~~~~~~~~~~~~~~~~~~~~~~~
12.06.24~~~~~~~~~~~~~~~~~~~~~~~~
12.06.27~~~~~~~~~~~~~~~~~~~~~~~~
12.09.06~~~~~~~~~~~~~~~~~~~~~~~~
12.09.09~~~~~~~~~~~~~~~~~~~~~~~~
12.09.12~~~~~~~~~~~~~~~~~~~~~~~~
12.09.15~~~~~~~~~~~~~~~~~~~~~~~~
12.09.18~~~~~~~~~~~~~~~~~~~~~~~~
12.09.19~~~~~~~~~~~~~~~~~~~~~~~~
12.09.21~~~~~~~~~~~~~~~~~~~~~~~~
12.09.24~~~~~~~~~~~~~~~~~~~~~~~~
12.09.27~~~~~~~~~~~~~~~~~~~~~~~~
12.09.30~~~~~~~~~~~~~~~~~~~~~~~~
12.09.33~~~~~~~~~~~~~~~~~~~~~~~~
12.12.06~~~~~~~~~~~~~~~~~~~~~~~~
12.12.09~~~~~~~~~~~~~~~~~~~~~~~~
12.12.12~~~~~~~~~~~~~~~~~~~~~~~~
12.12.15~~~~~~~~~~~~~~~~~~~~~~~~
12.12.17~~~~~~~~~~~~~~~~~~~~~~~~
12.12.18~~~~~~~~~~~~~~~~~~~~~~~~
12.12.21~~~~~~~~~~~~~~~~~~~~~~~~
12.12.24~~~~~~~~~~~~~~~~~~~~~~~~
12.12.27~~~~~~~~~~~~~~~~~~~~~~~~
12.13.12~~~~~~~~~~~~~~~~~~~~~~~~
12.13.15~~~~~~~~~~~~~~~~~~~~~~~~
12.13.18~~~~~~~~~~~~~~~~~~~~~~~~
12.15.03~~~~~~~~~~~~~~~~~~~~~~~~
12.15.06~~~~~~~~~~~~~~~~~~~~~~~~
12.15.09~~~~~~~~~~~~~~~~~~~~~~~~
12.15.12~~~~~~~~~~~~~~~~~~~~~~~~
12.15.13~~~~~~~~~~~~~~~~~~~~~~~~
12.15.15~~~~~~~~~~~~~~~~~~~~~~~~
12.15.18~~~~~~~~~~~~~~~~~~~~~~~~
12.15.21~~~~~~~~~~~~~~~~~~~~~~~~
12.15.24~~~~~~~~~~~~~~~~~~~~~~~~
12.18.02~~~~~~~~~~~~~~~~~~~~~~~~
12.18.03~~~~~~~~~~~~~~~~~~~~~~~~
12.18.06~~~~~~~~~~~~~~~~~~~~~~~~
12.18.07~~~~~~~~~~~~~~~~~~~~~~~~
12.18.09~~~~~~~~~~~~~~~~~~~~~~~~
12.18.12~~~~~~~~~~~~~~~~~~~~~~~~
12.18.15~~~~~~~~~~~~~~~~~~~~~~~~
12.18.18~~~~~~~~~~~~~~~~~~~~~~~~
12.18.21~~~~~~~~~~~~~~~~~~~~~~~~
12.21.12~~~~~~~~~~~~~~~~~~~~~~~~
12.21.15~~~~~~~~~~~~~~~~~~~~~~~~
12.21.18~~~~~~~~~~~~~~~~~~~~~~~~
15.03.03~~~~~~~~~~~~~~~~~~~~~~~~
15.03.06~~~~~~~~~~~~~~~~~~~~~~~~
15.03.09~~~~~~~~~~~~~~~~~~~~~~~~
15.03.12~~~~~~~~~~~~~~~~~~~~~~~~
15.03.15~~~~~~~~~~~~~~~~~~~~~~~~
15.03.18~~~~~~~~~~~~~~~~~~~~~~~~
15.03.21~~~~~~~~~~~~~~~~~~~~~~~~
15.03.22~~~~~~~~~~~~~~~~~~~~~~~~
15.03.24~~~~~~~~~~~~~~~~~~~~~~~~
15.06.03~~~~~~~~~~~~~~~~~~~~~~~~
15.06.06~~~~~~~~~~~~~~~~~~~~~~~~
15.06.09~~~~~~~~~~~~~~~~~~~~~~~~
15.06.12~~~~~~~~~~~~~~~~~~~~~~~~
15.06.15~~~~~~~~~~~~~~~~~~~~~~~~
15.06.16~~~~~~~~~~~~~~~~~~~~~~~~
15.06.18~~~~~~~~~~~~~~~~~~~~~~~~
15.06.21~~~~~~~~~~~~~~~~~~~~~~~~
15.06.22~~~~~~~~~~~~~~~~~~~~~~~~
15.06.24~~~~~~~~~~~~~~~~~~~~~~~~
15.06.27~~~~~~~~~~~~~~~~~~~~~~~~
15.06.30~~~~~~~~~~~~~~~~~~~~~~~~
15.09.03~~~~~~~~~~~~~~~~~~~~~~~~
15.09.06~~~~~~~~~~~~~~~~~~~~~~~~
15.09.09~~~~~~~~~~~~~~~~~~~~~~~~
15.09.12~~~~~~~~~~~~~~~~~~~~~~~~
15.09.15~~~~~~~~~~~~~~~~~~~~~~~~
15.09.17~~~~~~~~~~~~~~~~~~~~~~~~
15.09.18~~~~~~~~~~~~~~~~~~~~~~~~
15.09.21~~~~~~~~~~~~~~~~~~~~~~~~
15.09.24~~~~~~~~~~~~~~~~~~~~~~~~
15.09.27~~~~~~~~~~~~~~~~~~~~~~~~
15.09.30~~~~~~~~~~~~~~~~~~~~~~~~
15.12.03~~~~~~~~~~~~~~~~~~~~~~~~
15.12.06~~~~~~~~~~~~~~~~~~~~~~~~
15.12.09~~~~~~~~~~~~~~~~~~~~~~~~
15.12.12~~~~~~~~~~~~~~~~~~~~~~~~
15.12.15~~~~~~~~~~~~~~~~~~~~~~~~
15.12.18~~~~~~~~~~~~~~~~~~~~~~~~
15.12.21~~~~~~~~~~~~~~~~~~~~~~~~
15.12.24~~~~~~~~~~~~~~~~~~~~~~~~
15.12.27~~~~~~~~~~~~~~~~~~~~~~~~
15.15.01~~~~~~~~~~~~~~~~~~~~~~~~
15.15.03~~~~~~~~~~~~~~~~~~~~~~~~
15.15.06~~~~~~~~~~~~~~~~~~~~~~~~
15.15.09~~~~~~~~~~~~~~~~~~~~~~~~
15.15.12~~~~~~~~~~~~~~~~~~~~~~~~
15.15.15~~~~~~~~~~~~~~~~~~~~~~~~
15.15.18~~~~~~~~~~~~~~~~~~~~~~~~
15.15.21~~~~~~~~~~~~~~~~~~~~~~~~
15.15.24~~~~~~~~~~~~~~~~~~~~~~~~
15.18.06~~~~~~~~~~~~~~~~~~~~~~~~
15.18.07~~~~~~~~~~~~~~~~~~~~~~~~
15.18.09~~~~~~~~~~~~~~~~~~~~~~~~
15.18.12~~~~~~~~~~~~~~~~~~~~~~~~
15.18.15~~~~~~~~~~~~~~~~~~~~~~~~
15.18.18~~~~~~~~~~~~~~~~~~~~~~~~
15.18.21~~~~~~~~~~~~~~~~~~~~~~~~
15.21.15~~~~~~~~~~~~~~~~~~~~~~~~
15.21.18~~~~~~~~~~~~~~~~~~~~~~~~
18.06.03~~~~~~~~~~~~~~~~~~~~~~~~
18.06.06~~~~~~~~~~~~~~~~~~~~~~~~
18.06.09~~~~~~~~~~~~~~~~~~~~~~~~
18.06.12~~~~~~~~~~~~~~~~~~~~~~~~
18.06.15~~~~~~~~~~~~~~~~~~~~~~~~
18.06.17~~~~~~~~~~~~~~~~~~~~~~~~
18.06.18~~~~~~~~~~~~~~~~~~~~~~~~
18.06.21~~~~~~~~~~~~~~~~~~~~~~~~
18.06.24~~~~~~~~~~~~~~~~~~~~~~~~
18.06.27~~~~~~~~~~~~~~~~~~~~~~~~
18.06.30~~~~~~~~~~~~~~~~~~~~~~~~
18.06.33~~~~~~~~~~~~~~~~~~~~~~~~
18.09.03~~~~~~~~~~~~~~~~~~~~~~~~
18.09.06~~~~~~~~~~~~~~~~~~~~~~~~
18.09.09~~~~~~~~~~~~~~~~~~~~~~~~
18.09.12~~~~~~~~~~~~~~~~~~~~~~~~
18.09.13~~~~~~~~~~~~~~~~~~~~~~~~
18.09.15~~~~~~~~~~~~~~~~~~~~~~~~
18.09.18~~~~~~~~~~~~~~~~~~~~~~~~
18.09.21~~~~~~~~~~~~~~~~~~~~~~~~
18.09.24~~~~~~~~~~~~~~~~~~~~~~~~
18.09.25~~~~~~~~~~~~~~~~~~~~~~~~
18.09.27~~~~~~~~~~~~~~~~~~~~~~~~
18.09.30~~~~~~~~~~~~~~~~~~~~~~~~
18.12.03~~~~~~~~~~~~~~~~~~~~~~~~
18.12.06~~~~~~~~~~~~~~~~~~~~~~~~
18.12.07~~~~~~~~~~~~~~~~~~~~~~~~
18.12.09~~~~~~~~~~~~~~~~~~~~~~~~
18.12.13~~~~~~~~~~~~~~~~~~~~~~~~
18.12.15~~~~~~~~~~~~~~~~~~~~~~~~
18.12.18~~~~~~~~~~~~~~~~~~~~~~~~
18.12.21~~~~~~~~~~~~~~~~~~~~~~~~
18.12.24~~~~~~~~~~~~~~~~~~~~~~~~
18.12.27~~~~~~~~~~~~~~~~~~~~~~~~
18.12.30~~~~~~~~~~~~~~~~~~~~~~~~
18.15.09~~~~~~~~~~~~~~~~~~~~~~~~
18.15.12~~~~~~~~~~~~~~~~~~~~~~~~
18.15.15~~~~~~~~~~~~~~~~~~~~~~~~
18.15.18~~~~~~~~~~~~~~~~~~~~~~~~
18.15.21~~~~~~~~~~~~~~~~~~~~~~~~
18.15.24~~~~~~~~~~~~~~~~~~~~~~~~
18.15.27~~~~~~~~~~~~~~~~~~~~~~~~
18.15.30~~~~~~~~~~~~~~~~~~~~~~~~
18.15.33~~~~~~~~~~~~~~~~~~~~~~~~
18.18.12~~~~~~~~~~~~~~~~~~~~~~~~
18.18.15~~~~~~~~~~~~~~~~~~~~~~~~
18.18.18~~~~~~~~~~~~~~~~~~~~~~~~
18.21.15~~~~~~~~~~~~~~~~~~~~~~~~
18.21.18~~~~~~~~~~~~~~~~~~~~~~~~
18.24.18~~~~~~~~~~~~~~~~~~~~~~~~
18.24.21~~~~~~~~~~~~~~~~~~~~~~~~
21.06.21~~~~~~~~~~~~~~~~~~~~~~~~
21.06.24~~~~~~~~~~~~~~~~~~~~~~~~
21.06.27~~~~~~~~~~~~~~~~~~~~~~~~
21.06.30~~~~~~~~~~~~~~~~~~~~~~~~
21.06.33~~~~~~~~~~~~~~~~~~~~~~~~
21.09.02~~~~~~~~~~~~~~~~~~~~~~~~
21.09.03~~~~~~~~~~~~~~~~~~~~~~~~
21.09.06~~~~~~~~~~~~~~~~~~~~~~~~
21.09.09~~~~~~~~~~~~~~~~~~~~~~~~
21.09.12~~~~~~~~~~~~~~~~~~~~~~~~
21.09.15~~~~~~~~~~~~~~~~~~~~~~~~
21.09.18~~~~~~~~~~~~~~~~~~~~~~~~
21.09.21~~~~~~~~~~~~~~~~~~~~~~~~
21.09.22~~~~~~~~~~~~~~~~~~~~~~~~
21.09.24~~~~~~~~~~~~~~~~~~~~~~~~
21.09.27~~~~~~~~~~~~~~~~~~~~~~~~
21.12.06~~~~~~~~~~~~~~~~~~~~~~~~
21.12.09~~~~~~~~~~~~~~~~~~~~~~~~
21.12.12~~~~~~~~~~~~~~~~~~~~~~~~
21.12.15~~~~~~~~~~~~~~~~~~~~~~~~
21.12.16~~~~~~~~~~~~~~~~~~~~~~~~
21.12.18~~~~~~~~~~~~~~~~~~~~~~~~
21.12.21~~~~~~~~~~~~~~~~~~~~~~~~
21.12.24~~~~~~~~~~~~~~~~~~~~~~~~
21.12.27~~~~~~~~~~~~~~~~~~~~~~~~
21.12.30~~~~~~~~~~~~~~~~~~~~~~~~
21.15.12~~~~~~~~~~~~~~~~~~~~~~~~
21.15.15~~~~~~~~~~~~~~~~~~~~~~~~
21.15.16~~~~~~~~~~~~~~~~~~~~~~~~
21.15.18~~~~~~~~~~~~~~~~~~~~~~~~
21.15.21~~~~~~~~~~~~~~~~~~~~~~~~
21.15.24~~~~~~~~~~~~~~~~~~~~~~~~
21.15.27~~~~~~~~~~~~~~~~~~~~~~~~
21.16.18~~~~~~~~~~~~~~~~~~~~~~~~
21.16.21~~~~~~~~~~~~~~~~~~~~~~~~
21.16.24~~~~~~~~~~~~~~~~~~~~~~~~
21.18.12~~~~~~~~~~~~~~~~~~~~~~~~
21.18.15~~~~~~~~~~~~~~~~~~~~~~~~
21.18.16~~~~~~~~~~~~~~~~~~~~~~~~
21.18.18~~~~~~~~~~~~~~~~~~~~~~~~
21.18.21~~~~~~~~~~~~~~~~~~~~~~~~
21.18.24~~~~~~~~~~~~~~~~~~~~~~~~
24.06.03~~~~~~~~~~~~~~~~~~~~~~~~
24.06.06~~~~~~~~~~~~~~~~~~~~~~~~
24.06.09~~~~~~~~~~~~~~~~~~~~~~~~
24.06.12~~~~~~~~~~~~~~~~~~~~~~~~
24.06.15~~~~~~~~~~~~~~~~~~~~~~~~
24.06.18~~~~~~~~~~~~~~~~~~~~~~~~
24.06.19~~~~~~~~~~~~~~~~~~~~~~~~
24.06.22~~~~~~~~~~~~~~~~~~~~~~~~
24.06.24~~~~~~~~~~~~~~~~~~~~~~~~
24.06.27~~~~~~~~~~~~~~~~~~~~~~~~
24.06.30~~~~~~~~~~~~~~~~~~~~~~~~
24.09.09~~~~~~~~~~~~~~~~~~~~~~~~
24.09.12~~~~~~~~~~~~~~~~~~~~~~~~
24.09.15~~~~~~~~~~~~~~~~~~~~~~~~
24.09.16~~~~~~~~~~~~~~~~~~~~~~~~
24.09.18~~~~~~~~~~~~~~~~~~~~~~~~
24.09.21~~~~~~~~~~~~~~~~~~~~~~~~
24.09.24~~~~~~~~~~~~~~~~~~~~~~~~
24.09.27~~~~~~~~~~~~~~~~~~~~~~~~
24.09.30~~~~~~~~~~~~~~~~~~~~~~~~
24.12.03~~~~~~~~~~~~~~~~~~~~~~~~
24.12.06~~~~~~~~~~~~~~~~~~~~~~~~
24.12.09~~~~~~~~~~~~~~~~~~~~~~~~
24.12.12~~~~~~~~~~~~~~~~~~~~~~~~
24.12.15~~~~~~~~~~~~~~~~~~~~~~~~
24.12.16~~~~~~~~~~~~~~~~~~~~~~~~
24.12.18~~~~~~~~~~~~~~~~~~~~~~~~
24.12.21~~~~~~~~~~~~~~~~~~~~~~~~
24.13.18~~~~~~~~~~~~~~~~~~~~~~~~
24.13.21~~~~~~~~~~~~~~~~~~~~~~~~
24.13.24~~~~~~~~~~~~~~~~~~~~~~~~
24.15.12~~~~~~~~~~~~~~~~~~~~~~~~
24.15.15~~~~~~~~~~~~~~~~~~~~~~~~
24.15.18~~~~~~~~~~~~~~~~~~~~~~~~
24.15.21~~~~~~~~~~~~~~~~~~~~~~~~
24.15.24~~~~~~~~~~~~~~~~~~~~~~~~
24.15.27~~~~~~~~~~~~~~~~~~~~~~~~
24.15.30~~~~~~~~~~~~~~~~~~~~~~~~
24.18.15~~~~~~~~~~~~~~~~~~~~~~~~
24.18.18~~~~~~~~~~~~~~~~~~~~~~~~
24.18.21~~~~~~~~~~~~~~~~~~~~~~~~
24.18.23~~~~~~~~~~~~~~~~~~~~~~~~
24.18.24~~~~~~~~~~~~~~~~~~~~~~~~
24.18.27~~~~~~~~~~~~~~~~~~~~~~~~
24.18.30~~~~~~~~~~~~~~~~~~~~~~~~
24.21.15~~~~~~~~~~~~~~~~~~~~~~~~
24.21.18~~~~~~~~~~~~~~~~~~~~~~~~
24.21.21~~~~~~~~~~~~~~~~~~~~~~~~
24.21.24~~~~~~~~~~~~~~~~~~~~~~~~
24.24.21~~~~~~~~~~~~~~~~~~~~~~~~
24.24.24~~~~~~~~~~~~~~~~~~~~~~~~
27.09.03~~~~~~~~~~~~~~~~~~~~~~~~
27.09.06~~~~~~~~~~~~~~~~~~~~~~~~
27.09.09~~~~~~~~~~~~~~~~~~~~~~~~
27.09.12~~~~~~~~~~~~~~~~~~~~~~~~
27.09.15~~~~~~~~~~~~~~~~~~~~~~~~
27.09.18~~~~~~~~~~~~~~~~~~~~~~~~
27.09.19~~~~~~~~~~~~~~~~~~~~~~~~
27.09.21~~~~~~~~~~~~~~~~~~~~~~~~
27.09.23~~~~~~~~~~~~~~~~~~~~~~~~
27.09.24~~~~~~~~~~~~~~~~~~~~~~~~
27.09.27~~~~~~~~~~~~~~~~~~~~~~~~
27.09.30~~~~~~~~~~~~~~~~~~~~~~~~
27.09.33~~~~~~~~~~~~~~~~~~~~~~~~
27.12.06~~~~~~~~~~~~~~~~~~~~~~~~
27.12.09~~~~~~~~~~~~~~~~~~~~~~~~
27.12.12~~~~~~~~~~~~~~~~~~~~~~~~
27.12.15~~~~~~~~~~~~~~~~~~~~~~~~
27.12.18~~~~~~~~~~~~~~~~~~~~~~~~
27.12.19~~~~~~~~~~~~~~~~~~~~~~~~
27.12.21~~~~~~~~~~~~~~~~~~~~~~~~
27.12.23~~~~~~~~~~~~~~~~~~~~~~~~
27.12.24~~~~~~~~~~~~~~~~~~~~~~~~
27.12.27~~~~~~~~~~~~~~~~~~~~~~~~
27.12.30~~~~~~~~~~~~~~~~~~~~~~~~
27.13.18~~~~~~~~~~~~~~~~~~~~~~~~
27.13.21~~~~~~~~~~~~~~~~~~~~~~~~
27.13.24~~~~~~~~~~~~~~~~~~~~~~~~
27.15.06~~~~~~~~~~~~~~~~~~~~~~~~
27.15.09~~~~~~~~~~~~~~~~~~~~~~~~
27.15.12~~~~~~~~~~~~~~~~~~~~~~~~
27.15.15~~~~~~~~~~~~~~~~~~~~~~~~
27.15.18~~~~~~~~~~~~~~~~~~~~~~~~
27.15.21~~~~~~~~~~~~~~~~~~~~~~~~
27.15.24~~~~~~~~~~~~~~~~~~~~~~~~
27.18.15~~~~~~~~~~~~~~~~~~~~~~~~
27.18.18~~~~~~~~~~~~~~~~~~~~~~~~
27.18.21~~~~~~~~~~~~~~~~~~~~~~~~
27.18.24~~~~~~~~~~~~~~~~~~~~~~~~
27.18.27~~~~~~~~~~~~~~~~~~~~~~~~
27.18.30~~~~~~~~~~~~~~~~~~~~~~~~
27.21.18~~~~~~~~~~~~~~~~~~~~~~~~
27.21.21~~~~~~~~~~~~~~~~~~~~~~~~
27.21.24~~~~~~~~~~~~~~~~~~~~~~~~
27.21.27~~~~~~~~~~~~~~~~~~~~~~~~
27.21.30~~~~~~~~~~~~~~~~~~~~~~~~
27.24.24~~~~~~~~~~~~~~~~~~~~~~~~
27.24.27~~~~~~~~~~~~~~~~~~~~~~~~
27.24.30~~~~~~~~~~~~~~~~~~~~~~~~
30.06.06~~~~~~~~~~~~~~~~~~~~~~~~
30.06.09~~~~~~~~~~~~~~~~~~~~~~~~
30.06.12~~~~~~~~~~~~~~~~~~~~~~~~
30.06.15~~~~~~~~~~~~~~~~~~~~~~~~
30.06.18~~~~~~~~~~~~~~~~~~~~~~~~
30.06.21~~~~~~~~~~~~~~~~~~~~~~~~
30.06.24~~~~~~~~~~~~~~~~~~~~~~~~
30.06.27~~~~~~~~~~~~~~~~~~~~~~~~
30.06.30~~~~~~~~~~~~~~~~~~~~~~~~
30.09.03~~~~~~~~~~~~~~~~~~~~~~~~
30.09.06~~~~~~~~~~~~~~~~~~~~~~~~
30.09.09~~~~~~~~~~~~~~~~~~~~~~~~
30.09.12~~~~~~~~~~~~~~~~~~~~~~~~
30.09.15~~~~~~~~~~~~~~~~~~~~~~~~
30.09.18~~~~~~~~~~~~~~~~~~~~~~~~
30.09.21~~~~~~~~~~~~~~~~~~~~~~~~
30.09.24~~~~~~~~~~~~~~~~~~~~~~~~
30.09.27~~~~~~~~~~~~~~~~~~~~~~~~
30.09.30~~~~~~~~~~~~~~~~~~~~~~~~
30.12.21~~~~~~~~~~~~~~~~~~~~~~~~
30.12.24~~~~~~~~~~~~~~~~~~~~~~~~
30.12.27~~~~~~~~~~~~~~~~~~~~~~~~
30.12.30~~~~~~~~~~~~~~~~~~~~~~~~
30.15.06~~~~~~~~~~~~~~~~~~~~~~~~
30.15.09~~~~~~~~~~~~~~~~~~~~~~~~
30.15.12~~~~~~~~~~~~~~~~~~~~~~~~
30.15.15~~~~~~~~~~~~~~~~~~~~~~~~
30.15.18~~~~~~~~~~~~~~~~~~~~~~~~
30.15.21~~~~~~~~~~~~~~~~~~~~~~~~
30.15.24~~~~~~~~~~~~~~~~~~~~~~~~
30.15.27~~~~~~~~~~~~~~~~~~~~~~~~
30.15.30~~~~~~~~~~~~~~~~~~~~~~~~
30.15.33~~~~~~~~~~~~~~~~~~~~~~~~
30.18.12~~~~~~~~~~~~~~~~~~~~~~~~
30.18.15~~~~~~~~~~~~~~~~~~~~~~~~
30.18.18~~~~~~~~~~~~~~~~~~~~~~~~
30.18.21~~~~~~~~~~~~~~~~~~~~~~~~
30.18.24~~~~~~~~~~~~~~~~~~~~~~~~
30.18.27~~~~~~~~~~~~~~~~~~~~~~~~
30.18.30~~~~~~~~~~~~~~~~~~~~~~~~
30.18.33~~~~~~~~~~~~~~~~~~~~~~~~
30.21.21~~~~~~~~~~~~~~~~~~~~~~~~
30.21.24~~~~~~~~~~~~~~~~~~~~~~~~
30.24.21~~~~~~~~~~~~~~~~~~~~~~~~
30.24.24~~~~~~~~~~~~~~~~~~~~~~~~
33.06.03~~~~~~~~~~~~~~~~~~~~~~~~
33.06.06~~~~~~~~~~~~~~~~~~~~~~~~
33.06.09~~~~~~~~~~~~~~~~~~~~~~~~
33.06.12~~~~~~~~~~~~~~~~~~~~~~~~
33.06.15~~~~~~~~~~~~~~~~~~~~~~~~
33.06.17~~~~~~~~~~~~~~~~~~~~~~~~
33.06.18~~~~~~~~~~~~~~~~~~~~~~~~
33.06.21~~~~~~~~~~~~~~~~~~~~~~~~
33.06.24~~~~~~~~~~~~~~~~~~~~~~~~
33.06.27~~~~~~~~~~~~~~~~~~~~~~~~
33.06.30~~~~~~~~~~~~~~~~~~~~~~~~
33.09.12~~~~~~~~~~~~~~~~~~~~~~~~
33.09.13~~~~~~~~~~~~~~~~~~~~~~~~
33.09.15~~~~~~~~~~~~~~~~~~~~~~~~
33.09.16~~~~~~~~~~~~~~~~~~~~~~~~
33.09.17~~~~~~~~~~~~~~~~~~~~~~~~
33.09.18~~~~~~~~~~~~~~~~~~~~~~~~
33.09.21~~~~~~~~~~~~~~~~~~~~~~~~
33.09.24~~~~~~~~~~~~~~~~~~~~~~~~
33.09.27~~~~~~~~~~~~~~~~~~~~~~~~
33.09.30~~~~~~~~~~~~~~~~~~~~~~~~
33.12.06~~~~~~~~~~~~~~~~~~~~~~~~
33.12.09~~~~~~~~~~~~~~~~~~~~~~~~
33.12.12~~~~~~~~~~~~~~~~~~~~~~~~
33.12.15~~~~~~~~~~~~~~~~~~~~~~~~
33.12.17~~~~~~~~~~~~~~~~~~~~~~~~
33.12.18~~~~~~~~~~~~~~~~~~~~~~~~
33.12.21~~~~~~~~~~~~~~~~~~~~~~~~
33.12.24~~~~~~~~~~~~~~~~~~~~~~~~
33.12.27~~~~~~~~~~~~~~~~~~~~~~~~
33.12.30~~~~~~~~~~~~~~~~~~~~~~~~
33.15.21~~~~~~~~~~~~~~~~~~~~~~~~
33.15.24~~~~~~~~~~~~~~~~~~~~~~~~
33.15.27~~~~~~~~~~~~~~~~~~~~~~~~
33.18.24~~~~~~~~~~~~~~~~~~~~~~~~
33.18.27~~~~~~~~~~~~~~~~~~~~~~~~
36.03.03~~~~~~~~~~~~~~~~~~~~~~~~
36.03.06~~~~~~~~~~~~~~~~~~~~~~~~
36.03.09~~~~~~~~~~~~~~~~~~~~~~~~
36.03.12~~~~~~~~~~~~~~~~~~~~~~~~
36.03.15~~~~~~~~~~~~~~~~~~~~~~~~
36.03.18~~~~~~~~~~~~~~~~~~~~~~~~
36.03.21~~~~~~~~~~~~~~~~~~~~~~~~
36.03.24~~~~~~~~~~~~~~~~~~~~~~~~
36.03.27~~~~~~~~~~~~~~~~~~~~~~~~
36.03.30~~~~~~~~~~~~~~~~~~~~~~~~
36.06.03~~~~~~~~~~~~~~~~~~~~~~~~
36.06.06~~~~~~~~~~~~~~~~~~~~~~~~
36.06.09~~~~~~~~~~~~~~~~~~~~~~~~
36.06.12~~~~~~~~~~~~~~~~~~~~~~~~
36.06.15~~~~~~~~~~~~~~~~~~~~~~~~
36.06.18~~~~~~~~~~~~~~~~~~~~~~~~
36.06.21~~~~~~~~~~~~~~~~~~~~~~~~
36.06.24~~~~~~~~~~~~~~~~~~~~~~~~
36.06.27~~~~~~~~~~~~~~~~~~~~~~~~
36.06.30~~~~~~~~~~~~~~~~~~~~~~~~
36.06.33~~~~~~~~~~~~~~~~~~~~~~~~
36.09.06~~~~~~~~~~~~~~~~~~~~~~~~
36.09.09~~~~~~~~~~~~~~~~~~~~~~~~
36.09.12~~~~~~~~~~~~~~~~~~~~~~~~
36.09.15~~~~~~~~~~~~~~~~~~~~~~~~
36.09.18~~~~~~~~~~~~~~~~~~~~~~~~
36.09.21~~~~~~~~~~~~~~~~~~~~~~~~
36.09.24~~~~~~~~~~~~~~~~~~~~~~~~
36.09.27~~~~~~~~~~~~~~~~~~~~~~~~
36.09.30~~~~~~~~~~~~~~~~~~~~~~~~
36.09.33~~~~~~~~~~~~~~~~~~~~~~~~
36.09.36~~~~~~~~~~~~~~~~~~~~~~~~
36.12.21~~~~~~~~~~~~~~~~~~~~~~~~
36.12.24~~~~~~~~~~~~~~~~~~~~~~~~
36.12.27~~~~~~~~~~~~~~~~~~~~~~~~
36.15.21~~~~~~~~~~~~~~~~~~~~~~~~
36.15.24~~~~~~~~~~~~~~~~~~~~~~~~
36.15.27~~~~~~~~~~~~~~~~~~~~~~~~
39.06.06~~~~~~~~~~~~~~~~~~~~~~~~
39.06.09~~~~~~~~~~~~~~~~~~~~~~~~
39.06.12~~~~~~~~~~~~~~~~~~~~~~~~
39.06.15~~~~~~~~~~~~~~~~~~~~~~~~
39.06.18~~~~~~~~~~~~~~~~~~~~~~~~
39.06.21~~~~~~~~~~~~~~~~~~~~~~~~
39.06.24~~~~~~~~~~~~~~~~~~~~~~~~
39.06.27~~~~~~~~~~~~~~~~~~~~~~~~
39.06.30~~~~~~~~~~~~~~~~~~~~~~~~
39.09.09~~~~~~~~~~~~~~~~~~~~~~~~
39.09.12~~~~~~~~~~~~~~~~~~~~~~~~
39.09.15~~~~~~~~~~~~~~~~~~~~~~~~
39.09.18~~~~~~~~~~~~~~~~~~~~~~~~
39.09.21~~~~~~~~~~~~~~~~~~~~~~~~
39.09.24~~~~~~~~~~~~~~~~~~~~~~~~
39.09.27~~~~~~~~~~~~~~~~~~~~~~~~
39.12.09~~~~~~~~~~~~~~~~~~~~~~~~
39.12.12~~~~~~~~~~~~~~~~~~~~~~~~
39.12.15~~~~~~~~~~~~~~~~~~~~~~~~
39.12.18~~~~~~~~~~~~~~~~~~~~~~~~
39.12.21~~~~~~~~~~~~~~~~~~~~~~~~
39.12.24~~~~~~~~~~~~~~~~~~~~~~~~
39.12.27~~~~~~~~~~~~~~~~~~~~~~~~
39.15.09~~~~~~~~~~~~~~~~~~~~~~~~
39.15.12~~~~~~~~~~~~~~~~~~~~~~~~
39.15.15~~~~~~~~~~~~~~~~~~~~~~~~
39.15.18~~~~~~~~~~~~~~~~~~~~~~~~
39.15.21~~~~~~~~~~~~~~~~~~~~~~~~
39.15.24~~~~~~~~~~~~~~~~~~~~~~~~
39.15.27~~~~~~~~~~~~~~~~~~~~~~~~
39.15.30~~~~~~~~~~~~~~~~~~~~~~~~
39.18.21~~~~~~~~~~~~~~~~~~~~~~~~
39.18.24~~~~~~~~~~~~~~~~~~~~~~~~
42.03.03~~~~~~~~~~~~~~~~~~~~~~~~
42.03.06~~~~~~~~~~~~~~~~~~~~~~~~
42.03.09~~~~~~~~~~~~~~~~~~~~~~~~
42.03.12~~~~~~~~~~~~~~~~~~~~~~~~
42.03.15~~~~~~~~~~~~~~~~~~~~~~~~
42.03.18~~~~~~~~~~~~~~~~~~~~~~~~
42.03.21~~~~~~~~~~~~~~~~~~~~~~~~
42.03.24~~~~~~~~~~~~~~~~~~~~~~~~
42.03.27~~~~~~~~~~~~~~~~~~~~~~~~
42.03.30~~~~~~~~~~~~~~~~~~~~~~~~
42.06.03~~~~~~~~~~~~~~~~~~~~~~~~
42.06.06~~~~~~~~~~~~~~~~~~~~~~~~
42.06.09~~~~~~~~~~~~~~~~~~~~~~~~
42.06.12~~~~~~~~~~~~~~~~~~~~~~~~
42.06.15~~~~~~~~~~~~~~~~~~~~~~~~
42.06.18~~~~~~~~~~~~~~~~~~~~~~~~
42.06.21~~~~~~~~~~~~~~~~~~~~~~~~
42.06.24~~~~~~~~~~~~~~~~~~~~~~~~
42.06.27~~~~~~~~~~~~~~~~~~~~~~~~
42.09.18~~~~~~~~~~~~~~~~~~~~~~~~
42.09.21~~~~~~~~~~~~~~~~~~~~~~~~
42.09.24~~~~~~~~~~~~~~~~~~~~~~~~
42.09.27~~~~~~~~~~~~~~~~~~~~~~~~
42.12.06~~~~~~~~~~~~~~~~~~~~~~~~
42.12.09~~~~~~~~~~~~~~~~~~~~~~~~
42.12.12~~~~~~~~~~~~~~~~~~~~~~~~
42.12.15~~~~~~~~~~~~~~~~~~~~~~~~
42.12.18~~~~~~~~~~~~~~~~~~~~~~~~
42.12.21~~~~~~~~~~~~~~~~~~~~~~~~
42.12.24~~~~~~~~~~~~~~~~~~~~~~~~
42.15.15~~~~~~~~~~~~~~~~~~~~~~~~
42.15.18~~~~~~~~~~~~~~~~~~~~~~~~
42.15.21~~~~~~~~~~~~~~~~~~~~~~~~
42.15.24~~~~~~~~~~~~~~~~~~~~~~~~
42.15.27~~~~~~~~~~~~~~~~~~~~~~~~
42.15.30~~~~~~~~~~~~~~~~~~~~~~~~
42.18.15~~~~~~~~~~~~~~~~~~~~~~~~
42.18.18~~~~~~~~~~~~~~~~~~~~~~~~
42.18.21~~~~~~~~~~~~~~~~~~~~~~~~
42.18.24~~~~~~~~~~~~~~~~~~~~~~~~
42.18.27~~~~~~~~~~~~~~~~~~~~~~~~
42.21.12~~~~~~~~~~~~~~~~~~~~~~~~
42.21.15~~~~~~~~~~~~~~~~~~~~~~~~
42.21.18~~~~~~~~~~~~~~~~~~~~~~~~
42.21.21~~~~~~~~~~~~~~~~~~~~~~~~
42.21.24~~~~~~~~~~~~~~~~~~~~~~~~
42.21.27~~~~~~~~~~~~~~~~~~~~~~~~
45.06.03~~~~~~~~~~~~~~~~~~~~~~~~
45.06.06~~~~~~~~~~~~~~~~~~~~~~~~
45.06.09~~~~~~~~~~~~~~~~~~~~~~~~
45.06.12~~~~~~~~~~~~~~~~~~~~~~~~
45.06.15~~~~~~~~~~~~~~~~~~~~~~~~
45.06.18~~~~~~~~~~~~~~~~~~~~~~~~
45.06.21~~~~~~~~~~~~~~~~~~~~~~~~
45.06.24~~~~~~~~~~~~~~~~~~~~~~~~
45.06.27~~~~~~~~~~~~~~~~~~~~~~~~
45.06.30~~~~~~~~~~~~~~~~~~~~~~~~
45.09.06~~~~~~~~~~~~~~~~~~~~~~~~
45.09.09~~~~~~~~~~~~~~~~~~~~~~~~
45.09.12~~~~~~~~~~~~~~~~~~~~~~~~
45.09.15~~~~~~~~~~~~~~~~~~~~~~~~
45.09.18~~~~~~~~~~~~~~~~~~~~~~~~
45.09.21~~~~~~~~~~~~~~~~~~~~~~~~
45.09.24~~~~~~~~~~~~~~~~~~~~~~~~
45.09.27~~~~~~~~~~~~~~~~~~~~~~~~
45.09.30~~~~~~~~~~~~~~~~~~~~~~~~
45.12.06~~~~~~~~~~~~~~~~~~~~~~~~
45.12.09~~~~~~~~~~~~~~~~~~~~~~~~
45.12.12~~~~~~~~~~~~~~~~~~~~~~~~
45.12.15~~~~~~~~~~~~~~~~~~~~~~~~
45.12.18~~~~~~~~~~~~~~~~~~~~~~~~
45.12.21~~~~~~~~~~~~~~~~~~~~~~~~
45.12.24~~~~~~~~~~~~~~~~~~~~~~~~
45.12.27~~~~~~~~~~~~~~~~~~~~~~~~
45.15.21~~~~~~~~~~~~~~~~~~~~~~~~
45.15.24~~~~~~~~~~~~~~~~~~~~~~~~
45.15.27~~~~~~~~~~~~~~~~~~~~~~~~
45.18.12~~~~~~~~~~~~~~~~~~~~~~~~
45.18.15~~~~~~~~~~~~~~~~~~~~~~~~
45.18.18~~~~~~~~~~~~~~~~~~~~~~~~
45.18.21~~~~~~~~~~~~~~~~~~~~~~~~
45.18.24~~~~~~~~~~~~~~~~~~~~~~~~
45.18.27~~~~~~~~~~~~~~~~~~~~~~~~
45.18.30~~~~~~~~~~~~~~~~~~~~~~~~
48.06.06~~~~~~~~~~~~~~~~~~~~~~~~
48.06.09~~~~~~~~~~~~~~~~~~~~~~~~
48.06.12~~~~~~~~~~~~~~~~~~~~~~~~
48.06.15~~~~~~~~~~~~~~~~~~~~~~~~
48.06.18~~~~~~~~~~~~~~~~~~~~~~~~
48.06.21~~~~~~~~~~~~~~~~~~~~~~~~
48.06.24~~~~~~~~~~~~~~~~~~~~~~~~
48.06.27~~~~~~~~~~~~~~~~~~~~~~~~
48.06.30~~~~~~~~~~~~~~~~~~~~~~~~
48.09.12~~~~~~~~~~~~~~~~~~~~~~~~
48.09.15~~~~~~~~~~~~~~~~~~~~~~~~
48.09.18~~~~~~~~~~~~~~~~~~~~~~~~
48.09.21~~~~~~~~~~~~~~~~~~~~~~~~
48.09.24~~~~~~~~~~~~~~~~~~~~~~~~
48.09.27~~~~~~~~~~~~~~~~~~~~~~~~
48.09.30~~~~~~~~~~~~~~~~~~~~~~~~
48.12.09~~~~~~~~~~~~~~~~~~~~~~~~
48.12.12~~~~~~~~~~~~~~~~~~~~~~~~
48.12.15~~~~~~~~~~~~~~~~~~~~~~~~
48.12.18~~~~~~~~~~~~~~~~~~~~~~~~
48.12.21~~~~~~~~~~~~~~~~~~~~~~~~
48.12.24~~~~~~~~~~~~~~~~~~~~~~~~
48.12.27~~~~~~~~~~~~~~~~~~~~~~~~
48.15.15~~~~~~~~~~~~~~~~~~~~~~~~
48.15.18~~~~~~~~~~~~~~~~~~~~~~~~
48.15.21~~~~~~~~~~~~~~~~~~~~~~~~
48.15.24~~~~~~~~~~~~~~~~~~~~~~~~
48.15.27~~~~~~~~~~~~~~~~~~~~~~~~
48.15.30~~~~~~~~~~~~~~~~~~~~~~~~
48.15.33~~~~~~~~~~~~~~~~~~~~~~~~
48.18.24~~~~~~~~~~~~~~~~~~~~~~~~
51.03.12~~~~~~~~~~~~~~~~~~~~~~~~
51.03.18~~~~~~~~~~~~~~~~~~~~~~~~
51.03.24~~~~~~~~~~~~~~~~~~~~~~~~
51.06.06~~~~~~~~~~~~~~~~~~~~~~~~
51.06.09~~~~~~~~~~~~~~~~~~~~~~~~
51.06.12~~~~~~~~~~~~~~~~~~~~~~~~
51.06.15~~~~~~~~~~~~~~~~~~~~~~~~
51.06.18~~~~~~~~~~~~~~~~~~~~~~~~
51.06.21~~~~~~~~~~~~~~~~~~~~~~~~
51.06.24~~~~~~~~~~~~~~~~~~~~~~~~
51.06.27~~~~~~~~~~~~~~~~~~~~~~~~
51.06.30~~~~~~~~~~~~~~~~~~~~~~~~
51.09.06~~~~~~~~~~~~~~~~~~~~~~~~
51.09.09~~~~~~~~~~~~~~~~~~~~~~~~
51.09.12~~~~~~~~~~~~~~~~~~~~~~~~
51.09.15~~~~~~~~~~~~~~~~~~~~~~~~
51.09.18~~~~~~~~~~~~~~~~~~~~~~~~
51.09.21~~~~~~~~~~~~~~~~~~~~~~~~
51.09.24~~~~~~~~~~~~~~~~~~~~~~~~
51.09.27~~~~~~~~~~~~~~~~~~~~~~~~
51.12.15~~~~~~~~~~~~~~~~~~~~~~~~
51.12.18~~~~~~~~~~~~~~~~~~~~~~~~
51.12.21~~~~~~~~~~~~~~~~~~~~~~~~
51.12.24~~~~~~~~~~~~~~~~~~~~~~~~
51.12.27~~~~~~~~~~~~~~~~~~~~~~~~
51.12.30~~~~~~~~~~~~~~~~~~~~~~~~
51.15.09~~~~~~~~~~~~~~~~~~~~~~~~
51.15.12~~~~~~~~~~~~~~~~~~~~~~~~
51.15.15~~~~~~~~~~~~~~~~~~~~~~~~
51.15.18~~~~~~~~~~~~~~~~~~~~~~~~
51.15.21~~~~~~~~~~~~~~~~~~~~~~~~
51.15.24~~~~~~~~~~~~~~~~~~~~~~~~
51.15.27~~~~~~~~~~~~~~~~~~~~~~~~
51.15.30~~~~~~~~~~~~~~~~~~~~~~~~
51.18.21~~~~~~~~~~~~~~~~~~~~~~~~
51.18.24~~~~~~~~~~~~~~~~~~~~~~~~
51.18.27~~~~~~~~~~~~~~~~~~~~~~~~
54.09.12~~~~~~~~~~~~~~~~~~~~~~~~
54.09.15~~~~~~~~~~~~~~~~~~~~~~~~
54.09.18~~~~~~~~~~~~~~~~~~~~~~~~
54.09.21~~~~~~~~~~~~~~~~~~~~~~~~
54.09.24~~~~~~~~~~~~~~~~~~~~~~~~
54.09.27~~~~~~~~~~~~~~~~~~~~~~~~
54.09.30~~~~~~~~~~~~~~~~~~~~~~~~
54.12.06~~~~~~~~~~~~~~~~~~~~~~~~
54.12.09~~~~~~~~~~~~~~~~~~~~~~~~
54.12.12~~~~~~~~~~~~~~~~~~~~~~~~
54.12.15~~~~~~~~~~~~~~~~~~~~~~~~
54.12.18~~~~~~~~~~~~~~~~~~~~~~~~
54.12.21~~~~~~~~~~~~~~~~~~~~~~~~
54.12.24~~~~~~~~~~~~~~~~~~~~~~~~
54.12.27~~~~~~~~~~~~~~~~~~~~~~~~
54.12.30~~~~~~~~~~~~~~~~~~~~~~~~
54.15.12~~~~~~~~~~~~~~~~~~~~~~~~
54.15.15~~~~~~~~~~~~~~~~~~~~~~~~
54.15.18~~~~~~~~~~~~~~~~~~~~~~~~
54.15.21~~~~~~~~~~~~~~~~~~~~~~~~
54.15.24~~~~~~~~~~~~~~~~~~~~~~~~
54.15.27~~~~~~~~~~~~~~~~~~~~~~~~
54.15.30~~~~~~~~~~~~~~~~~~~~~~~~
57.06.03~~~~~~~~~~~~~~~~~~~~~~~~
57.06.06~~~~~~~~~~~~~~~~~~~~~~~~
57.06.09~~~~~~~~~~~~~~~~~~~~~~~~
57.06.12~~~~~~~~~~~~~~~~~~~~~~~~
57.06.15~~~~~~~~~~~~~~~~~~~~~~~~
57.06.18~~~~~~~~~~~~~~~~~~~~~~~~
57.06.21~~~~~~~~~~~~~~~~~~~~~~~~
57.06.24~~~~~~~~~~~~~~~~~~~~~~~~
57.06.27~~~~~~~~~~~~~~~~~~~~~~~~
57.06.30~~~~~~~~~~~~~~~~~~~~~~~~
57.06.33~~~~~~~~~~~~~~~~~~~~~~~~
57.09.09~~~~~~~~~~~~~~~~~~~~~~~~
57.09.12~~~~~~~~~~~~~~~~~~~~~~~~
57.09.15~~~~~~~~~~~~~~~~~~~~~~~~
57.09.18~~~~~~~~~~~~~~~~~~~~~~~~
57.09.21~~~~~~~~~~~~~~~~~~~~~~~~
57.09.24~~~~~~~~~~~~~~~~~~~~~~~~
57.09.27~~~~~~~~~~~~~~~~~~~~~~~~
57.09.30~~~~~~~~~~~~~~~~~~~~~~~~
57.09.33~~~~~~~~~~~~~~~~~~~~~~~~
57.09.36~~~~~~~~~~~~~~~~~~~~~~~~
57.12.09~~~~~~~~~~~~~~~~~~~~~~~~
57.12.12~~~~~~~~~~~~~~~~~~~~~~~~
57.12.15~~~~~~~~~~~~~~~~~~~~~~~~
57.12.18~~~~~~~~~~~~~~~~~~~~~~~~
57.12.21~~~~~~~~~~~~~~~~~~~~~~~~
57.12.24~~~~~~~~~~~~~~~~~~~~~~~~
57.12.27~~~~~~~~~~~~~~~~~~~~~~~~
57.12.30~~~~~~~~~~~~~~~~~~~~~~~~
57.12.33~~~~~~~~~~~~~~~~~~~~~~~~
57.15.12~~~~~~~~~~~~~~~~~~~~~~~~
57.15.15~~~~~~~~~~~~~~~~~~~~~~~~
57.15.18~~~~~~~~~~~~~~~~~~~~~~~~
57.15.21~~~~~~~~~~~~~~~~~~~~~~~~
57.15.24~~~~~~~~~~~~~~~~~~~~~~~~
57.15.27~~~~~~~~~~~~~~~~~~~~~~~~
57.15.30~~~~~~~~~~~~~~~~~~~~~~~~
57.18.15~~~~~~~~~~~~~~~~~~~~~~~~
57.18.18~~~~~~~~~~~~~~~~~~~~~~~~
57.18.21~~~~~~~~~~~~~~~~~~~~~~~~
57.18.24~~~~~~~~~~~~~~~~~~~~~~~~
57.18.27~~~~~~~~~~~~~~~~~~~~~~~~
57.18.30~~~~~~~~~~~~~~~~~~~~~~~~
57.21.18~~~~~~~~~~~~~~~~~~~~~~~~
57.21.21~~~~~~~~~~~~~~~~~~~~~~~~
57.21.24~~~~~~~~~~~~~~~~~~~~~~~~
57.21.27~~~~~~~~~~~~~~~~~~~~~~~~
57.21.30~~~~~~~~~~~~~~~~~~~~~~~~
60.03.24~~~~~~~~~~~~~~~~~~~~~~~~
60.06.03~~~~~~~~~~~~~~~~~~~~~~~~
60.06.06~~~~~~~~~~~~~~~~~~~~~~~~
60.06.09~~~~~~~~~~~~~~~~~~~~~~~~
60.06.12~~~~~~~~~~~~~~~~~~~~~~~~
60.06.15~~~~~~~~~~~~~~~~~~~~~~~~
60.06.18~~~~~~~~~~~~~~~~~~~~~~~~
60.06.19~~~~~~~~~~~~~~~~~~~~~~~~
60.06.21~~~~~~~~~~~~~~~~~~~~~~~~
60.06.24~~~~~~~~~~~~~~~~~~~~~~~~
60.06.27~~~~~~~~~~~~~~~~~~~~~~~~
60.06.30~~~~~~~~~~~~~~~~~~~~~~~~
60.09.03~~~~~~~~~~~~~~~~~~~~~~~~
60.09.06~~~~~~~~~~~~~~~~~~~~~~~~
60.09.09~~~~~~~~~~~~~~~~~~~~~~~~
60.09.12~~~~~~~~~~~~~~~~~~~~~~~~
60.09.15~~~~~~~~~~~~~~~~~~~~~~~~
60.09.18~~~~~~~~~~~~~~~~~~~~~~~~
60.09.19~~~~~~~~~~~~~~~~~~~~~~~~
60.09.21~~~~~~~~~~~~~~~~~~~~~~~~
60.09.24~~~~~~~~~~~~~~~~~~~~~~~~
60.09.27~~~~~~~~~~~~~~~~~~~~~~~~
60.09.30~~~~~~~~~~~~~~~~~~~~~~~~
60.09.33~~~~~~~~~~~~~~~~~~~~~~~~
60.12.09~~~~~~~~~~~~~~~~~~~~~~~~
60.12.12~~~~~~~~~~~~~~~~~~~~~~~~
60.12.15~~~~~~~~~~~~~~~~~~~~~~~~
60.12.18~~~~~~~~~~~~~~~~~~~~~~~~
60.12.21~~~~~~~~~~~~~~~~~~~~~~~~
60.12.24~~~~~~~~~~~~~~~~~~~~~~~~
60.12.27~~~~~~~~~~~~~~~~~~~~~~~~
60.12.30~~~~~~~~~~~~~~~~~~~~~~~~
60.15.09~~~~~~~~~~~~~~~~~~~~~~~~
60.15.12~~~~~~~~~~~~~~~~~~~~~~~~
60.15.15~~~~~~~~~~~~~~~~~~~~~~~~
60.15.18~~~~~~~~~~~~~~~~~~~~~~~~
60.15.21~~~~~~~~~~~~~~~~~~~~~~~~
60.15.24~~~~~~~~~~~~~~~~~~~~~~~~
60.15.27~~~~~~~~~~~~~~~~~~~~~~~~
60.15.30~~~~~~~~~~~~~~~~~~~~~~~~
60.18.12~~~~~~~~~~~~~~~~~~~~~~~~
60.18.15~~~~~~~~~~~~~~~~~~~~~~~~
60.18.18~~~~~~~~~~~~~~~~~~~~~~~~
60.18.21~~~~~~~~~~~~~~~~~~~~~~~~
60.18.24~~~~~~~~~~~~~~~~~~~~~~~~
60.18.27~~~~~~~~~~~~~~~~~~~~~~~~
60.21.18~~~~~~~~~~~~~~~~~~~~~~~~
60.21.21~~~~~~~~~~~~~~~~~~~~~~~~
60.21.24~~~~~~~~~~~~~~~~~~~~~~~~
60.21.27~~~~~~~~~~~~~~~~~~~~~~~~
63.03.15~~~~~~~~~~~~~~~~~~~~~~~~
63.03.18~~~~~~~~~~~~~~~~~~~~~~~~
63.03.21~~~~~~~~~~~~~~~~~~~~~~~~
63.06.03~~~~~~~~~~~~~~~~~~~~~~~~
63.06.06~~~~~~~~~~~~~~~~~~~~~~~~
63.06.09~~~~~~~~~~~~~~~~~~~~~~~~
63.06.12~~~~~~~~~~~~~~~~~~~~~~~~
63.06.15~~~~~~~~~~~~~~~~~~~~~~~~
63.06.18~~~~~~~~~~~~~~~~~~~~~~~~
63.06.21~~~~~~~~~~~~~~~~~~~~~~~~
63.06.24~~~~~~~~~~~~~~~~~~~~~~~~
63.06.27~~~~~~~~~~~~~~~~~~~~~~~~
63.06.30~~~~~~~~~~~~~~~~~~~~~~~~
63.06.33~~~~~~~~~~~~~~~~~~~~~~~~
63.09.03~~~~~~~~~~~~~~~~~~~~~~~~
63.09.06~~~~~~~~~~~~~~~~~~~~~~~~
63.09.09~~~~~~~~~~~~~~~~~~~~~~~~
63.09.12~~~~~~~~~~~~~~~~~~~~~~~~
63.09.15~~~~~~~~~~~~~~~~~~~~~~~~
63.09.18~~~~~~~~~~~~~~~~~~~~~~~~
63.09.21~~~~~~~~~~~~~~~~~~~~~~~~
63.09.24~~~~~~~~~~~~~~~~~~~~~~~~
63.09.27~~~~~~~~~~~~~~~~~~~~~~~~
63.12.03~~~~~~~~~~~~~~~~~~~~~~~~
63.12.06~~~~~~~~~~~~~~~~~~~~~~~~
63.12.09~~~~~~~~~~~~~~~~~~~~~~~~
63.12.12~~~~~~~~~~~~~~~~~~~~~~~~
63.12.15~~~~~~~~~~~~~~~~~~~~~~~~
63.12.18~~~~~~~~~~~~~~~~~~~~~~~~
63.12.21~~~~~~~~~~~~~~~~~~~~~~~~
63.12.24~~~~~~~~~~~~~~~~~~~~~~~~
63.12.27~~~~~~~~~~~~~~~~~~~~~~~~
63.12.30~~~~~~~~~~~~~~~~~~~~~~~~
63.15.12~~~~~~~~~~~~~~~~~~~~~~~~
63.15.15~~~~~~~~~~~~~~~~~~~~~~~~
63.15.18~~~~~~~~~~~~~~~~~~~~~~~~
63.15.21~~~~~~~~~~~~~~~~~~~~~~~~
63.15.24~~~~~~~~~~~~~~~~~~~~~~~~
63.15.27~~~~~~~~~~~~~~~~~~~~~~~~
63.18.12~~~~~~~~~~~~~~~~~~~~~~~~
63.18.15~~~~~~~~~~~~~~~~~~~~~~~~
63.18.18~~~~~~~~~~~~~~~~~~~~~~~~
63.18.21~~~~~~~~~~~~~~~~~~~~~~~~
63.18.24~~~~~~~~~~~~~~~~~~~~~~~~
63.18.27~~~~~~~~~~~~~~~~~~~~~~~~
63.21.27~~~~~~~~~~~~~~~~~~~~~~~~
66.03.03~~~~~~~~~~~~~~~~~~~~~~~~
66.03.06~~~~~~~~~~~~~~~~~~~~~~~~
66.03.09~~~~~~~~~~~~~~~~~~~~~~~~
66.03.12~~~~~~~~~~~~~~~~~~~~~~~~
66.03.15~~~~~~~~~~~~~~~~~~~~~~~~
66.03.18~~~~~~~~~~~~~~~~~~~~~~~~
66.06.03~~~~~~~~~~~~~~~~~~~~~~~~
66.06.06~~~~~~~~~~~~~~~~~~~~~~~~
66.06.09~~~~~~~~~~~~~~~~~~~~~~~~
66.06.12~~~~~~~~~~~~~~~~~~~~~~~~
66.06.15~~~~~~~~~~~~~~~~~~~~~~~~
66.06.18~~~~~~~~~~~~~~~~~~~~~~~~
66.06.21~~~~~~~~~~~~~~~~~~~~~~~~
66.06.24~~~~~~~~~~~~~~~~~~~~~~~~
66.06.27~~~~~~~~~~~~~~~~~~~~~~~~
66.06.30~~~~~~~~~~~~~~~~~~~~~~~~
66.09.12~~~~~~~~~~~~~~~~~~~~~~~~
66.09.15~~~~~~~~~~~~~~~~~~~~~~~~
66.09.18~~~~~~~~~~~~~~~~~~~~~~~~
66.09.21~~~~~~~~~~~~~~~~~~~~~~~~
66.09.24~~~~~~~~~~~~~~~~~~~~~~~~
66.09.27~~~~~~~~~~~~~~~~~~~~~~~~
66.09.30~~~~~~~~~~~~~~~~~~~~~~~~
66.12.03~~~~~~~~~~~~~~~~~~~~~~~~
66.12.06~~~~~~~~~~~~~~~~~~~~~~~~
66.12.09~~~~~~~~~~~~~~~~~~~~~~~~
66.12.12~~~~~~~~~~~~~~~~~~~~~~~~
66.12.15~~~~~~~~~~~~~~~~~~~~~~~~
66.12.18~~~~~~~~~~~~~~~~~~~~~~~~
66.12.21~~~~~~~~~~~~~~~~~~~~~~~~
66.12.24~~~~~~~~~~~~~~~~~~~~~~~~
66.12.27~~~~~~~~~~~~~~~~~~~~~~~~
66.12.30~~~~~~~~~~~~~~~~~~~~~~~~
66.15.09~~~~~~~~~~~~~~~~~~~~~~~~
66.15.12~~~~~~~~~~~~~~~~~~~~~~~~
66.15.15~~~~~~~~~~~~~~~~~~~~~~~~
66.15.18~~~~~~~~~~~~~~~~~~~~~~~~
66.15.21~~~~~~~~~~~~~~~~~~~~~~~~
66.15.24~~~~~~~~~~~~~~~~~~~~~~~~
66.15.27~~~~~~~~~~~~~~~~~~~~~~~~
66.15.30~~~~~~~~~~~~~~~~~~~~~~~~
66.18.12~~~~~~~~~~~~~~~~~~~~~~~~
66.18.15~~~~~~~~~~~~~~~~~~~~~~~~
66.18.18~~~~~~~~~~~~~~~~~~~~~~~~
66.18.21~~~~~~~~~~~~~~~~~~~~~~~~
66.18.24~~~~~~~~~~~~~~~~~~~~~~~~
66.18.27~~~~~~~~~~~~~~~~~~~~~~~~
69.03.03~~~~~~~~~~~~~~~~~~~~~~~~
69.03.06~~~~~~~~~~~~~~~~~~~~~~~~
69.03.09~~~~~~~~~~~~~~~~~~~~~~~~
69.03.12~~~~~~~~~~~~~~~~~~~~~~~~
69.03.15~~~~~~~~~~~~~~~~~~~~~~~~
69.03.18~~~~~~~~~~~~~~~~~~~~~~~~
69.03.21~~~~~~~~~~~~~~~~~~~~~~~~
69.03.24~~~~~~~~~~~~~~~~~~~~~~~~
69.03.27~~~~~~~~~~~~~~~~~~~~~~~~
69.03.30~~~~~~~~~~~~~~~~~~~~~~~~
69.06.09~~~~~~~~~~~~~~~~~~~~~~~~
69.06.12~~~~~~~~~~~~~~~~~~~~~~~~
69.06.15~~~~~~~~~~~~~~~~~~~~~~~~
69.06.18~~~~~~~~~~~~~~~~~~~~~~~~
69.06.21~~~~~~~~~~~~~~~~~~~~~~~~
69.06.24~~~~~~~~~~~~~~~~~~~~~~~~
69.06.27~~~~~~~~~~~~~~~~~~~~~~~~
69.06.30~~~~~~~~~~~~~~~~~~~~~~~~
69.06.33~~~~~~~~~~~~~~~~~~~~~~~~
69.06.36~~~~~~~~~~~~~~~~~~~~~~~~
69.09.12~~~~~~~~~~~~~~~~~~~~~~~~
69.09.15~~~~~~~~~~~~~~~~~~~~~~~~
69.09.18~~~~~~~~~~~~~~~~~~~~~~~~
69.09.21~~~~~~~~~~~~~~~~~~~~~~~~
69.09.24~~~~~~~~~~~~~~~~~~~~~~~~
69.09.27~~~~~~~~~~~~~~~~~~~~~~~~
69.09.30~~~~~~~~~~~~~~~~~~~~~~~~
69.12.06~~~~~~~~~~~~~~~~~~~~~~~~
69.12.09~~~~~~~~~~~~~~~~~~~~~~~~
69.12.12~~~~~~~~~~~~~~~~~~~~~~~~
69.12.15~~~~~~~~~~~~~~~~~~~~~~~~
69.12.18~~~~~~~~~~~~~~~~~~~~~~~~
69.12.21~~~~~~~~~~~~~~~~~~~~~~~~
69.12.24~~~~~~~~~~~~~~~~~~~~~~~~
69.12.27~~~~~~~~~~~~~~~~~~~~~~~~
69.12.30~~~~~~~~~~~~~~~~~~~~~~~~
69.15.06~~~~~~~~~~~~~~~~~~~~~~~~
69.15.09~~~~~~~~~~~~~~~~~~~~~~~~
69.15.12~~~~~~~~~~~~~~~~~~~~~~~~
69.15.15~~~~~~~~~~~~~~~~~~~~~~~~
69.15.18~~~~~~~~~~~~~~~~~~~~~~~~
69.15.21~~~~~~~~~~~~~~~~~~~~~~~~
69.15.24~~~~~~~~~~~~~~~~~~~~~~~~
69.15.27~~~~~~~~~~~~~~~~~~~~~~~~
69.18.03~~~~~~~~~~~~~~~~~~~~~~~~
69.18.06~~~~~~~~~~~~~~~~~~~~~~~~
69.18.09~~~~~~~~~~~~~~~~~~~~~~~~
69.18.12~~~~~~~~~~~~~~~~~~~~~~~~
69.18.15~~~~~~~~~~~~~~~~~~~~~~~~
69.18.18~~~~~~~~~~~~~~~~~~~~~~~~
69.18.21~~~~~~~~~~~~~~~~~~~~~~~~
69.18.24~~~~~~~~~~~~~~~~~~~~~~~~
69.18.27~~~~~~~~~~~~~~~~~~~~~~~~
69.21.09~~~~~~~~~~~~~~~~~~~~~~~~
69.21.12~~~~~~~~~~~~~~~~~~~~~~~~
69.21.15~~~~~~~~~~~~~~~~~~~~~~~~
69.21.18~~~~~~~~~~~~~~~~~~~~~~~~
69.21.21~~~~~~~~~~~~~~~~~~~~~~~~
69.21.24~~~~~~~~~~~~~~~~~~~~~~~~
69.21.27~~~~~~~~~~~~~~~~~~~~~~~~
69.24.24~~~~~~~~~~~~~~~~~~~~~~~~
72.06.24~~~~~~~~~~~~~~~~~~~~~~~~
72.06.27~~~~~~~~~~~~~~~~~~~~~~~~
72.06.30~~~~~~~~~~~~~~~~~~~~~~~~
72.09.03~~~~~~~~~~~~~~~~~~~~~~~~
72.09.06~~~~~~~~~~~~~~~~~~~~~~~~
72.09.09~~~~~~~~~~~~~~~~~~~~~~~~
72.09.12~~~~~~~~~~~~~~~~~~~~~~~~
72.09.15~~~~~~~~~~~~~~~~~~~~~~~~
72.09.18~~~~~~~~~~~~~~~~~~~~~~~~
72.09.21~~~~~~~~~~~~~~~~~~~~~~~~
72.09.24~~~~~~~~~~~~~~~~~~~~~~~~
72.09.27~~~~~~~~~~~~~~~~~~~~~~~~
72.09.30~~~~~~~~~~~~~~~~~~~~~~~~
72.12.06~~~~~~~~~~~~~~~~~~~~~~~~
72.12.09~~~~~~~~~~~~~~~~~~~~~~~~
72.12.12~~~~~~~~~~~~~~~~~~~~~~~~
72.12.15~~~~~~~~~~~~~~~~~~~~~~~~
72.12.18~~~~~~~~~~~~~~~~~~~~~~~~
72.12.21~~~~~~~~~~~~~~~~~~~~~~~~
72.12.24~~~~~~~~~~~~~~~~~~~~~~~~
72.12.27~~~~~~~~~~~~~~~~~~~~~~~~
72.12.30~~~~~~~~~~~~~~~~~~~~~~~~
72.15.15~~~~~~~~~~~~~~~~~~~~~~~~
72.15.18~~~~~~~~~~~~~~~~~~~~~~~~
72.15.21~~~~~~~~~~~~~~~~~~~~~~~~
72.15.24~~~~~~~~~~~~~~~~~~~~~~~~
72.15.27~~~~~~~~~~~~~~~~~~~~~~~~
72.15.30~~~~~~~~~~~~~~~~~~~~~~~~
72.18.09~~~~~~~~~~~~~~~~~~~~~~~~
72.18.12~~~~~~~~~~~~~~~~~~~~~~~~
72.18.15~~~~~~~~~~~~~~~~~~~~~~~~
72.18.18~~~~~~~~~~~~~~~~~~~~~~~~
72.18.21~~~~~~~~~~~~~~~~~~~~~~~~
72.18.24~~~~~~~~~~~~~~~~~~~~~~~~
72.18.27~~~~~~~~~~~~~~~~~~~~~~~~
72.21.18~~~~~~~~~~~~~~~~~~~~~~~~
72.21.21~~~~~~~~~~~~~~~~~~~~~~~~
72.21.24~~~~~~~~~~~~~~~~~~~~~~~~
75.01.09~~~~~~~~~~~~~~~~~~~~~~~~
75.01.12~~~~~~~~~~~~~~~~~~~~~~~~
75.03.03~~~~~~~~~~~~~~~~~~~~~~~~
75.03.06~~~~~~~~~~~~~~~~~~~~~~~~
75.03.09~~~~~~~~~~~~~~~~~~~~~~~~
75.03.12~~~~~~~~~~~~~~~~~~~~~~~~
75.03.15~~~~~~~~~~~~~~~~~~~~~~~~
75.03.18~~~~~~~~~~~~~~~~~~~~~~~~
75.03.21~~~~~~~~~~~~~~~~~~~~~~~~
75.03.24~~~~~~~~~~~~~~~~~~~~~~~~
75.03.27~~~~~~~~~~~~~~~~~~~~~~~~
75.06.03~~~~~~~~~~~~~~~~~~~~~~~~
75.06.06~~~~~~~~~~~~~~~~~~~~~~~~
75.06.09~~~~~~~~~~~~~~~~~~~~~~~~
75.06.12~~~~~~~~~~~~~~~~~~~~~~~~
75.06.15~~~~~~~~~~~~~~~~~~~~~~~~
75.06.18~~~~~~~~~~~~~~~~~~~~~~~~
75.06.21~~~~~~~~~~~~~~~~~~~~~~~~
75.06.24~~~~~~~~~~~~~~~~~~~~~~~~
75.06.27~~~~~~~~~~~~~~~~~~~~~~~~
75.09.03~~~~~~~~~~~~~~~~~~~~~~~~
75.09.06~~~~~~~~~~~~~~~~~~~~~~~~
75.09.09~~~~~~~~~~~~~~~~~~~~~~~~
75.09.12~~~~~~~~~~~~~~~~~~~~~~~~
75.09.15~~~~~~~~~~~~~~~~~~~~~~~~
75.09.18~~~~~~~~~~~~~~~~~~~~~~~~
75.09.21~~~~~~~~~~~~~~~~~~~~~~~~
75.09.24~~~~~~~~~~~~~~~~~~~~~~~~
75.09.27~~~~~~~~~~~~~~~~~~~~~~~~
75.09.30~~~~~~~~~~~~~~~~~~~~~~~~
75.12.06~~~~~~~~~~~~~~~~~~~~~~~~
75.12.09~~~~~~~~~~~~~~~~~~~~~~~~
75.12.12~~~~~~~~~~~~~~~~~~~~~~~~
75.12.15~~~~~~~~~~~~~~~~~~~~~~~~
75.12.18~~~~~~~~~~~~~~~~~~~~~~~~
75.12.21~~~~~~~~~~~~~~~~~~~~~~~~
75.12.24~~~~~~~~~~~~~~~~~~~~~~~~
75.12.27~~~~~~~~~~~~~~~~~~~~~~~~
75.15.09~~~~~~~~~~~~~~~~~~~~~~~~
75.15.12~~~~~~~~~~~~~~~~~~~~~~~~
75.15.15~~~~~~~~~~~~~~~~~~~~~~~~
75.15.18~~~~~~~~~~~~~~~~~~~~~~~~
75.15.21~~~~~~~~~~~~~~~~~~~~~~~~
75.15.24~~~~~~~~~~~~~~~~~~~~~~~~
75.15.27~~~~~~~~~~~~~~~~~~~~~~~~
75.18.03~~~~~~~~~~~~~~~~~~~~~~~~
75.18.06~~~~~~~~~~~~~~~~~~~~~~~~
75.18.09~~~~~~~~~~~~~~~~~~~~~~~~
75.18.12~~~~~~~~~~~~~~~~~~~~~~~~
75.18.15~~~~~~~~~~~~~~~~~~~~~~~~
75.18.18~~~~~~~~~~~~~~~~~~~~~~~~
75.18.21~~~~~~~~~~~~~~~~~~~~~~~~
75.18.24~~~~~~~~~~~~~~~~~~~~~~~~
75.18.27~~~~~~~~~~~~~~~~~~~~~~~~
75.21.24~~~~~~~~~~~~~~~~~~~~~~~~
78.01.03~~~~~~~~~~~~~~~~~~~~~~~~
78.01.06~~~~~~~~~~~~~~~~~~~~~~~~
78.01.09~~~~~~~~~~~~~~~~~~~~~~~~
78.01.12~~~~~~~~~~~~~~~~~~~~~~~~
78.01.15~~~~~~~~~~~~~~~~~~~~~~~~
78.01.18~~~~~~~~~~~~~~~~~~~~~~~~
78.01.21~~~~~~~~~~~~~~~~~~~~~~~~
78.01.24~~~~~~~~~~~~~~~~~~~~~~~~
78.01.27~~~~~~~~~~~~~~~~~~~~~~~~
78.01.30~~~~~~~~~~~~~~~~~~~~~~~~
78.01.33~~~~~~~~~~~~~~~~~~~~~~~~
78.03.03~~~~~~~~~~~~~~~~~~~~~~~~
78.03.06~~~~~~~~~~~~~~~~~~~~~~~~
78.03.09~~~~~~~~~~~~~~~~~~~~~~~~
78.03.12~~~~~~~~~~~~~~~~~~~~~~~~
78.03.15~~~~~~~~~~~~~~~~~~~~~~~~
78.03.18~~~~~~~~~~~~~~~~~~~~~~~~
78.03.21~~~~~~~~~~~~~~~~~~~~~~~~
78.03.24~~~~~~~~~~~~~~~~~~~~~~~~
78.03.27~~~~~~~~~~~~~~~~~~~~~~~~
78.03.30~~~~~~~~~~~~~~~~~~~~~~~~
78.06.03~~~~~~~~~~~~~~~~~~~~~~~~
78.06.06~~~~~~~~~~~~~~~~~~~~~~~~
78.06.09~~~~~~~~~~~~~~~~~~~~~~~~
78.06.12~~~~~~~~~~~~~~~~~~~~~~~~
78.06.15~~~~~~~~~~~~~~~~~~~~~~~~
78.06.18~~~~~~~~~~~~~~~~~~~~~~~~
78.06.21~~~~~~~~~~~~~~~~~~~~~~~~
78.06.24~~~~~~~~~~~~~~~~~~~~~~~~
78.06.27~~~~~~~~~~~~~~~~~~~~~~~~
78.06.30~~~~~~~~~~~~~~~~~~~~~~~~
78.09.03~~~~~~~~~~~~~~~~~~~~~~~~
78.09.06~~~~~~~~~~~~~~~~~~~~~~~~
78.09.09~~~~~~~~~~~~~~~~~~~~~~~~
78.09.12~~~~~~~~~~~~~~~~~~~~~~~~
78.09.15~~~~~~~~~~~~~~~~~~~~~~~~
78.09.18~~~~~~~~~~~~~~~~~~~~~~~~
78.09.21~~~~~~~~~~~~~~~~~~~~~~~~
78.09.24~~~~~~~~~~~~~~~~~~~~~~~~
78.12.12~~~~~~~~~~~~~~~~~~~~~~~~
78.12.15~~~~~~~~~~~~~~~~~~~~~~~~
78.12.18~~~~~~~~~~~~~~~~~~~~~~~~
78.12.21~~~~~~~~~~~~~~~~~~~~~~~~
78.12.24~~~~~~~~~~~~~~~~~~~~~~~~
78.12.27~~~~~~~~~~~~~~~~~~~~~~~~
78.15.15~~~~~~~~~~~~~~~~~~~~~~~~
78.15.18~~~~~~~~~~~~~~~~~~~~~~~~
78.15.21~~~~~~~~~~~~~~~~~~~~~~~~
78.15.24~~~~~~~~~~~~~~~~~~~~~~~~
78.15.27~~~~~~~~~~~~~~~~~~~~~~~~
78.18.03~~~~~~~~~~~~~~~~~~~~~~~~
78.18.06~~~~~~~~~~~~~~~~~~~~~~~~
78.18.09~~~~~~~~~~~~~~~~~~~~~~~~
78.18.12~~~~~~~~~~~~~~~~~~~~~~~~
78.18.15~~~~~~~~~~~~~~~~~~~~~~~~
78.18.18~~~~~~~~~~~~~~~~~~~~~~~~
78.18.21~~~~~~~~~~~~~~~~~~~~~~~~
78.18.24~~~~~~~~~~~~~~~~~~~~~~~~
81.03.03~~~~~~~~~~~~~~~~~~~~~~~~
81.03.06~~~~~~~~~~~~~~~~~~~~~~~~
81.03.09~~~~~~~~~~~~~~~~~~~~~~~~
81.03.12~~~~~~~~~~~~~~~~~~~~~~~~
81.03.15~~~~~~~~~~~~~~~~~~~~~~~~
81.03.16~~~~~~~~~~~~~~~~~~~~~~~~
81.03.18~~~~~~~~~~~~~~~~~~~~~~~~
81.03.21~~~~~~~~~~~~~~~~~~~~~~~~
81.03.24~~~~~~~~~~~~~~~~~~~~~~~~
81.03.27~~~~~~~~~~~~~~~~~~~~~~~~
81.03.30~~~~~~~~~~~~~~~~~~~~~~~~
81.03.33~~~~~~~~~~~~~~~~~~~~~~~~
81.06.03~~~~~~~~~~~~~~~~~~~~~~~~
81.06.06~~~~~~~~~~~~~~~~~~~~~~~~
81.06.09~~~~~~~~~~~~~~~~~~~~~~~~
81.06.12~~~~~~~~~~~~~~~~~~~~~~~~
81.06.15~~~~~~~~~~~~~~~~~~~~~~~~
81.06.16~~~~~~~~~~~~~~~~~~~~~~~~
81.06.18~~~~~~~~~~~~~~~~~~~~~~~~
81.06.21~~~~~~~~~~~~~~~~~~~~~~~~
81.06.24~~~~~~~~~~~~~~~~~~~~~~~~
81.06.27~~~~~~~~~~~~~~~~~~~~~~~~
81.06.30~~~~~~~~~~~~~~~~~~~~~~~~
81.06.33~~~~~~~~~~~~~~~~~~~~~~~~
81.09.03~~~~~~~~~~~~~~~~~~~~~~~~
81.09.06~~~~~~~~~~~~~~~~~~~~~~~~
81.09.09~~~~~~~~~~~~~~~~~~~~~~~~
81.09.12~~~~~~~~~~~~~~~~~~~~~~~~
81.09.15~~~~~~~~~~~~~~~~~~~~~~~~
81.09.16~~~~~~~~~~~~~~~~~~~~~~~~
81.09.18~~~~~~~~~~~~~~~~~~~~~~~~
81.09.21~~~~~~~~~~~~~~~~~~~~~~~~
81.09.24~~~~~~~~~~~~~~~~~~~~~~~~
81.09.27~~~~~~~~~~~~~~~~~~~~~~~~
81.09.30~~~~~~~~~~~~~~~~~~~~~~~~
81.12.06~~~~~~~~~~~~~~~~~~~~~~~~
81.12.09~~~~~~~~~~~~~~~~~~~~~~~~
81.12.12~~~~~~~~~~~~~~~~~~~~~~~~
81.12.15~~~~~~~~~~~~~~~~~~~~~~~~
81.12.16~~~~~~~~~~~~~~~~~~~~~~~~
81.12.18~~~~~~~~~~~~~~~~~~~~~~~~
81.12.21~~~~~~~~~~~~~~~~~~~~~~~~
81.12.24~~~~~~~~~~~~~~~~~~~~~~~~
81.12.27~~~~~~~~~~~~~~~~~~~~~~~~
81.12.30~~~~~~~~~~~~~~~~~~~~~~~~
81.12.33~~~~~~~~~~~~~~~~~~~~~~~~
81.15.09~~~~~~~~~~~~~~~~~~~~~~~~
81.15.12~~~~~~~~~~~~~~~~~~~~~~~~
81.15.15~~~~~~~~~~~~~~~~~~~~~~~~
81.15.18~~~~~~~~~~~~~~~~~~~~~~~~
81.15.21~~~~~~~~~~~~~~~~~~~~~~~~
81.15.24~~~~~~~~~~~~~~~~~~~~~~~~
81.15.27~~~~~~~~~~~~~~~~~~~~~~~~
81.15.30~~~~~~~~~~~~~~~~~~~~~~~~
81.18.12~~~~~~~~~~~~~~~~~~~~~~~~
81.18.15~~~~~~~~~~~~~~~~~~~~~~~~
81.18.18~~~~~~~~~~~~~~~~~~~~~~~~
81.18.21~~~~~~~~~~~~~~~~~~~~~~~~
81.18.24~~~~~~~~~~~~~~~~~~~~~~~~
81.18.27~~~~~~~~~~~~~~~~~~~~~~~~
81.18.30~~~~~~~~~~~~~~~~~~~~~~~~
81.18.33~~~~~~~~~~~~~~~~~~~~~~~~
84.03.24~~~~~~~~~~~~~~~~~~~~~~~~
84.06.03~~~~~~~~~~~~~~~~~~~~~~~~
84.06.06~~~~~~~~~~~~~~~~~~~~~~~~
84.06.09~~~~~~~~~~~~~~~~~~~~~~~~
84.06.12~~~~~~~~~~~~~~~~~~~~~~~~
84.06.15~~~~~~~~~~~~~~~~~~~~~~~~
84.06.18~~~~~~~~~~~~~~~~~~~~~~~~
84.06.21~~~~~~~~~~~~~~~~~~~~~~~~
84.06.24~~~~~~~~~~~~~~~~~~~~~~~~
84.06.25~~~~~~~~~~~~~~~~~~~~~~~~
84.06.27~~~~~~~~~~~~~~~~~~~~~~~~
84.06.30~~~~~~~~~~~~~~~~~~~~~~~~
84.09.09~~~~~~~~~~~~~~~~~~~~~~~~
84.09.12~~~~~~~~~~~~~~~~~~~~~~~~
84.09.15~~~~~~~~~~~~~~~~~~~~~~~~
84.09.18~~~~~~~~~~~~~~~~~~~~~~~~
84.09.21~~~~~~~~~~~~~~~~~~~~~~~~
84.09.24~~~~~~~~~~~~~~~~~~~~~~~~
84.09.27~~~~~~~~~~~~~~~~~~~~~~~~
84.09.30~~~~~~~~~~~~~~~~~~~~~~~~
84.09.33~~~~~~~~~~~~~~~~~~~~~~~~
84.12.18~~~~~~~~~~~~~~~~~~~~~~~~
84.12.21~~~~~~~~~~~~~~~~~~~~~~~~
84.12.24~~~~~~~~~~~~~~~~~~~~~~~~
84.12.27~~~~~~~~~~~~~~~~~~~~~~~~
84.12.30~~~~~~~~~~~~~~~~~~~~~~~~
84.15.09~~~~~~~~~~~~~~~~~~~~~~~~
84.15.12~~~~~~~~~~~~~~~~~~~~~~~~
84.15.15~~~~~~~~~~~~~~~~~~~~~~~~
84.15.18~~~~~~~~~~~~~~~~~~~~~~~~
84.15.21~~~~~~~~~~~~~~~~~~~~~~~~
84.15.24~~~~~~~~~~~~~~~~~~~~~~~~
84.15.27~~~~~~~~~~~~~~~~~~~~~~~~
84.15.30~~~~~~~~~~~~~~~~~~~~~~~~
84.18.09~~~~~~~~~~~~~~~~~~~~~~~~
84.18.12~~~~~~~~~~~~~~~~~~~~~~~~
84.18.15~~~~~~~~~~~~~~~~~~~~~~~~
84.18.18~~~~~~~~~~~~~~~~~~~~~~~~
84.18.21~~~~~~~~~~~~~~~~~~~~~~~~
84.18.24~~~~~~~~~~~~~~~~~~~~~~~~
84.18.27~~~~~~~~~~~~~~~~~~~~~~~~
84.21.03~~~~~~~~~~~~~~~~~~~~~~~~
84.21.06~~~~~~~~~~~~~~~~~~~~~~~~
84.21.09~~~~~~~~~~~~~~~~~~~~~~~~
84.21.12~~~~~~~~~~~~~~~~~~~~~~~~
84.21.15~~~~~~~~~~~~~~~~~~~~~~~~
84.21.18~~~~~~~~~~~~~~~~~~~~~~~~
84.21.21~~~~~~~~~~~~~~~~~~~~~~~~
84.21.24~~~~~~~~~~~~~~~~~~~~~~~~
84.21.27~~~~~~~~~~~~~~~~~~~~~~~~
84.21.30~~~~~~~~~~~~~~~~~~~~~~~~
87.03.03~~~~~~~~~~~~~~~~~~~~~~~~
87.03.06~~~~~~~~~~~~~~~~~~~~~~~~
87.03.09~~~~~~~~~~~~~~~~~~~~~~~~
87.03.12~~~~~~~~~~~~~~~~~~~~~~~~
87.03.15~~~~~~~~~~~~~~~~~~~~~~~~
87.03.18~~~~~~~~~~~~~~~~~~~~~~~~
87.03.21~~~~~~~~~~~~~~~~~~~~~~~~
87.03.24~~~~~~~~~~~~~~~~~~~~~~~~
87.03.27~~~~~~~~~~~~~~~~~~~~~~~~
87.03.30~~~~~~~~~~~~~~~~~~~~~~~~
87.06.03~~~~~~~~~~~~~~~~~~~~~~~~
87.06.06~~~~~~~~~~~~~~~~~~~~~~~~
87.06.09~~~~~~~~~~~~~~~~~~~~~~~~
87.06.12~~~~~~~~~~~~~~~~~~~~~~~~
87.06.15~~~~~~~~~~~~~~~~~~~~~~~~
87.06.18~~~~~~~~~~~~~~~~~~~~~~~~
87.06.21~~~~~~~~~~~~~~~~~~~~~~~~
87.06.24~~~~~~~~~~~~~~~~~~~~~~~~
87.09.03~~~~~~~~~~~~~~~~~~~~~~~~
87.09.06~~~~~~~~~~~~~~~~~~~~~~~~
87.09.09~~~~~~~~~~~~~~~~~~~~~~~~
87.09.12~~~~~~~~~~~~~~~~~~~~~~~~
87.09.15~~~~~~~~~~~~~~~~~~~~~~~~
87.09.18~~~~~~~~~~~~~~~~~~~~~~~~
87.09.21~~~~~~~~~~~~~~~~~~~~~~~~
87.09.24~~~~~~~~~~~~~~~~~~~~~~~~
87.09.27~~~~~~~~~~~~~~~~~~~~~~~~
87.12.09~~~~~~~~~~~~~~~~~~~~~~~~
87.12.12~~~~~~~~~~~~~~~~~~~~~~~~
87.12.15~~~~~~~~~~~~~~~~~~~~~~~~
87.12.18~~~~~~~~~~~~~~~~~~~~~~~~
87.12.21~~~~~~~~~~~~~~~~~~~~~~~~
87.12.24~~~~~~~~~~~~~~~~~~~~~~~~
87.12.27~~~~~~~~~~~~~~~~~~~~~~~~
87.15.03~~~~~~~~~~~~~~~~~~~~~~~~
87.15.06~~~~~~~~~~~~~~~~~~~~~~~~
87.15.09~~~~~~~~~~~~~~~~~~~~~~~~
87.15.12~~~~~~~~~~~~~~~~~~~~~~~~
87.15.15~~~~~~~~~~~~~~~~~~~~~~~~
87.15.18~~~~~~~~~~~~~~~~~~~~~~~~
87.15.21~~~~~~~~~~~~~~~~~~~~~~~~
87.18.15~~~~~~~~~~~~~~~~~~~~~~~~
87.18.18~~~~~~~~~~~~~~~~~~~~~~~~
90.03.06~~~~~~~~~~~~~~~~~~~~~~~~
90.03.09~~~~~~~~~~~~~~~~~~~~~~~~
90.03.15~~~~~~~~~~~~~~~~~~~~~~~~
90.03.18~~~~~~~~~~~~~~~~~~~~~~~~
90.03.19~~~~~~~~~~~~~~~~~~~~~~~~
90.03.21~~~~~~~~~~~~~~~~~~~~~~~~
90.03.24~~~~~~~~~~~~~~~~~~~~~~~~
90.03.27~~~~~~~~~~~~~~~~~~~~~~~~
90.03.30~~~~~~~~~~~~~~~~~~~~~~~~
90.06.03~~~~~~~~~~~~~~~~~~~~~~~~
90.06.06~~~~~~~~~~~~~~~~~~~~~~~~
90.06.09~~~~~~~~~~~~~~~~~~~~~~~~
90.06.12~~~~~~~~~~~~~~~~~~~~~~~~
90.06.15~~~~~~~~~~~~~~~~~~~~~~~~
90.06.18~~~~~~~~~~~~~~~~~~~~~~~~
90.06.21~~~~~~~~~~~~~~~~~~~~~~~~
90.06.24~~~~~~~~~~~~~~~~~~~~~~~~
90.06.27~~~~~~~~~~~~~~~~~~~~~~~~
90.06.30~~~~~~~~~~~~~~~~~~~~~~~~
90.06.33~~~~~~~~~~~~~~~~~~~~~~~~
90.09.03~~~~~~~~~~~~~~~~~~~~~~~~
90.09.06~~~~~~~~~~~~~~~~~~~~~~~~
90.09.09~~~~~~~~~~~~~~~~~~~~~~~~
90.09.12~~~~~~~~~~~~~~~~~~~~~~~~
90.09.15~~~~~~~~~~~~~~~~~~~~~~~~
90.09.18~~~~~~~~~~~~~~~~~~~~~~~~
90.09.21~~~~~~~~~~~~~~~~~~~~~~~~
90.09.24~~~~~~~~~~~~~~~~~~~~~~~~
90.09.27~~~~~~~~~~~~~~~~~~~~~~~~
90.12.06~~~~~~~~~~~~~~~~~~~~~~~~
90.12.09~~~~~~~~~~~~~~~~~~~~~~~~
90.12.12~~~~~~~~~~~~~~~~~~~~~~~~
90.12.15~~~~~~~~~~~~~~~~~~~~~~~~
90.12.18~~~~~~~~~~~~~~~~~~~~~~~~
90.12.21~~~~~~~~~~~~~~~~~~~~~~~~
90.12.24~~~~~~~~~~~~~~~~~~~~~~~~
90.15.06~~~~~~~~~~~~~~~~~~~~~~~~
90.15.09~~~~~~~~~~~~~~~~~~~~~~~~
90.15.12~~~~~~~~~~~~~~~~~~~~~~~~
90.15.15~~~~~~~~~~~~~~~~~~~~~~~~
90.18.12~~~~~~~~~~~~~~~~~~~~~~~~
93.03.03~~~~~~~~~~~~~~~~~~~~~~~~
93.03.06~~~~~~~~~~~~~~~~~~~~~~~~
93.03.09~~~~~~~~~~~~~~~~~~~~~~~~
93.03.12~~~~~~~~~~~~~~~~~~~~~~~~
93.03.15~~~~~~~~~~~~~~~~~~~~~~~~
93.03.18~~~~~~~~~~~~~~~~~~~~~~~~
93.03.21~~~~~~~~~~~~~~~~~~~~~~~~
93.03.24~~~~~~~~~~~~~~~~~~~~~~~~
93.03.27~~~~~~~~~~~~~~~~~~~~~~~~
93.03.30~~~~~~~~~~~~~~~~~~~~~~~~
93.03.33~~~~~~~~~~~~~~~~~~~~~~~~
93.06.06~~~~~~~~~~~~~~~~~~~~~~~~
93.06.09~~~~~~~~~~~~~~~~~~~~~~~~
93.06.12~~~~~~~~~~~~~~~~~~~~~~~~
93.06.15~~~~~~~~~~~~~~~~~~~~~~~~
93.06.18~~~~~~~~~~~~~~~~~~~~~~~~
93.06.21~~~~~~~~~~~~~~~~~~~~~~~~
93.06.24~~~~~~~~~~~~~~~~~~~~~~~~
93.06.27~~~~~~~~~~~~~~~~~~~~~~~~
93.06.30~~~~~~~~~~~~~~~~~~~~~~~~
93.06.33~~~~~~~~~~~~~~~~~~~~~~~~
93.09.12~~~~~~~~~~~~~~~~~~~~~~~~
93.09.15~~~~~~~~~~~~~~~~~~~~~~~~
93.09.18~~~~~~~~~~~~~~~~~~~~~~~~
93.09.21~~~~~~~~~~~~~~~~~~~~~~~~
93.09.24~~~~~~~~~~~~~~~~~~~~~~~~
93.09.27~~~~~~~~~~~~~~~~~~~~~~~~
93.09.30~~~~~~~~~~~~~~~~~~~~~~~~
93.09.33~~~~~~~~~~~~~~~~~~~~~~~~
93.12.12~~~~~~~~~~~~~~~~~~~~~~~~
93.12.15~~~~~~~~~~~~~~~~~~~~~~~~
93.12.18~~~~~~~~~~~~~~~~~~~~~~~~
93.12.21~~~~~~~~~~~~~~~~~~~~~~~~
93.12.24~~~~~~~~~~~~~~~~~~~~~~~~
93.12.27~~~~~~~~~~~~~~~~~~~~~~~~
93.15.06~~~~~~~~~~~~~~~~~~~~~~~~
93.15.09~~~~~~~~~~~~~~~~~~~~~~~~
93.15.12~~~~~~~~~~~~~~~~~~~~~~~~
93.15.15~~~~~~~~~~~~~~~~~~~~~~~~
93.15.18~~~~~~~~~~~~~~~~~~~~~~~~
93.15.21~~~~~~~~~~~~~~~~~~~~~~~~
93.15.24~~~~~~~~~~~~~~~~~~~~~~~~
93.18.15~~~~~~~~~~~~~~~~~~~~~~~~
93.18.18~~~~~~~~~~~~~~~~~~~~~~~~
96.09.03~~~~~~~~~~~~~~~~~~~~~~~~
96.09.06~~~~~~~~~~~~~~~~~~~~~~~~
96.09.09~~~~~~~~~~~~~~~~~~~~~~~~
96.09.12~~~~~~~~~~~~~~~~~~~~~~~~
96.09.15~~~~~~~~~~~~~~~~~~~~~~~~
96.09.18~~~~~~~~~~~~~~~~~~~~~~~~
96.09.21~~~~~~~~~~~~~~~~~~~~~~~~
96.09.24~~~~~~~~~~~~~~~~~~~~~~~~
96.12.01~~~~~~~~~~~~~~~~~~~~~~~~
96.12.02~~~~~~~~~~~~~~~~~~~~~~~~
96.12.03~~~~~~~~~~~~~~~~~~~~~~~~
96.12.06~~~~~~~~~~~~~~~~~~~~~~~~
96.12.09~~~~~~~~~~~~~~~~~~~~~~~~
96.12.12~~~~~~~~~~~~~~~~~~~~~~~~
96.12.15~~~~~~~~~~~~~~~~~~~~~~~~
96.12.18~~~~~~~~~~~~~~~~~~~~~~~~
96.12.21~~~~~~~~~~~~~~~~~~~~~~~~
96.15.06~~~~~~~~~~~~~~~~~~~~~~~~
96.15.09~~~~~~~~~~~~~~~~~~~~~~~~
96.15.12~~~~~~~~~~~~~~~~~~~~~~~~
96.15.15~~~~~~~~~~~~~~~~~~~~~~~~
96.15.18~~~~~~~~~~~~~~~~~~~~~~~~
96.18.01~~~~~~~~~~~~~~~~~~~~~~~~
96.18.02~~~~~~~~~~~~~~~~~~~~~~~~
96.18.03~~~~~~~~~~~~~~~~~~~~~~~~
96.18.06~~~~~~~~~~~~~~~~~~~~~~~~
96.18.09~~~~~~~~~~~~~~~~~~~~~~~~
96.18.12~~~~~~~~~~~~~~~~~~~~~~~~
96.18.15~~~~~~~~~~~~~~~~~~~~~~~~
96.18.18~~~~~~~~~~~~~~~~~~~~~~~~
96.21.06~~~~~~~~~~~~~~~~~~~~~~~~
96.21.09~~~~~~~~~~~~~~~~~~~~~~~~
96.21.12~~~~~~~~~~~~~~~~~~~~~~~~
96.21.15~~~~~~~~~~~~~~~~~~~~~~~~
96.24.09~~~~~~~~~~~~~~~~~~~~~~~~
96.24.12~~~~~~~~~~~~~~~~~~~~~~~~
99.00.03~~~~~~~~~~~~~~~~~~~~~~~~
99.00.06~~~~~~~~~~~~~~~~~~~~~~~~
99.00.09~~~~~~~~~~~~~~~~~~~~~~~~
99.00.12~~~~~~~~~~~~~~~~~~~~~~~~
99.00.15~~~~~~~~~~~~~~~~~~~~~~~~
99.00.18~~~~~~~~~~~~~~~~~~~~~~~~
99.00.21~~~~~~~~~~~~~~~~~~~~~~~~
99.00.24~~~~~~~~~~~~~~~~~~~~~~~~
99.00.27~~~~~~~~~~~~~~~~~~~~~~~~
99.00.30~~~~~~~~~~~~~~~~~~~~~~~~
99.00.33~~~~~~~~~~~~~~~~~~~~~~~~
99.00.36~~~~~~~~~~~~~~~~~~~~~~~~
99.00.39~~~~~~~~~~~~~~~~~~~~~~~~
99.00.42~~~~~~~~~~~~~~~~~~~~~~~~
99.00.45~~~~~~~~~~~~~~~~~~~~~~~~
99.00.48~~~~~~~~~~~~~~~~~~~~~~~~
99.00.51~~~~~~~~~~~~~~~~~~~~~~~~
99.00.54~~~~~~~~~~~~~~~~~~~~~~~~
99.00.57~~~~~~~~~~~~~~~~~~~~~~~~
99.00.60~~~~~~~~~~~~~~~~~~~~~~~~
99.00.63~~~~~~~~~~~~~~~~~~~~~~~~
99.00.66~~~~~~~~~~~~~~~~~~~~~~~~
99.00.69~~~~~~~~~~~~~~~~~~~~~~~~