RAL CLASSIC~~~~~~~~~~~~~~~~~~~~~
213~~~~~~~~~~~~~~~~~~~~~~~~~~~~~
1~~~~~~~~~~~~~~~~~~~~~~~~~~~~~~~
2018-12-21~~~~~~~~~~~~~~~~~~~~~~
cielab~~~~~~~~~~~~~~~~~~~~~~~~~~
7625,-84,2955~~~~~~~~~~~~~~~~~~~
7409,610,2745~~~~~~~~~~~~~~~~~~~
7331,702,3994~~~~~~~~~~~~~~~~~~~
7793,1589,8945~~~~~~~~~~~~~~~~~~
7252,1335,8126~~~~~~~~~~~~~~~~~~
6680,1042,7350~~~~~~~~~~~~~~~~~~
6971,1873,8287~~~~~~~~~~~~~~~~~~
6990,2340,8269~~~~~~~~~~~~~~~~~~
5923,1135,3386~~~~~~~~~~~~~~~~~~
7606,259,6995~~~~~~~~~~~~~~~~~~~
8565,52,1283~~~~~~~~~~~~~~~~~~~~
7997,192,2842~~~~~~~~~~~~~~~~~~~
8430,224,1925~~~~~~~~~~~~~~~~~~~
8867,-809,7572~~~~~~~~~~~~~~~~~~
7724,1843,6073~~~~~~~~~~~~~~~~~~
8533,-90,8014~~~~~~~~~~~~~~~~~~~
6093,493,1476~~~~~~~~~~~~~~~~~~~
6029,-65,2784~~~~~~~~~~~~~~~~~~~
8078,516,10246~~~~~~~~~~~~~~~~~~
8054,661,10007~~~~~~~~~~~~~~~~~~
6459,568,4565~~~~~~~~~~~~~~~~~~~
9901,-1569,11603~~~~~~~~~~~~~~~~
5837,354,5515~~~~~~~~~~~~~~~~~~~
7703,2804,10073~~~~~~~~~~~~~~~~~
7367,1044,7983~~~~~~~~~~~~~~~~~~
7473,2476,7968~~~~~~~~~~~~~~~~~~
7359,2036,5685~~~~~~~~~~~~~~~~~~
5989,168,1750~~~~~~~~~~~~~~~~~~~
5211,604,2872~~~~~~~~~~~~~~~~~~~
7277,2243,8379~~~~~~~~~~~~~~~~~~
6234,3721,6603~~~~~~~~~~~~~~~~~~
5040,4494,4398~~~~~~~~~~~~~~~~~~
4862,5396,4259~~~~~~~~~~~~~~~~~~
6758,4491,6547~~~~~~~~~~~~~~~~~~
5897,5390,5951~~~~~~~~~~~~~~~~~~
7099,8570,6721~~~~~~~~~~~~~~~~~~
8757,5491,9179~~~~~~~~~~~~~~~~~~
6358,4764,6427~~~~~~~~~~~~~~~~~~
5783,5166,6071~~~~~~~~~~~~~~~~~~
5711,4312,5213~~~~~~~~~~~~~~~~~~
6340,4097,6336~~~~~~~~~~~~~~~~~~
5903,4422,3877~~~~~~~~~~~~~~~~~~
4038,4350,2801~~~~~~~~~~~~~~~~~~
4191,4828,3299~~~~~~~~~~~~~~~~~~
3857,4588,3085~~~~~~~~~~~~~~~~~~
3831,4582,3083~~~~~~~~~~~~~~~~~~
3146,3793,2670~~~~~~~~~~~~~~~~~~
2857,2686,1558~~~~~~~~~~~~~~~~~~
2564,2077,1086~~~~~~~~~~~~~~~~~~
2415,800,423~~~~~~~~~~~~~~~~~~~~
3306,2344,1632~~~~~~~~~~~~~~~~~~
3260,3462,2102~~~~~~~~~~~~~~~~~~
6307,2400,2451~~~~~~~~~~~~~~~~~~
4043,4352,2847~~~~~~~~~~~~~~~~~~
5914,4027,1776~~~~~~~~~~~~~~~~~~
7115,2418,766~~~~~~~~~~~~~~~~~~~
4452,4392,3145~~~~~~~~~~~~~~~~~~
5455,5091,2464~~~~~~~~~~~~~~~~~~
5031,5584,2850~~~~~~~~~~~~~~~~~~
4436,5707,4389~~~~~~~~~~~~~~~~~~
5879,4106,3588~~~~~~~~~~~~~~~~~~
5946,8028,6334~~~~~~~~~~~~~~~~~~
6070,8171,6453~~~~~~~~~~~~~~~~~~
4121,5306,2594~~~~~~~~~~~~~~~~~~
4926,5968,4377~~~~~~~~~~~~~~~~~~
4334,4723,2596~~~~~~~~~~~~~~~~~~
2844,3180,1908~~~~~~~~~~~~~~~~~~
4285,4243,3076~~~~~~~~~~~~~~~~~~
4437,2076,-1238~~~~~~~~~~~~~~~~~
3986,3418,1080~~~~~~~~~~~~~~~~~~
5452,4846,-162~~~~~~~~~~~~~~~~~~
2594,2604,454~~~~~~~~~~~~~~~~~~~
4527,1589,-2509~~~~~~~~~~~~~~~~~
3813,4400,-1050~~~~~~~~~~~~~~~~~
2531,1333,-406~~~~~~~~~~~~~~~~~~
4064,3377,-1786~~~~~~~~~~~~~~~~~
5698,1263,-217~~~~~~~~~~~~~~~~~~
4787,5486,306~~~~~~~~~~~~~~~~~~~
4631,1379,-1181~~~~~~~~~~~~~~~~~
5072,374,-450~~~~~~~~~~~~~~~~~~~
3199,-257,-2377~~~~~~~~~~~~~~~~~
2968,-608,-2226~~~~~~~~~~~~~~~~~
2432,841,-4439~~~~~~~~~~~~~~~~~~
2384,-26,-2085~~~~~~~~~~~~~~~~~~
2041,-79,-524~~~~~~~~~~~~~~~~~~~
2959,-186,-4530~~~~~~~~~~~~~~~~~
4012,-681,-2706~~~~~~~~~~~~~~~~~
2769,-405,-658~~~~~~~~~~~~~~~~~~
3503,-861,-2536~~~~~~~~~~~~~~~~~
2837,-77,-4063~~~~~~~~~~~~~~~~~~
2327,-98,-1195~~~~~~~~~~~~~~~~~~
4735,-1201,-4055~~~~~~~~~~~~~~~~
2347,181,-2137~~~~~~~~~~~~~~~~~~
4880,-233,-1825~~~~~~~~~~~~~~~~~
4225,-1022,-4651~~~~~~~~~~~~~~~~
3137,-546,-4606~~~~~~~~~~~~~~~~~
5001,-2174,-1571~~~~~~~~~~~~~~~~
3364,-730,-3466~~~~~~~~~~~~~~~~~
2687,-945,-1524~~~~~~~~~~~~~~~~~
4117,-2514,-1864~~~~~~~~~~~~~~~~
2235,794,-2818~~~~~~~~~~~~~~~~~~
4180,-352,-2616~~~~~~~~~~~~~~~~~
5544,-926,-2257~~~~~~~~~~~~~~~~~
4140,-1440,-1852~~~~~~~~~~~~~~~~
2512,-53,-2338~~~~~~~~~~~~~~~~~~
4482,-2222,80~~~~~~~~~~~~~~~~~~~
4078,-2693,1825~~~~~~~~~~~~~~~~~
3721,-2107,1764~~~~~~~~~~~~~~~~~
3744,-674,1291~~~~~~~~~~~~~~~~~~
2855,-1264,-660~~~~~~~~~~~~~~~~~
2863,-1559,137~~~~~~~~~~~~~~~~~~
3006,-142,573~~~~~~~~~~~~~~~~~~~
2635,-559,633~~~~~~~~~~~~~~~~~~~
2625,-318,732~~~~~~~~~~~~~~~~~~~
2660,-665,403~~~~~~~~~~~~~~~~~~~
4412,-2336,2365~~~~~~~~~~~~~~~~~
5082,-1510,1717~~~~~~~~~~~~~~~~~
2809,-593,-19~~~~~~~~~~~~~~~~~~~
5045,-444,1815~~~~~~~~~~~~~~~~~~
3069,-17,882~~~~~~~~~~~~~~~~~~~~
2838,-150,421~~~~~~~~~~~~~~~~~~~
3899,-3043,251~~~~~~~~~~~~~~~~~~
5060,-2819,2825~~~~~~~~~~~~~~~~~
5833,-3651,3756~~~~~~~~~~~~~~~~~
7888,-1568,1570~~~~~~~~~~~~~~~~~
3235,-896,831~~~~~~~~~~~~~~~~~~~
6160,-1567,1702~~~~~~~~~~~~~~~~~
2770,88,809~~~~~~~~~~~~~~~~~~~~~
4849,-3915,1164~~~~~~~~~~~~~~~~~
4550,-1796,2527~~~~~~~~~~~~~~~~~
3483,-2512,-482~~~~~~~~~~~~~~~~~
6887,-2111,-682~~~~~~~~~~~~~~~~~
3521,-1422,407~~~~~~~~~~~~~~~~~~
4085,-3542,1044~~~~~~~~~~~~~~~~~
4732,-3484,1211~~~~~~~~~~~~~~~~~
5085,-2169,-589~~~~~~~~~~~~~~~~~
6442,-1448,-929~~~~~~~~~~~~~~~~~
3369,-2008,1165~~~~~~~~~~~~~~~~~
3844,-2320,110~~~~~~~~~~~~~~~~~~
5130,-4705,2920~~~~~~~~~~~~~~~~~
5674,-6731,3083~~~~~~~~~~~~~~~~~
5473,-326,-564~~~~~~~~~~~~~~~~~~
6004,-257,-376~~~~~~~~~~~~~~~~~~
5273,-67,1247~~~~~~~~~~~~~~~~~~~
5022,-205,817~~~~~~~~~~~~~~~~~~~
6286,62,-35~~~~~~~~~~~~~~~~~~~~~
4734,-189,192~~~~~~~~~~~~~~~~~~~
4643,168,1019~~~~~~~~~~~~~~~~~~~
4471,301,2111~~~~~~~~~~~~~~~~~~~
4047,-321,543~~~~~~~~~~~~~~~~~~~
3969,-186,282~~~~~~~~~~~~~~~~~~~
3789,-223,-256~~~~~~~~~~~~~~~~~~
4101,-182,-195~~~~~~~~~~~~~~~~~~
3674,-16,941~~~~~~~~~~~~~~~~~~~~
3705,0,-376~~~~~~~~~~~~~~~~~~~~~
3004,-224,-292~~~~~~~~~~~~~~~~~~
2687,-99,-24~~~~~~~~~~~~~~~~~~~~
3509,-87,405~~~~~~~~~~~~~~~~~~~~
5315,-117,609~~~~~~~~~~~~~~~~~~~
3292,-108,-301~~~~~~~~~~~~~~~~~~
3086,-427,-245~~~~~~~~~~~~~~~~~~
5861,0,530~~~~~~~~~~~~~~~~~~~~~~
4408,-362,-503~~~~~~~~~~~~~~~~~~
7040,-151,1037~~~~~~~~~~~~~~~~~~
5400,-385,814~~~~~~~~~~~~~~~~~~~
5825,-36,1582~~~~~~~~~~~~~~~~~~~
7854,-103,206~~~~~~~~~~~~~~~~~~~
6069,209,127~~~~~~~~~~~~~~~~~~~~
5234,-51,77~~~~~~~~~~~~~~~~~~~~~
7094,-105,326~~~~~~~~~~~~~~~~~~~
4546,7,593~~~~~~~~~~~~~~~~~~~~~~
6351,-84,-318~~~~~~~~~~~~~~~~~~~
5953,-146,-64~~~~~~~~~~~~~~~~~~~
3755,-99,57~~~~~~~~~~~~~~~~~~~~~
7186,-51,635~~~~~~~~~~~~~~~~~~~~
5930,-92,-304~~~~~~~~~~~~~~~~~~~
5433,-123,-340~~~~~~~~~~~~~~~~~~
7842,65,90~~~~~~~~~~~~~~~~~~~~~~
5708,119,1220~~~~~~~~~~~~~~~~~~~
4965,670,2908~~~~~~~~~~~~~~~~~~~
5102,1619,3829~~~~~~~~~~~~~~~~~~
4069,1692,1718~~~~~~~~~~~~~~~~~~
4238,1689,2663~~~~~~~~~~~~~~~~~~
4352,2624,2738~~~~~~~~~~~~~~~~~~
3824,1438,2044~~~~~~~~~~~~~~~~~~
3995,1155,2512~~~~~~~~~~~~~~~~~~
3257,1244,1437~~~~~~~~~~~~~~~~~~
3240,2094,1460~~~~~~~~~~~~~~~~~~
3023,647,1098~~~~~~~~~~~~~~~~~~~
3096,1850,1293~~~~~~~~~~~~~~~~~~
2920,1099,959~~~~~~~~~~~~~~~~~~~
2805,789,587~~~~~~~~~~~~~~~~~~~~
2763,163,218~~~~~~~~~~~~~~~~~~~~
2051,25,103~~~~~~~~~~~~~~~~~~~~~
4975,2735,3814~~~~~~~~~~~~~~~~~~
4154,1300,2119~~~~~~~~~~~~~~~~~~
4242,932,1505~~~~~~~~~~~~~~~~~~~
3208,682,1092~~~~~~~~~~~~~~~~~~~
4176,2616,2317~~~~~~~~~~~~~~~~~~
8810,57,862~~~~~~~~~~~~~~~~~~~~~
8360,-45,522~~~~~~~~~~~~~~~~~~~~
9062,-7,165~~~~~~~~~~~~~~~~~~~~~
2426,-64,-67~~~~~~~~~~~~~~~~~~~~
1819,-128,-41~~~~~~~~~~~~~~~~~~~
6808,-78,505~~~~~~~~~~~~~~~~~~~~
5424,53,485~~~~~~~~~~~~~~~~~~~~~
9155,-13,452~~~~~~~~~~~~~~~~~~~~
2147,-122,-137~~~~~~~~~~~~~~~~~~
9220,-34,275~~~~~~~~~~~~~~~~~~~~
2283,-14,80~~~~~~~~~~~~~~~~~~~~~
8010,-136,208~~~~~~~~~~~~~~~~~~~
5940,-84,666~~~~~~~~~~~~~~~~~~~~
5795,-65,640~~~~~~~~~~~~~~~~~~~~
names~~~~~~~~~~~~~~~~~~~~~~~~~~~
RAL 1000~~~~~~~~~~~~~~~~~~~~~~~~
RAL 1001~~~~~~~~~~~~~~~~~~~~~~~~
RAL 1002~~~~~~~~~~~~~~~~~~~~~~~~
RAL 1003~~~~~~~~~~~~~~~~~~~~~~~~
RAL 1004~~~~~~~~~~~~~~~~~~~~~~~~
RAL 1005~~~~~~~~~~~~~~~~~~~~~~~~
RAL 1006~~~~~~~~~~~~~~~~~~~~~~~~
RAL 1007~~~~~~~~~~~~~~~~~~~~~~~~
RAL 1011~~~~~~~~~~~~~~~~~~~~~~~~
RAL 1012~~~~~~~~~~~~~~~~~~~~~~~~
RAL 1013~~~~~~~~~~~~~~~~~~~~~~~~
RAL 1014~~~~~~~~~~~~~~~~~~~~~~~~
RAL 1015~~~~~~~~~~~~~~~~~~~~~~~~
RAL 1016~~~~~~~~~~~~~~~~~~~~~~~~
RAL 1017~~~~~~~~~~~~~~~~~~~~~~~~
RAL 1018~~~~~~~~~~~~~~~~~~~~~~~~
RAL 1019~~~~~~~~~~~~~~~~~~~~~~~~
RAL 1020~~~~~~~~~~~~~~~~~~~~~~~~
RAL 1021~~~~~~~~~~~~~~~~~~~~~~~~
RAL 1023~~~~~~~~~~~~~~~~~~~~~~~~
RAL 1024~~~~~~~~~~~~~~~~~~~~~~~~
RAL 1026~~~~~~~~~~~~~~~~~~~~~~~~
RAL 1027~~~~~~~~~~~~~~~~~~~~~~~~
RAL 1028~~~~~~~~~~~~~~~~~~~~~~~~
RAL 1032~~~~~~~~~~~~~~~~~~~~~~~~
RAL 1033~~~~~~~~~~~~~~~~~~~~~~~~
RAL 1034~~~~~~~~~~~~~~~~~~~~~~~~
RAL 1035~~~~~~~~~~~~~~~~~~~~~~~~
RAL 1036~~~~~~~~~~~~~~~~~~~~~~~~
RAL 1037~~~~~~~~~~~~~~~~~~~~~~~~
RAL 2000~~~~~~~~~~~~~~~~~~~~~~~~
RAL 2001~~~~~~~~~~~~~~~~~~~~~~~~
RAL 2002~~~~~~~~~~~~~~~~~~~~~~~~
RAL 2003~~~~~~~~~~~~~~~~~~~~~~~~
RAL 2004~~~~~~~~~~~~~~~~~~~~~~~~
RAL 2005~~~~~~~~~~~~~~~~~~~~~~~~
RAL 2007~~~~~~~~~~~~~~~~~~~~~~~~
RAL 2008~~~~~~~~~~~~~~~~~~~~~~~~
RAL 2009~~~~~~~~~~~~~~~~~~~~~~~~
RAL 2010~~~~~~~~~~~~~~~~~~~~~~~~
RAL 2011~~~~~~~~~~~~~~~~~~~~~~~~
RAL 2012~~~~~~~~~~~~~~~~~~~~~~~~
RAL 2013~~~~~~~~~~~~~~~~~~~~~~~~
RAL 3000~~~~~~~~~~~~~~~~~~~~~~~~
RAL 3001~~~~~~~~~~~~~~~~~~~~~~~~
RAL 3002~~~~~~~~~~~~~~~~~~~~~~~~
RAL 3003~~~~~~~~~~~~~~~~~~~~~~~~
RAL 3004~~~~~~~~~~~~~~~~~~~~~~~~
RAL 3005~~~~~~~~~~~~~~~~~~~~~~~~
RAL 3007~~~~~~~~~~~~~~~~~~~~~~~~
RAL 3009~~~~~~~~~~~~~~~~~~~~~~~~
RAL 3011~~~~~~~~~~~~~~~~~~~~~~~~
RAL 3012~~~~~~~~~~~~~~~~~~~~~~~~
RAL 3013~~~~~~~~~~~~~~~~~~~~~~~~
RAL 3014~~~~~~~~~~~~~~~~~~~~~~~~
RAL 3015~~~~~~~~~~~~~~~~~~~~~~~~
RAL 3016~~~~~~~~~~~~~~~~~~~~~~~~
RAL 3017~~~~~~~~~~~~~~~~~~~~~~~~
RAL 3018~~~~~~~~~~~~~~~~~~~~~~~~
RAL 3020~~~~~~~~~~~~~~~~~~~~~~~~
RAL 3022~~~~~~~~~~~~~~~~~~~~~~~~
RAL 3024~~~~~~~~~~~~~~~~~~~~~~~~
RAL 3026~~~~~~~~~~~~~~~~~~~~~~~~
RAL 3027~~~~~~~~~~~~~~~~~~~~~~~~
RAL 3028~~~~~~~~~~~~~~~~~~~~~~~~
RAL 3031~~~~~~~~~~~~~~~~~~~~~~~~
RAL 3032~~~~~~~~~~~~~~~~~~~~~~~~
RAL 3033~~~~~~~~~~~~~~~~~~~~~~~~
RAL 4001~~~~~~~~~~~~~~~~~~~~~~~~
RAL 4002~~~~~~~~~~~~~~~~~~~~~~~~
RAL 4003~~~~~~~~~~~~~~~~~~~~~~~~
RAL 4004~~~~~~~~~~~~~~~~~~~~~~~~
RAL 4005~~~~~~~~~~~~~~~~~~~~~~~~
RAL 4006~~~~~~~~~~~~~~~~~~~~~~~~
RAL 4007~~~~~~~~~~~~~~~~~~~~~~~~
RAL 4008~~~~~~~~~~~~~~~~~~~~~~~~
RAL 4009~~~~~~~~~~~~~~~~~~~~~~~~
RAL 4010~~~~~~~~~~~~~~~~~~~~~~~~
RAL 4011~~~~~~~~~~~~~~~~~~~~~~~~
RAL 4012~~~~~~~~~~~~~~~~~~~~~~~~
RAL 5000~~~~~~~~~~~~~~~~~~~~~~~~
RAL 5001~~~~~~~~~~~~~~~~~~~~~~~~
RAL 5002~~~~~~~~~~~~~~~~~~~~~~~~
RAL 5003~~~~~~~~~~~~~~~~~~~~~~~~
RAL 5004~~~~~~~~~~~~~~~~~~~~~~~~
RAL 5005~~~~~~~~~~~~~~~~~~~~~~~~
RAL 5007~~~~~~~~~~~~~~~~~~~~~~~~
RAL 5008~~~~~~~~~~~~~~~~~~~~~~~~
RAL 5009~~~~~~~~~~~~~~~~~~~~~~~~
RAL 5010~~~~~~~~~~~~~~~~~~~~~~~~
RAL 5011~~~~~~~~~~~~~~~~~~~~~~~~
RAL 5012~~~~~~~~~~~~~~~~~~~~~~~~
RAL 5013~~~~~~~~~~~~~~~~~~~~~~~~
RAL 5014~~~~~~~~~~~~~~~~~~~~~~~~
RAL 5015~~~~~~~~~~~~~~~~~~~~~~~~
RAL 5017~~~~~~~~~~~~~~~~~~~~~~~~
RAL 5018~~~~~~~~~~~~~~~~~~~~~~~~
RAL 5019~~~~~~~~~~~~~~~~~~~~~~~~
RAL 5020~~~~~~~~~~~~~~~~~~~~~~~~
RAL 5021~~~~~~~~~~~~~~~~~~~~~~~~
RAL 5022~~~~~~~~~~~~~~~~~~~~~~~~
RAL 5023~~~~~~~~~~~~~~~~~~~~~~~~
RAL 5024~~~~~~~~~~~~~~~~~~~~~~~~
RAL 5025~~~~~~~~~~~~~~~~~~~~~~~~
RAL 5026~~~~~~~~~~~~~~~~~~~~~~~~
RAL 6000~~~~~~~~~~~~~~~~~~~~~~~~
RAL 6001~~~~~~~~~~~~~~~~~~~~~~~~
RAL 6002~~~~~~~~~~~~~~~~~~~~~~~~
RAL 6003~~~~~~~~~~~~~~~~~~~~~~~~
RAL 6004~~~~~~~~~~~~~~~~~~~~~~~~
RAL 6005~~~~~~~~~~~~~~~~~~~~~~~~
RAL 6006~~~~~~~~~~~~~~~~~~~~~~~~
RAL 6007~~~~~~~~~~~~~~~~~~~~~~~~
RAL 6008~~~~~~~~~~~~~~~~~~~~~~~~
RAL 6009~~~~~~~~~~~~~~~~~~~~~~~~
RAL 6010~~~~~~~~~~~~~~~~~~~~~~~~
RAL 6011~~~~~~~~~~~~~~~~~~~~~~~~
RAL 6012~~~~~~~~~~~~~~~~~~~~~~~~
RAL 6013~~~~~~~~~~~~~~~~~~~~~~~~
RAL 6014~~~~~~~~~~~~~~~~~~~~~~~~
RAL 6015~~~~~~~~~~~~~~~~~~~~~~~~
RAL 6016~~~~~~~~~~~~~~~~~~~~~~~~
RAL 6017~~~~~~~~~~~~~~~~~~~~~~~~
RAL 6018~~~~~~~~~~~~~~~~~~~~~~~~
RAL 6019~~~~~~~~~~~~~~~~~~~~~~~~
RAL 6020~~~~~~~~~~~~~~~~~~~~~~~~
RAL 6021~~~~~~~~~~~~~~~~~~~~~~~~
RAL 6022~~~~~~~~~~~~~~~~~~~~~~~~
RAL 6024~~~~~~~~~~~~~~~~~~~~~~~~
RAL 6025~~~~~~~~~~~~~~~~~~~~~~~~
RAL 6026~~~~~~~~~~~~~~~~~~~~~~~~
RAL 6027~~~~~~~~~~~~~~~~~~~~~~~~
RAL 6028~~~~~~~~~~~~~~~~~~~~~~~~
RAL 6029~~~~~~~~~~~~~~~~~~~~~~~~
RAL 6032~~~~~~~~~~~~~~~~~~~~~~~~
RAL 6033~~~~~~~~~~~~~~~~~~~~~~~~
RAL 6034~~~~~~~~~~~~~~~~~~~~~~~~
RAL 6035~~~~~~~~~~~~~~~~~~~~~~~~
RAL 6036~~~~~~~~~~~~~~~~~~~~~~~~
RAL 6037~~~~~~~~~~~~~~~~~~~~~~~~
RAL 6038~~~~~~~~~~~~~~~~~~~~~~~~
RAL 7000~~~~~~~~~~~~~~~~~~~~~~~~
RAL 7001~~~~~~~~~~~~~~~~~~~~~~~~
RAL 7002~~~~~~~~~~~~~~~~~~~~~~~~
RAL 7003~~~~~~~~~~~~~~~~~~~~~~~~
RAL 7004~~~~~~~~~~~~~~~~~~~~~~~~
RAL 7005~~~~~~~~~~~~~~~~~~~~~~~~
RAL 7006~~~~~~~~~~~~~~~~~~~~~~~~
RAL 7008~~~~~~~~~~~~~~~~~~~~~~~~
RAL 7009~~~~~~~~~~~~~~~~~~~~~~~~
RAL 7010~~~~~~~~~~~~~~~~~~~~~~~~
RAL 7011~~~~~~~~~~~~~~~~~~~~~~~~
RAL 7012~~~~~~~~~~~~~~~~~~~~~~~~
RAL 7013~~~~~~~~~~~~~~~~~~~~~~~~
RAL 7015~~~~~~~~~~~~~~~~~~~~~~~~
RAL 7016~~~~~~~~~~~~~~~~~~~~~~~~
RAL 7021~~~~~~~~~~~~~~~~~~~~~~~~
RAL 7022~~~~~~~~~~~~~~~~~~~~~~~~
RAL 7023~~~~~~~~~~~~~~~~~~~~~~~~
RAL 7024~~~~~~~~~~~~~~~~~~~~~~~~
RAL 7026~~~~~~~~~~~~~~~~~~~~~~~~
RAL 7030~~~~~~~~~~~~~~~~~~~~~~~~
RAL 7031~~~~~~~~~~~~~~~~~~~~~~~~
RAL 7032~~~~~~~~~~~~~~~~~~~~~~~~
RAL 7033~~~~~~~~~~~~~~~~~~~~~~~~
RAL 7034~~~~~~~~~~~~~~~~~~~~~~~~
RAL 7035~~~~~~~~~~~~~~~~~~~~~~~~
RAL 7036~~~~~~~~~~~~~~~~~~~~~~~~
RAL 7037~~~~~~~~~~~~~~~~~~~~~~~~
RAL 7038~~~~~~~~~~~~~~~~~~~~~~~~
RAL 7039~~~~~~~~~~~~~~~~~~~~~~~~
RAL 7040~~~~~~~~~~~~~~~~~~~~~~~~
RAL 7042~~~~~~~~~~~~~~~~~~~~~~~~
RAL 7043~~~~~~~~~~~~~~~~~~~~~~~~
RAL 7044~~~~~~~~~~~~~~~~~~~~~~~~
RAL 7045~~~~~~~~~~~~~~~~~~~~~~~~
RAL 7046~~~~~~~~~~~~~~~~~~~~~~~~
RAL 7047~~~~~~~~~~~~~~~~~~~~~~~~
RAL 7048~~~~~~~~~~~~~~~~~~~~~~~~
RAL 8000~~~~~~~~~~~~~~~~~~~~~~~~
RAL 8001~~~~~~~~~~~~~~~~~~~~~~~~
RAL 8002~~~~~~~~~~~~~~~~~~~~~~~~
RAL 8003~~~~~~~~~~~~~~~~~~~~~~~~
RAL 8004~~~~~~~~~~~~~~~~~~~~~~~~
RAL 8007~~~~~~~~~~~~~~~~~~~~~~~~
RAL 8008~~~~~~~~~~~~~~~~~~~~~~~~
RAL 8011~~~~~~~~~~~~~~~~~~~~~~~~
RAL 8012~~~~~~~~~~~~~~~~~~~~~~~~
RAL 8014~~~~~~~~~~~~~~~~~~~~~~~~
RAL 8015~~~~~~~~~~~~~~~~~~~~~~~~
RAL 8016~~~~~~~~~~~~~~~~~~~~~~~~
RAL 8017~~~~~~~~~~~~~~~~~~~~~~~~
RAL 8019~~~~~~~~~~~~~~~~~~~~~~~~
RAL 8022~~~~~~~~~~~~~~~~~~~~~~~~
RAL 8023~~~~~~~~~~~~~~~~~~~~~~~~
RAL 8024~~~~~~~~~~~~~~~~~~~~~~~~
RAL 8025~~~~~~~~~~~~~~~~~~~~~~~~
RAL 8028~~~~~~~~~~~~~~~~~~~~~~~~
RAL 8029~~~~~~~~~~~~~~~~~~~~~~~~
RAL 9001~~~~~~~~~~~~~~~~~~~~~~~~
RAL 9002~~~~~~~~~~~~~~~~~~~~~~~~
RAL 9003~~~~~~~~~~~~~~~~~~~~~~~~
RAL 9004~~~~~~~~~~~~~~~~~~~~~~~~
RAL 9005~~~~~~~~~~~~~~~~~~~~~~~~
RAL 9006~~~~~~~~~~~~~~~~~~~~~~~~
RAL 9007~~~~~~~~~~~~~~~~~~~~~~~~
RAL 9010~~~~~~~~~~~~~~~~~~~~~~~~
RAL 9011~~~~~~~~~~~~~~~~~~~~~~~~
RAL 9016~~~~~~~~~~~~~~~~~~~~~~~~
RAL 9017~~~~~~~~~~~~~~~~~~~~~~~~
RAL 9018~~~~~~~~~~~~~~~~~~~~~~~~
RAL 9022~~~~~~~~~~~~~~~~~~~~~~~~
RAL 9023~~~~~~~~~~~~~~~~~~~~~~~~