UNIK COLORS~~~~~~~~~~~~~~~~~~~~~
1027~~~~~~~~~~~~~~~~~~~~~~~~~~~~
1~~~~~~~~~~~~~~~~~~~~~~~~~~~~~~~
2018-12-21~~~~~~~~~~~~~~~~~~~~~~
cielab~~~~~~~~~~~~~~~~~~~~~~~~~~
9188,106,561~~~~~~~~~~~~~~~~~~~~
8540,13,266~~~~~~~~~~~~~~~~~~~~~
8615,67,149~~~~~~~~~~~~~~~~~~~~~
8210,210,208~~~~~~~~~~~~~~~~~~~~
8952,62,357~~~~~~~~~~~~~~~~~~~~~
8293,60,131~~~~~~~~~~~~~~~~~~~~~
8360,-121,210~~~~~~~~~~~~~~~~~~~
7957,-37,20~~~~~~~~~~~~~~~~~~~~~
8970,395,309~~~~~~~~~~~~~~~~~~~~
8721,265,167~~~~~~~~~~~~~~~~~~~~
9043,312,252~~~~~~~~~~~~~~~~~~~~
8989,442,606~~~~~~~~~~~~~~~~~~~~
8991,-14,182~~~~~~~~~~~~~~~~~~~~
8705,-323,91~~~~~~~~~~~~~~~~~~~~
9006,23,253~~~~~~~~~~~~~~~~~~~~~
8795,-385,-122~~~~~~~~~~~~~~~~~~
9022,-61,168~~~~~~~~~~~~~~~~~~~~
8615,-230,67~~~~~~~~~~~~~~~~~~~~
8923,-121,125~~~~~~~~~~~~~~~~~~~
8065,-419,-215~~~~~~~~~~~~~~~~~~
8878,-291,41~~~~~~~~~~~~~~~~~~~~
9021,-152,223~~~~~~~~~~~~~~~~~~~
8851,-223,175~~~~~~~~~~~~~~~~~~~
8766,-184,340~~~~~~~~~~~~~~~~~~~
9210,-45,776~~~~~~~~~~~~~~~~~~~~
9023,-35,1013~~~~~~~~~~~~~~~~~~~
8971,34,937~~~~~~~~~~~~~~~~~~~~~
8792,62,1305~~~~~~~~~~~~~~~~~~~~
9191,4,915~~~~~~~~~~~~~~~~~~~~~~
8877,79,1274~~~~~~~~~~~~~~~~~~~~
8974,148,1029~~~~~~~~~~~~~~~~~~~
8995,273,1178~~~~~~~~~~~~~~~~~~~
9129,163,986~~~~~~~~~~~~~~~~~~~~
8828,332,557~~~~~~~~~~~~~~~~~~~~
8979,276,680~~~~~~~~~~~~~~~~~~~~
8766,417,881~~~~~~~~~~~~~~~~~~~~
9194,-100,552~~~~~~~~~~~~~~~~~~~
9036,-44,465~~~~~~~~~~~~~~~~~~~~
8954,-205,482~~~~~~~~~~~~~~~~~~~
8520,-20,489~~~~~~~~~~~~~~~~~~~~
9088,-16,1066~~~~~~~~~~~~~~~~~~~
8912,-16,1969~~~~~~~~~~~~~~~~~~~
8960,66,3144~~~~~~~~~~~~~~~~~~~~
8940,51,4047~~~~~~~~~~~~~~~~~~~~
8883,60,5189~~~~~~~~~~~~~~~~~~~~
8711,-34,5941~~~~~~~~~~~~~~~~~~~
8326,366,6977~~~~~~~~~~~~~~~~~~~
9105,3,1356~~~~~~~~~~~~~~~~~~~~~
9056,146,2163~~~~~~~~~~~~~~~~~~~
9010,101,3237~~~~~~~~~~~~~~~~~~~
8801,447,4212~~~~~~~~~~~~~~~~~~~
8829,435,5323~~~~~~~~~~~~~~~~~~~
8670,722,6378~~~~~~~~~~~~~~~~~~~
8127,1117,7237~~~~~~~~~~~~~~~~~~
9163,72,1417~~~~~~~~~~~~~~~~~~~~
9031,266,2116~~~~~~~~~~~~~~~~~~~
8811,690,3324~~~~~~~~~~~~~~~~~~~
8604,1077,3861~~~~~~~~~~~~~~~~~~
8560,1071,5230~~~~~~~~~~~~~~~~~~
8350,1554,5692~~~~~~~~~~~~~~~~~~
7829,1781,6860~~~~~~~~~~~~~~~~~~
9045,251,1268~~~~~~~~~~~~~~~~~~~
8922,447,1735~~~~~~~~~~~~~~~~~~~
8687,884,2687~~~~~~~~~~~~~~~~~~~
8438,1415,3879~~~~~~~~~~~~~~~~~~
8347,1705,5150~~~~~~~~~~~~~~~~~~
8063,2039,5637~~~~~~~~~~~~~~~~~~
7499,2552,6210~~~~~~~~~~~~~~~~~~
8882,494,1003~~~~~~~~~~~~~~~~~~~
8844,740,1310~~~~~~~~~~~~~~~~~~~
8431,1525,2367~~~~~~~~~~~~~~~~~~
8285,2074,3387~~~~~~~~~~~~~~~~~~
7827,2830,3802~~~~~~~~~~~~~~~~~~
7503,3260,4583~~~~~~~~~~~~~~~~~~
6623,3951,4521~~~~~~~~~~~~~~~~~~
8896,488,919~~~~~~~~~~~~~~~~~~~~
8805,938,1232~~~~~~~~~~~~~~~~~~~
8287,1768,1732~~~~~~~~~~~~~~~~~~
8121,2256,2477~~~~~~~~~~~~~~~~~~
7615,3194,3069~~~~~~~~~~~~~~~~~~
7387,3907,3487~~~~~~~~~~~~~~~~~~
6629,4338,3957~~~~~~~~~~~~~~~~~~
8886,509,693~~~~~~~~~~~~~~~~~~~~
8810,878,796~~~~~~~~~~~~~~~~~~~~
8456,1695,1189~~~~~~~~~~~~~~~~~~
7969,2709,1522~~~~~~~~~~~~~~~~~~
7567,3459,1877~~~~~~~~~~~~~~~~~~
7000,4174,2213~~~~~~~~~~~~~~~~~~
6366,4910,3017~~~~~~~~~~~~~~~~~~
8815,518,312~~~~~~~~~~~~~~~~~~~~
8729,990,443~~~~~~~~~~~~~~~~~~~~
8271,1731,387~~~~~~~~~~~~~~~~~~~
7942,2558,524~~~~~~~~~~~~~~~~~~~
7346,3302,735~~~~~~~~~~~~~~~~~~~
6853,4133,874~~~~~~~~~~~~~~~~~~~
6451,4214,1004~~~~~~~~~~~~~~~~~~
8910,397,63~~~~~~~~~~~~~~~~~~~~~
8687,882,27~~~~~~~~~~~~~~~~~~~~~
8367,1648,-180~~~~~~~~~~~~~~~~~~
7771,2299,-380~~~~~~~~~~~~~~~~~~
7555,3228,-563~~~~~~~~~~~~~~~~~~
6803,3082,-660~~~~~~~~~~~~~~~~~~
6348,4026,-715~~~~~~~~~~~~~~~~~~
8786,451,3~~~~~~~~~~~~~~~~~~~~~~
8677,672,-100~~~~~~~~~~~~~~~~~~~
8321,1417,-561~~~~~~~~~~~~~~~~~~
7857,1954,-882~~~~~~~~~~~~~~~~~~
6957,2680,-1171~~~~~~~~~~~~~~~~~
6285,3271,-1500~~~~~~~~~~~~~~~~~
5233,3354,-1723~~~~~~~~~~~~~~~~~
8894,193,70~~~~~~~~~~~~~~~~~~~~~
8753,426,-242~~~~~~~~~~~~~~~~~~~
8146,917,-855~~~~~~~~~~~~~~~~~~~
7562,1378,-1386~~~~~~~~~~~~~~~~~
6753,2053,-2013~~~~~~~~~~~~~~~~~
5194,2616,-2417~~~~~~~~~~~~~~~~~
4282,2462,-2385~~~~~~~~~~~~~~~~~
8934,128,7~~~~~~~~~~~~~~~~~~~~~~
8720,225,-325~~~~~~~~~~~~~~~~~~~
8262,382,-931~~~~~~~~~~~~~~~~~~~
7892,602,-1551~~~~~~~~~~~~~~~~~~
6803,1134,-2485~~~~~~~~~~~~~~~~~
5220,1777,-3278~~~~~~~~~~~~~~~~~
4345,1908,-3429~~~~~~~~~~~~~~~~~
8896,-28,-46~~~~~~~~~~~~~~~~~~~~
8689,-80,-496~~~~~~~~~~~~~~~~~~~
8164,78,-1193~~~~~~~~~~~~~~~~~~~
7930,-17,-1408~~~~~~~~~~~~~~~~~~
6722,352,-2880~~~~~~~~~~~~~~~~~~
5730,449,-3584~~~~~~~~~~~~~~~~~~
5128,576,-3714~~~~~~~~~~~~~~~~~~
8904,-48,-218~~~~~~~~~~~~~~~~~~~
8571,-235,-528~~~~~~~~~~~~~~~~~~
8206,-347,-1282~~~~~~~~~~~~~~~~~
7617,-408,-2103~~~~~~~~~~~~~~~~~
6726,-342,-2978~~~~~~~~~~~~~~~~~
5827,-375,-3932~~~~~~~~~~~~~~~~~
5480,-194,-4134~~~~~~~~~~~~~~~~~
8909,-127,-311~~~~~~~~~~~~~~~~~~
8651,-350,-515~~~~~~~~~~~~~~~~~~
8151,-549,-1254~~~~~~~~~~~~~~~~~
7663,-843,-2089~~~~~~~~~~~~~~~~~
7191,-813,-2760~~~~~~~~~~~~~~~~~
6214,-1037,-3871~~~~~~~~~~~~~~~~
5126,-1145,-4493~~~~~~~~~~~~~~~~
8867,-269,-159~~~~~~~~~~~~~~~~~~
8631,-407,-433~~~~~~~~~~~~~~~~~~
8384,-932,-1011~~~~~~~~~~~~~~~~~
7770,-1272,-1856~~~~~~~~~~~~~~~~
7258,-1546,-2346~~~~~~~~~~~~~~~~
6263,-1734,-3157~~~~~~~~~~~~~~~~
5789,-1872,-4188~~~~~~~~~~~~~~~~
8957,-349,-88~~~~~~~~~~~~~~~~~~~
8608,-585,-459~~~~~~~~~~~~~~~~~~
8241,-1222,-909~~~~~~~~~~~~~~~~~
7751,-1616,-1549~~~~~~~~~~~~~~~~
7373,-2012,-2168~~~~~~~~~~~~~~~~
6416,-2300,-2905~~~~~~~~~~~~~~~~
5604,-2071,-2921~~~~~~~~~~~~~~~~
9002,-343,31~~~~~~~~~~~~~~~~~~~~
8732,-744,-334~~~~~~~~~~~~~~~~~~
8490,-1453,-462~~~~~~~~~~~~~~~~~
8140,-2188,-787~~~~~~~~~~~~~~~~~
7143,-2701,-1376~~~~~~~~~~~~~~~~
6672,-3346,-1535~~~~~~~~~~~~~~~~
5390,-3508,-1692~~~~~~~~~~~~~~~~
8977,-282,249~~~~~~~~~~~~~~~~~~~
8888,-758,173~~~~~~~~~~~~~~~~~~~
8593,-1551,274~~~~~~~~~~~~~~~~~~
8327,-2268,365~~~~~~~~~~~~~~~~~~
7408,-2856,272~~~~~~~~~~~~~~~~~~
6978,-3709,249~~~~~~~~~~~~~~~~~~
6058,-3431,267~~~~~~~~~~~~~~~~~~
9084,-275,413~~~~~~~~~~~~~~~~~~~
8947,-591,575~~~~~~~~~~~~~~~~~~~
8718,-1476,889~~~~~~~~~~~~~~~~~~
8303,-2217,1358~~~~~~~~~~~~~~~~~
8139,-2681,1709~~~~~~~~~~~~~~~~~
7747,-3393,2216~~~~~~~~~~~~~~~~~
7224,-4068,2458~~~~~~~~~~~~~~~~~
9082,-234,566~~~~~~~~~~~~~~~~~~~
9001,-627,1044~~~~~~~~~~~~~~~~~~
8661,-1146,1588~~~~~~~~~~~~~~~~~
8486,-1786,2175~~~~~~~~~~~~~~~~~
8112,-2467,2921~~~~~~~~~~~~~~~~~
7958,-2606,3536~~~~~~~~~~~~~~~~~
7780,-2996,4195~~~~~~~~~~~~~~~~~
9223,-158,854~~~~~~~~~~~~~~~~~~~
9006,-245,1148~~~~~~~~~~~~~~~~~~
9087,-782,2270~~~~~~~~~~~~~~~~~~
8810,-1192,3186~~~~~~~~~~~~~~~~~
8551,-1401,3887~~~~~~~~~~~~~~~~~
8439,-1828,4761~~~~~~~~~~~~~~~~~
8243,-2158,5884~~~~~~~~~~~~~~~~~
9163,-188,759~~~~~~~~~~~~~~~~~~~
9214,-278,1795~~~~~~~~~~~~~~~~~~
9152,-404,2507~~~~~~~~~~~~~~~~~~
9152,-741,3666~~~~~~~~~~~~~~~~~~
8892,-1093,4800~~~~~~~~~~~~~~~~~
8789,-1244,5594~~~~~~~~~~~~~~~~~
8664,-1424,6627~~~~~~~~~~~~~~~~~
9152,-77,1044~~~~~~~~~~~~~~~~~~~
9162,-164,1674~~~~~~~~~~~~~~~~~~
9092,-344,3039~~~~~~~~~~~~~~~~~~
8974,-497,3941~~~~~~~~~~~~~~~~~~
8940,-705,5013~~~~~~~~~~~~~~~~~~
8795,-734,5704~~~~~~~~~~~~~~~~~~
8739,-706,6612~~~~~~~~~~~~~~~~~~
9164,-71,1058~~~~~~~~~~~~~~~~~~~
9080,-99,1733~~~~~~~~~~~~~~~~~~~
9023,-216,3198~~~~~~~~~~~~~~~~~~
9100,-302,4217~~~~~~~~~~~~~~~~~~
8967,-236,5214~~~~~~~~~~~~~~~~~~
8930,-300,5900~~~~~~~~~~~~~~~~~~
8015,-371,6614~~~~~~~~~~~~~~~~~~
8551,-23,1866~~~~~~~~~~~~~~~~~~~
8537,197,2871~~~~~~~~~~~~~~~~~~~
8277,116,4051~~~~~~~~~~~~~~~~~~~
8417,167,5225~~~~~~~~~~~~~~~~~~~
8400,334,6075~~~~~~~~~~~~~~~~~~~
7389,223,4416~~~~~~~~~~~~~~~~~~~
6464,257,3946~~~~~~~~~~~~~~~~~~~
8518,121,1796~~~~~~~~~~~~~~~~~~~
8404,255,2871~~~~~~~~~~~~~~~~~~~
8231,456,4011~~~~~~~~~~~~~~~~~~~
8357,709,5309~~~~~~~~~~~~~~~~~~~
8104,979,5997~~~~~~~~~~~~~~~~~~~
7229,938,5330~~~~~~~~~~~~~~~~~~~
6467,767,3974~~~~~~~~~~~~~~~~~~~
8463,447,1734~~~~~~~~~~~~~~~~~~~
8265,1020,2888~~~~~~~~~~~~~~~~~~
8074,1691,3668~~~~~~~~~~~~~~~~~~
7946,1824,4901~~~~~~~~~~~~~~~~~~
7595,2092,5264~~~~~~~~~~~~~~~~~~
6734,2272,4739~~~~~~~~~~~~~~~~~~
6147,1723,3541~~~~~~~~~~~~~~~~~~
8312,919,1423~~~~~~~~~~~~~~~~~~~
8147,1325,2471~~~~~~~~~~~~~~~~~~
7855,2223,3035~~~~~~~~~~~~~~~~~~
7554,2718,4050~~~~~~~~~~~~~~~~~~
7236,3100,4543~~~~~~~~~~~~~~~~~~
6772,2530,3402~~~~~~~~~~~~~~~~~~
5876,2591,3104~~~~~~~~~~~~~~~~~~
8318,939,1322~~~~~~~~~~~~~~~~~~~
7968,1844,1716~~~~~~~~~~~~~~~~~~
7701,2470,2357~~~~~~~~~~~~~~~~~~
7296,3091,3085~~~~~~~~~~~~~~~~~~
6917,3975,3495~~~~~~~~~~~~~~~~~~
6012,3442,3146~~~~~~~~~~~~~~~~~~
5222,3413,2828~~~~~~~~~~~~~~~~~~
8427,936,675~~~~~~~~~~~~~~~~~~~~
7840,1913,1101~~~~~~~~~~~~~~~~~~
7296,2419,1452~~~~~~~~~~~~~~~~~~
7132,3242,1776~~~~~~~~~~~~~~~~~~
6232,3014,1840~~~~~~~~~~~~~~~~~~
5357,2999,1749~~~~~~~~~~~~~~~~~~
4573,2806,1607~~~~~~~~~~~~~~~~~~
8240,1062,294~~~~~~~~~~~~~~~~~~~
7740,1782,379~~~~~~~~~~~~~~~~~~~
7418,2548,568~~~~~~~~~~~~~~~~~~~
6761,3392,731~~~~~~~~~~~~~~~~~~~
5988,3457,607~~~~~~~~~~~~~~~~~~~
5135,2887,848~~~~~~~~~~~~~~~~~~~
4344,2932,674~~~~~~~~~~~~~~~~~~~
8313,817,-105~~~~~~~~~~~~~~~~~~~
7772,1775,-298~~~~~~~~~~~~~~~~~~
7337,2419,-399~~~~~~~~~~~~~~~~~~
6814,3261,-719~~~~~~~~~~~~~~~~~~
5981,3114,-600~~~~~~~~~~~~~~~~~~
5090,2911,-587~~~~~~~~~~~~~~~~~~
4022,2910,-410~~~~~~~~~~~~~~~~~~
8346,621,-230~~~~~~~~~~~~~~~~~~~
7768,1529,-672~~~~~~~~~~~~~~~~~~
7309,2022,-903~~~~~~~~~~~~~~~~~~
6921,2669,-1231~~~~~~~~~~~~~~~~~
5894,2585,-1380~~~~~~~~~~~~~~~~~
5013,2568,-1286~~~~~~~~~~~~~~~~~
4127,2607,-1261~~~~~~~~~~~~~~~~~
8280,377,-318~~~~~~~~~~~~~~~~~~~
7735,874,-1014~~~~~~~~~~~~~~~~~~
7226,1661,-1416~~~~~~~~~~~~~~~~~
6720,2064,-2120~~~~~~~~~~~~~~~~~
5777,2099,-1917~~~~~~~~~~~~~~~~~
4972,2323,-1951~~~~~~~~~~~~~~~~~
3969,2163,-1955~~~~~~~~~~~~~~~~~
8235,213,-537~~~~~~~~~~~~~~~~~~~
7758,526,-1347~~~~~~~~~~~~~~~~~~
7262,785,-1863~~~~~~~~~~~~~~~~~~
6690,1308,-2663~~~~~~~~~~~~~~~~~
5874,1373,-2715~~~~~~~~~~~~~~~~~
4882,1470,-2557~~~~~~~~~~~~~~~~~
4021,1397,-2480~~~~~~~~~~~~~~~~~
8133,70,-731~~~~~~~~~~~~~~~~~~~~
7674,75,-1617~~~~~~~~~~~~~~~~~~~
7241,146,-2086~~~~~~~~~~~~~~~~~~
5732,550,-3191~~~~~~~~~~~~~~~~~~
4916,488,-3151~~~~~~~~~~~~~~~~~~
4004,574,-3123~~~~~~~~~~~~~~~~~~
2940,616,-2797~~~~~~~~~~~~~~~~~~
8115,-140,-799~~~~~~~~~~~~~~~~~~
7687,-370,-1368~~~~~~~~~~~~~~~~~
7159,-289,-2312~~~~~~~~~~~~~~~~~
5821,-94,-3026~~~~~~~~~~~~~~~~~~
4924,62,-3411~~~~~~~~~~~~~~~~~~~
4110,84,-3061~~~~~~~~~~~~~~~~~~~
3139,94,-3224~~~~~~~~~~~~~~~~~~~
8087,-407,-652~~~~~~~~~~~~~~~~~~
7708,-731,-1487~~~~~~~~~~~~~~~~~
7171,-624,-2055~~~~~~~~~~~~~~~~~
5882,-754,-2760~~~~~~~~~~~~~~~~~
4938,-699,-3141~~~~~~~~~~~~~~~~~
4121,-456,-3241~~~~~~~~~~~~~~~~~
3144,-464,-2846~~~~~~~~~~~~~~~~~
8200,-426,-665~~~~~~~~~~~~~~~~~~
7754,-1113,-1127~~~~~~~~~~~~~~~~
7261,-1244,-1879~~~~~~~~~~~~~~~~
6769,-1562,-2404~~~~~~~~~~~~~~~~
5910,-1242,-2707~~~~~~~~~~~~~~~~
5168,-1225,-2705~~~~~~~~~~~~~~~~
4361,-1233,-2531~~~~~~~~~~~~~~~~
8245,-526,-457~~~~~~~~~~~~~~~~~~
7847,-1198,-1134~~~~~~~~~~~~~~~~
7281,-1631,-1640~~~~~~~~~~~~~~~~
6944,-1995,-2241~~~~~~~~~~~~~~~~
6006,-1694,-2336~~~~~~~~~~~~~~~~
5134,-1802,-2350~~~~~~~~~~~~~~~~
4356,-1606,-2112~~~~~~~~~~~~~~~~
8421,-678,-83~~~~~~~~~~~~~~~~~~~
7861,-1437,-607~~~~~~~~~~~~~~~~~
7485,-2077,-761~~~~~~~~~~~~~~~~~
7204,-2590,-1104~~~~~~~~~~~~~~~~
6288,-2423,-1185~~~~~~~~~~~~~~~~
5427,-2456,-1146~~~~~~~~~~~~~~~~
4648,-2244,-1051~~~~~~~~~~~~~~~~
8314,-822,140~~~~~~~~~~~~~~~~~~~
8050,-1600,262~~~~~~~~~~~~~~~~~~
7792,-2335,272~~~~~~~~~~~~~~~~~~
7449,-2998,275~~~~~~~~~~~~~~~~~~
6441,-2674,185~~~~~~~~~~~~~~~~~~
5510,-2812,362~~~~~~~~~~~~~~~~~~
4714,-2737,215~~~~~~~~~~~~~~~~~~
8335,-733,518~~~~~~~~~~~~~~~~~~~
8137,-1490,939~~~~~~~~~~~~~~~~~~
7761,-2178,1198~~~~~~~~~~~~~~~~~
7441,-2786,1549~~~~~~~~~~~~~~~~~
6492,-2729,1553~~~~~~~~~~~~~~~~~
5672,-2532,1332~~~~~~~~~~~~~~~~~
4929,-2513,1405~~~~~~~~~~~~~~~~~
8507,-661,895~~~~~~~~~~~~~~~~~~~
8243,-1251,1465~~~~~~~~~~~~~~~~~
7783,-1659,1950~~~~~~~~~~~~~~~~~
7812,-2353,2689~~~~~~~~~~~~~~~~~
6691,-2295,2575~~~~~~~~~~~~~~~~~
5973,-2171,2349~~~~~~~~~~~~~~~~~
5115,-2088,2277~~~~~~~~~~~~~~~~~
8630,-525,1386~~~~~~~~~~~~~~~~~~
8426,-917,2294~~~~~~~~~~~~~~~~~~
8078,-1224,3113~~~~~~~~~~~~~~~~~
7926,-1572,3793~~~~~~~~~~~~~~~~~
7053,-1499,3402~~~~~~~~~~~~~~~~~
6286,-1554,3227~~~~~~~~~~~~~~~~~
5393,-1128,2856~~~~~~~~~~~~~~~~~
8574,-263,1437~~~~~~~~~~~~~~~~~~
8547,-674,2577~~~~~~~~~~~~~~~~~~
8345,-840,3492~~~~~~~~~~~~~~~~~~
8116,-1088,4578~~~~~~~~~~~~~~~~~
7248,-869,4192~~~~~~~~~~~~~~~~~~
6348,-890,3491~~~~~~~~~~~~~~~~~~
5521,-875,3500~~~~~~~~~~~~~~~~~~
8600,-42,1807~~~~~~~~~~~~~~~~~~~
8683,-101,2931~~~~~~~~~~~~~~~~~~
8465,-249,4042~~~~~~~~~~~~~~~~~~
8368,-295,4852~~~~~~~~~~~~~~~~~~
8305,-471,6113~~~~~~~~~~~~~~~~~~
7371,-481,4416~~~~~~~~~~~~~~~~~~
6416,-502,3883~~~~~~~~~~~~~~~~~~
7684,-6,1477~~~~~~~~~~~~~~~~~~~~
7492,74,2532~~~~~~~~~~~~~~~~~~~~
7392,127,3418~~~~~~~~~~~~~~~~~~~
6544,122,3097~~~~~~~~~~~~~~~~~~~
5832,234,3118~~~~~~~~~~~~~~~~~~~
4999,308,2830~~~~~~~~~~~~~~~~~~~
4204,182,2514~~~~~~~~~~~~~~~~~~~
7595,185,1563~~~~~~~~~~~~~~~~~~~
7481,362,2419~~~~~~~~~~~~~~~~~~~
7462,473,3735~~~~~~~~~~~~~~~~~~~
6676,561,3096~~~~~~~~~~~~~~~~~~~
5800,634,2925~~~~~~~~~~~~~~~~~~~
5147,717,2574~~~~~~~~~~~~~~~~~~~
4294,748,2245~~~~~~~~~~~~~~~~~~~
7698,488,1853~~~~~~~~~~~~~~~~~~~
7456,905,2671~~~~~~~~~~~~~~~~~~~
7134,1519,3519~~~~~~~~~~~~~~~~~~
6473,1412,3096~~~~~~~~~~~~~~~~~~
5772,1379,2854~~~~~~~~~~~~~~~~~~
4857,1260,2490~~~~~~~~~~~~~~~~~~
4181,1044,2357~~~~~~~~~~~~~~~~~~
7650,755,1438~~~~~~~~~~~~~~~~~~~
7157,1425,2119~~~~~~~~~~~~~~~~~~
6939,2080,3072~~~~~~~~~~~~~~~~~~
6236,1889,2771~~~~~~~~~~~~~~~~~~
5496,1830,2504~~~~~~~~~~~~~~~~~~
4770,1850,2170~~~~~~~~~~~~~~~~~~
3928,1564,2055~~~~~~~~~~~~~~~~~~
7494,898,959~~~~~~~~~~~~~~~~~~~~
7118,1701,1584~~~~~~~~~~~~~~~~~~
6865,2410,2350~~~~~~~~~~~~~~~~~~
5955,2335,2077~~~~~~~~~~~~~~~~~~
5272,2299,1999~~~~~~~~~~~~~~~~~~
4622,2050,1762~~~~~~~~~~~~~~~~~~
4157,2365,2148~~~~~~~~~~~~~~~~~~
7421,926,707~~~~~~~~~~~~~~~~~~~~
7045,1801,1158~~~~~~~~~~~~~~~~~~
6532,2659,1292~~~~~~~~~~~~~~~~~~
5805,2435,1435~~~~~~~~~~~~~~~~~~
5099,2202,1288~~~~~~~~~~~~~~~~~~
4324,2060,1299~~~~~~~~~~~~~~~~~~
3201,2209,1241~~~~~~~~~~~~~~~~~~
7460,871,307~~~~~~~~~~~~~~~~~~~~
6941,1576,403~~~~~~~~~~~~~~~~~~~
6504,2507,514~~~~~~~~~~~~~~~~~~~
5744,2425,570~~~~~~~~~~~~~~~~~~~
4894,2318,476~~~~~~~~~~~~~~~~~~~
4140,2126,553~~~~~~~~~~~~~~~~~~~
3386,2379,1142~~~~~~~~~~~~~~~~~~
7380,821,-102~~~~~~~~~~~~~~~~~~~
6978,1622,-291~~~~~~~~~~~~~~~~~~
6575,2376,-391~~~~~~~~~~~~~~~~~~
5601,2415,-477~~~~~~~~~~~~~~~~~~
4783,2273,-471~~~~~~~~~~~~~~~~~~
4044,2097,-408~~~~~~~~~~~~~~~~~~
2917,2171,537~~~~~~~~~~~~~~~~~~~
7427,575,-510~~~~~~~~~~~~~~~~~~~
6855,1026,-1183~~~~~~~~~~~~~~~~~
6411,1705,-1490~~~~~~~~~~~~~~~~~
5546,1629,-1561~~~~~~~~~~~~~~~~~
4786,1752,-1663~~~~~~~~~~~~~~~~~
3856,1611,-1464~~~~~~~~~~~~~~~~~
2960,1175,-1048~~~~~~~~~~~~~~~~~
7359,222,-626~~~~~~~~~~~~~~~~~~~
6903,606,-1461~~~~~~~~~~~~~~~~~~
6453,887,-1955~~~~~~~~~~~~~~~~~~
5606,869,-2104~~~~~~~~~~~~~~~~~~
4626,982,-2116~~~~~~~~~~~~~~~~~~
3877,1028,-2052~~~~~~~~~~~~~~~~~
2910,828,-1732~~~~~~~~~~~~~~~~~~
7421,114,-1026~~~~~~~~~~~~~~~~~~
6781,220,-1445~~~~~~~~~~~~~~~~~~
6345,273,-2127~~~~~~~~~~~~~~~~~~
5609,370,-2307~~~~~~~~~~~~~~~~~~
4804,297,-2311~~~~~~~~~~~~~~~~~~
4004,495,-2281~~~~~~~~~~~~~~~~~~
2825,401,-2181~~~~~~~~~~~~~~~~~~
7431,-356,-674~~~~~~~~~~~~~~~~~~
6851,-426,-1560~~~~~~~~~~~~~~~~~
6329,-684,-2151~~~~~~~~~~~~~~~~~
5513,-465,-2511~~~~~~~~~~~~~~~~~
4849,-335,-2360~~~~~~~~~~~~~~~~~
4036,-324,-2354~~~~~~~~~~~~~~~~~
3209,-313,-1929~~~~~~~~~~~~~~~~~
7358,-526,-486~~~~~~~~~~~~~~~~~~
6877,-1146,-1167~~~~~~~~~~~~~~~~
6528,-1499,-1722~~~~~~~~~~~~~~~~
5673,-1397,-1672~~~~~~~~~~~~~~~~
4904,-1410,-1750~~~~~~~~~~~~~~~~
4246,-1171,-1585~~~~~~~~~~~~~~~~
3304,-924,-1607~~~~~~~~~~~~~~~~~
7374,-793,-331~~~~~~~~~~~~~~~~~~
6969,-1459,-720~~~~~~~~~~~~~~~~~
6679,-2097,-934~~~~~~~~~~~~~~~~~
5907,-2002,-985~~~~~~~~~~~~~~~~~
5087,-1854,-926~~~~~~~~~~~~~~~~~
4385,-1773,-865~~~~~~~~~~~~~~~~~
3392,-1354,-540~~~~~~~~~~~~~~~~~
7545,-1075,156~~~~~~~~~~~~~~~~~~
7151,-1452,80~~~~~~~~~~~~~~~~~~~
6715,-2266,208~~~~~~~~~~~~~~~~~~
5906,-2142,46~~~~~~~~~~~~~~~~~~~
5128,-1959,48~~~~~~~~~~~~~~~~~~~
4310,-2030,50~~~~~~~~~~~~~~~~~~~
3483,-1698,85~~~~~~~~~~~~~~~~~~~
7583,-778,498~~~~~~~~~~~~~~~~~~~
7201,-1444,775~~~~~~~~~~~~~~~~~~
6847,-2118,1020~~~~~~~~~~~~~~~~~
6172,-2170,1109~~~~~~~~~~~~~~~~~
5280,-2025,932~~~~~~~~~~~~~~~~~~
4563,-2069,914~~~~~~~~~~~~~~~~~~
3711,-1655,879~~~~~~~~~~~~~~~~~~
7492,-627,615~~~~~~~~~~~~~~~~~~~
7307,-1132,1575~~~~~~~~~~~~~~~~~
6967,-1629,1905~~~~~~~~~~~~~~~~~
6169,-1554,1748~~~~~~~~~~~~~~~~~
5420,-1793,1693~~~~~~~~~~~~~~~~~
4653,-1489,1520~~~~~~~~~~~~~~~~~
3947,-1230,1368~~~~~~~~~~~~~~~~~
7727,-421,985~~~~~~~~~~~~~~~~~~~
7393,-967,1959~~~~~~~~~~~~~~~~~~
7320,-1262,2611~~~~~~~~~~~~~~~~~
6468,-1156,2465~~~~~~~~~~~~~~~~~
5521,-1129,2157~~~~~~~~~~~~~~~~~
4851,-790,2036~~~~~~~~~~~~~~~~~~
4109,-901,2104~~~~~~~~~~~~~~~~~~
7701,-455,1365~~~~~~~~~~~~~~~~~~
7590,-612,2360~~~~~~~~~~~~~~~~~~
7340,-742,3034~~~~~~~~~~~~~~~~~~
6570,-867,3149~~~~~~~~~~~~~~~~~~
5875,-849,2942~~~~~~~~~~~~~~~~~~
4987,-621,2166~~~~~~~~~~~~~~~~~~
4138,-536,2130~~~~~~~~~~~~~~~~~~
7730,-43,1591~~~~~~~~~~~~~~~~~~~
7598,-156,2541~~~~~~~~~~~~~~~~~~
7464,-163,3383~~~~~~~~~~~~~~~~~~
6698,-143,3302~~~~~~~~~~~~~~~~~~
5874,-23,2808~~~~~~~~~~~~~~~~~~~
5165,3,2646~~~~~~~~~~~~~~~~~~~~~
4248,250,2222~~~~~~~~~~~~~~~~~~~
6949,39,1728~~~~~~~~~~~~~~~~~~~~
6822,496,2348~~~~~~~~~~~~~~~~~~~
5936,427,2119~~~~~~~~~~~~~~~~~~~
5190,502,1938~~~~~~~~~~~~~~~~~~~
4534,477,1746~~~~~~~~~~~~~~~~~~~
3683,270,1754~~~~~~~~~~~~~~~~~~~
3258,199,898~~~~~~~~~~~~~~~~~~~~
6966,579,1489~~~~~~~~~~~~~~~~~~~
6612,1014,2452~~~~~~~~~~~~~~~~~~
5952,929,2087~~~~~~~~~~~~~~~~~~~
5110,849,2060~~~~~~~~~~~~~~~~~~~
4468,892,1625~~~~~~~~~~~~~~~~~~~
3790,759,1618~~~~~~~~~~~~~~~~~~~
3803,634,1587~~~~~~~~~~~~~~~~~~~
6847,839,1256~~~~~~~~~~~~~~~~~~~
6697,1437,2110~~~~~~~~~~~~~~~~~~
5762,1320,1935~~~~~~~~~~~~~~~~~~
5127,1314,1751~~~~~~~~~~~~~~~~~~
4337,1257,1573~~~~~~~~~~~~~~~~~~
3567,1173,1382~~~~~~~~~~~~~~~~~~
3124,563,847~~~~~~~~~~~~~~~~~~~~
6657,886,856~~~~~~~~~~~~~~~~~~~~
6457,1565,1458~~~~~~~~~~~~~~~~~~
5596,1546,1323~~~~~~~~~~~~~~~~~~
5061,1513,1352~~~~~~~~~~~~~~~~~~
4277,1411,1297~~~~~~~~~~~~~~~~~~
3345,1197,1171~~~~~~~~~~~~~~~~~~
3408,1151,1358~~~~~~~~~~~~~~~~~~
6694,844,591~~~~~~~~~~~~~~~~~~~~
6305,1859,972~~~~~~~~~~~~~~~~~~~
5519,1573,857~~~~~~~~~~~~~~~~~~~
4744,1605,953~~~~~~~~~~~~~~~~~~~
4052,1507,942~~~~~~~~~~~~~~~~~~~
3372,1847,1094~~~~~~~~~~~~~~~~~~
2950,1405,860~~~~~~~~~~~~~~~~~~~
6617,857,140~~~~~~~~~~~~~~~~~~~~
6124,1738,168~~~~~~~~~~~~~~~~~~~
5456,1676,247~~~~~~~~~~~~~~~~~~~
4713,1778,300~~~~~~~~~~~~~~~~~~~
3874,1641,277~~~~~~~~~~~~~~~~~~~
2970,1123,611~~~~~~~~~~~~~~~~~~~
2783,668,512~~~~~~~~~~~~~~~~~~~~
6567,896,-243~~~~~~~~~~~~~~~~~~~
6124,1550,-463~~~~~~~~~~~~~~~~~~
5395,1462,-297~~~~~~~~~~~~~~~~~~
4590,1518,-441~~~~~~~~~~~~~~~~~~
3729,1549,-289~~~~~~~~~~~~~~~~~~
2806,1095,-166~~~~~~~~~~~~~~~~~~
2606,484,-67~~~~~~~~~~~~~~~~~~~~
6648,560,-628~~~~~~~~~~~~~~~~~~~
6125,984,-1017~~~~~~~~~~~~~~~~~~
5470,997,-967~~~~~~~~~~~~~~~~~~~
4603,1039,-1177~~~~~~~~~~~~~~~~~
3747,1090,-953~~~~~~~~~~~~~~~~~~
2882,885,-814~~~~~~~~~~~~~~~~~~~
2765,435,-419~~~~~~~~~~~~~~~~~~~
6645,316,-768~~~~~~~~~~~~~~~~~~~
6004,96,-1415~~~~~~~~~~~~~~~~~~~
5147,218,-1696~~~~~~~~~~~~~~~~~~
4474,297,-1606~~~~~~~~~~~~~~~~~~
3678,302,-1709~~~~~~~~~~~~~~~~~~
2789,139,-1375~~~~~~~~~~~~~~~~~~
2643,33,-796~~~~~~~~~~~~~~~~~~~~
6560,-276,-830~~~~~~~~~~~~~~~~~~
5908,-436,-1557~~~~~~~~~~~~~~~~~
5212,-390,-1607~~~~~~~~~~~~~~~~~
4564,-396,-1528~~~~~~~~~~~~~~~~~
3712,-375,-1622~~~~~~~~~~~~~~~~~
2851,-117,-1379~~~~~~~~~~~~~~~~~
2905,-16,-1273~~~~~~~~~~~~~~~~~~
6518,-594,-575~~~~~~~~~~~~~~~~~~
6122,-993,-1266~~~~~~~~~~~~~~~~~
5414,-984,-1133~~~~~~~~~~~~~~~~~
4637,-895,-1371~~~~~~~~~~~~~~~~~
3856,-848,-1062~~~~~~~~~~~~~~~~~
3128,-483,-1023~~~~~~~~~~~~~~~~~
2898,-287,-373~~~~~~~~~~~~~~~~~~
6549,-688,-356~~~~~~~~~~~~~~~~~~
6182,-1398,-667~~~~~~~~~~~~~~~~~
5473,-1296,-680~~~~~~~~~~~~~~~~~
4873,-1327,-540~~~~~~~~~~~~~~~~~
4058,-1168,-536~~~~~~~~~~~~~~~~~
3055,-1579,-456~~~~~~~~~~~~~~~~~
3094,-1324,-580~~~~~~~~~~~~~~~~~
6805,-763,-76~~~~~~~~~~~~~~~~~~~
6397,-1612,-25~~~~~~~~~~~~~~~~~~
5591,-1401,67~~~~~~~~~~~~~~~~~~~
4888,-1492,18~~~~~~~~~~~~~~~~~~~
4013,-1508,34~~~~~~~~~~~~~~~~~~~
3147,-1192,98~~~~~~~~~~~~~~~~~~~
2926,-589,58~~~~~~~~~~~~~~~~~~~~
6714,-844,396~~~~~~~~~~~~~~~~~~~
6422,-1264,760~~~~~~~~~~~~~~~~~~
5708,-1411,583~~~~~~~~~~~~~~~~~~
4902,-1331,451~~~~~~~~~~~~~~~~~~
4142,-1206,546~~~~~~~~~~~~~~~~~~
3297,-1553,554~~~~~~~~~~~~~~~~~~
3326,-1072,581~~~~~~~~~~~~~~~~~~
6812,-621,668~~~~~~~~~~~~~~~~~~~
6534,-1126,1243~~~~~~~~~~~~~~~~~
5668,-1104,991~~~~~~~~~~~~~~~~~~
5041,-1115,957~~~~~~~~~~~~~~~~~~
4292,-1100,1016~~~~~~~~~~~~~~~~~
3546,-1041,947~~~~~~~~~~~~~~~~~~
3163,-637,629~~~~~~~~~~~~~~~~~~~
6806,-454,923~~~~~~~~~~~~~~~~~~~
6703,-819,1839~~~~~~~~~~~~~~~~~~
5854,-757,1886~~~~~~~~~~~~~~~~~~
5095,-742,1609~~~~~~~~~~~~~~~~~~
4434,-579,1450~~~~~~~~~~~~~~~~~~
3695,-989,1836~~~~~~~~~~~~~~~~~~
3128,-444,763~~~~~~~~~~~~~~~~~~~
6823,-370,1166~~~~~~~~~~~~~~~~~~
6666,-568,2193~~~~~~~~~~~~~~~~~~
6079,-543,2114~~~~~~~~~~~~~~~~~~
5295,-282,1764~~~~~~~~~~~~~~~~~~
4490,-317,1641~~~~~~~~~~~~~~~~~~
3500,-440,1407~~~~~~~~~~~~~~~~~~
3226,-280,836~~~~~~~~~~~~~~~~~~~
6804,-38,1412~~~~~~~~~~~~~~~~~~~
6757,-174,2403~~~~~~~~~~~~~~~~~~
6020,-86,2000~~~~~~~~~~~~~~~~~~~
5298,-44,1792~~~~~~~~~~~~~~~~~~~
4505,20,1691~~~~~~~~~~~~~~~~~~~~
3716,-58,1456~~~~~~~~~~~~~~~~~~~
3338,33,857~~~~~~~~~~~~~~~~~~~~~
7713,122,850~~~~~~~~~~~~~~~~~~~~
6869,177,906~~~~~~~~~~~~~~~~~~~~
6168,174,895~~~~~~~~~~~~~~~~~~~~
5593,238,687~~~~~~~~~~~~~~~~~~~~
4895,269,747~~~~~~~~~~~~~~~~~~~~
4077,214,474~~~~~~~~~~~~~~~~~~~~
3324,162,600~~~~~~~~~~~~~~~~~~~~
7538,424,352~~~~~~~~~~~~~~~~~~~~
6888,535,459~~~~~~~~~~~~~~~~~~~~
6064,460,314~~~~~~~~~~~~~~~~~~~~
5407,400,268~~~~~~~~~~~~~~~~~~~~
4764,393,306~~~~~~~~~~~~~~~~~~~~
3904,390,340~~~~~~~~~~~~~~~~~~~~
3176,346,400~~~~~~~~~~~~~~~~~~~~
7519,530,-43~~~~~~~~~~~~~~~~~~~~
6908,374,-46~~~~~~~~~~~~~~~~~~~~
5991,401,-111~~~~~~~~~~~~~~~~~~~
5444,434,-71~~~~~~~~~~~~~~~~~~~~
4725,505,30~~~~~~~~~~~~~~~~~~~~~
4089,442,35~~~~~~~~~~~~~~~~~~~~~
3223,474,87~~~~~~~~~~~~~~~~~~~~~
7595,300,-406~~~~~~~~~~~~~~~~~~~
6757,321,-501~~~~~~~~~~~~~~~~~~~
5977,255,-426~~~~~~~~~~~~~~~~~~~
5388,211,-388~~~~~~~~~~~~~~~~~~~
4794,292,-379~~~~~~~~~~~~~~~~~~~
3986,218,-304~~~~~~~~~~~~~~~~~~~
2973,224,-228~~~~~~~~~~~~~~~~~~~
7580,-82,-388~~~~~~~~~~~~~~~~~~~
6812,-129,-464~~~~~~~~~~~~~~~~~~
5966,-64,-492~~~~~~~~~~~~~~~~~~~
5282,-6,-453~~~~~~~~~~~~~~~~~~~~
4631,-36,-533~~~~~~~~~~~~~~~~~~~
3959,-23,-505~~~~~~~~~~~~~~~~~~~
3039,-22,-445~~~~~~~~~~~~~~~~~~~
7598,-362,-10~~~~~~~~~~~~~~~~~~~
6654,-483,-61~~~~~~~~~~~~~~~~~~~
6075,-442,-61~~~~~~~~~~~~~~~~~~~
5466,-421,-103~~~~~~~~~~~~~~~~~~
4760,-282,-100~~~~~~~~~~~~~~~~~~
4023,-400,-12~~~~~~~~~~~~~~~~~~~
3023,-404,108~~~~~~~~~~~~~~~~~~~
7711,-386,270~~~~~~~~~~~~~~~~~~~
6843,-417,327~~~~~~~~~~~~~~~~~~~
6117,-459,284~~~~~~~~~~~~~~~~~~~
5350,-422,317~~~~~~~~~~~~~~~~~~~
4740,-431,161~~~~~~~~~~~~~~~~~~~
4021,-455,346~~~~~~~~~~~~~~~~~~~
3113,-393,329~~~~~~~~~~~~~~~~~~~
7626,-327,770~~~~~~~~~~~~~~~~~~~
7087,-133,652~~~~~~~~~~~~~~~~~~~
6104,-159,721~~~~~~~~~~~~~~~~~~~
5550,-172,722~~~~~~~~~~~~~~~~~~~
4842,-87,596~~~~~~~~~~~~~~~~~~~~
4248,-95,579~~~~~~~~~~~~~~~~~~~~
3458,-70,568~~~~~~~~~~~~~~~~~~~~
8558,59,1015~~~~~~~~~~~~~~~~~~~~
7794,29,1004~~~~~~~~~~~~~~~~~~~~
6879,180,1592~~~~~~~~~~~~~~~~~~~
6220,213,1311~~~~~~~~~~~~~~~~~~~
5577,364,1224~~~~~~~~~~~~~~~~~~~
4755,354,1139~~~~~~~~~~~~~~~~~~~
4069,316,1042~~~~~~~~~~~~~~~~~~~
8510,430,786~~~~~~~~~~~~~~~~~~~~
7734,380,715~~~~~~~~~~~~~~~~~~~~
6710,827,1247~~~~~~~~~~~~~~~~~~~
6102,733,1082~~~~~~~~~~~~~~~~~~~
5379,666,1098~~~~~~~~~~~~~~~~~~~
4580,740,1004~~~~~~~~~~~~~~~~~~~
3961,725,1078~~~~~~~~~~~~~~~~~~~
8386,527,407~~~~~~~~~~~~~~~~~~~~
7616,399,209~~~~~~~~~~~~~~~~~~~~
6482,1052,386~~~~~~~~~~~~~~~~~~~
5840,839,558~~~~~~~~~~~~~~~~~~~~
5067,881,545~~~~~~~~~~~~~~~~~~~~
4484,836,627~~~~~~~~~~~~~~~~~~~~
3800,903,663~~~~~~~~~~~~~~~~~~~~
8405,364,-97~~~~~~~~~~~~~~~~~~~~
7521,410,-327~~~~~~~~~~~~~~~~~~~
6510,720,-443~~~~~~~~~~~~~~~~~~~
5846,999,-325~~~~~~~~~~~~~~~~~~~
5201,905,-234~~~~~~~~~~~~~~~~~~~
4321,979,-229~~~~~~~~~~~~~~~~~~~
3727,800,-94~~~~~~~~~~~~~~~~~~~~
8428,54,-377~~~~~~~~~~~~~~~~~~~~
7546,22,-498~~~~~~~~~~~~~~~~~~~~
6602,137,-888~~~~~~~~~~~~~~~~~~~
5784,138,-904~~~~~~~~~~~~~~~~~~~
5108,166,-737~~~~~~~~~~~~~~~~~~~
4437,126,-1016~~~~~~~~~~~~~~~~~~
3636,193,-1031~~~~~~~~~~~~~~~~~~
8433,-94,-289~~~~~~~~~~~~~~~~~~~
7531,-157,-406~~~~~~~~~~~~~~~~~~
6482,-446,-694~~~~~~~~~~~~~~~~~~
5819,-386,-611~~~~~~~~~~~~~~~~~~
5156,-494,-587~~~~~~~~~~~~~~~~~~
4419,-482,-559~~~~~~~~~~~~~~~~~~
3728,-474,-602~~~~~~~~~~~~~~~~~~
8583,-266,292~~~~~~~~~~~~~~~~~~~
7590,-401,106~~~~~~~~~~~~~~~~~~~
6677,-917,274~~~~~~~~~~~~~~~~~~~
5842,-837,-11~~~~~~~~~~~~~~~~~~~
5180,-759,68~~~~~~~~~~~~~~~~~~~~
4488,-833,116~~~~~~~~~~~~~~~~~~~
3810,-614,82~~~~~~~~~~~~~~~~~~~~
8617,-219,589~~~~~~~~~~~~~~~~~~~
7652,-314,497~~~~~~~~~~~~~~~~~~~
6793,-492,795~~~~~~~~~~~~~~~~~~~
5982,-580,623~~~~~~~~~~~~~~~~~~~
5317,-649,536~~~~~~~~~~~~~~~~~~~
4666,-556,642~~~~~~~~~~~~~~~~~~~
3970,-628,653~~~~~~~~~~~~~~~~~~~
8701,-82,874~~~~~~~~~~~~~~~~~~~~
7776,-173,880~~~~~~~~~~~~~~~~~~~
6842,-203,1253~~~~~~~~~~~~~~~~~~
6157,-404,1085~~~~~~~~~~~~~~~~~~
5473,-330,1020~~~~~~~~~~~~~~~~~~
4750,-333,1075~~~~~~~~~~~~~~~~~~
3904,-283,934~~~~~~~~~~~~~~~~~~~
9117,33,704~~~~~~~~~~~~~~~~~~~~~
9039,18,740~~~~~~~~~~~~~~~~~~~~~
8392,29,510~~~~~~~~~~~~~~~~~~~~~
8035,-62,422~~~~~~~~~~~~~~~~~~~~
7312,-71,454~~~~~~~~~~~~~~~~~~~~
5860,-41,416~~~~~~~~~~~~~~~~~~~~
4631,24,265~~~~~~~~~~~~~~~~~~~~~
9056,131,546~~~~~~~~~~~~~~~~~~~~
8996,195,572~~~~~~~~~~~~~~~~~~~~
8685,165,610~~~~~~~~~~~~~~~~~~~~
8144,186,436~~~~~~~~~~~~~~~~~~~~
6583,-19,320~~~~~~~~~~~~~~~~~~~~
5185,-1,184~~~~~~~~~~~~~~~~~~~~~
3870,67,392~~~~~~~~~~~~~~~~~~~~~
9136,167,484~~~~~~~~~~~~~~~~~~~~
9003,257,257~~~~~~~~~~~~~~~~~~~~
8478,296,150~~~~~~~~~~~~~~~~~~~~
8020,209,145~~~~~~~~~~~~~~~~~~~~
6530,186,35~~~~~~~~~~~~~~~~~~~~~
5132,189,46~~~~~~~~~~~~~~~~~~~~~
3848,265,135~~~~~~~~~~~~~~~~~~~~
9116,108,310~~~~~~~~~~~~~~~~~~~~
8930,163,66~~~~~~~~~~~~~~~~~~~~~
8484,165,-163~~~~~~~~~~~~~~~~~~~
8105,188,-87~~~~~~~~~~~~~~~~~~~~
7382,208,52~~~~~~~~~~~~~~~~~~~~~
5863,147,-24~~~~~~~~~~~~~~~~~~~~
4432,257,58~~~~~~~~~~~~~~~~~~~~~
9155,-21,331~~~~~~~~~~~~~~~~~~~~
8964,-99,-27~~~~~~~~~~~~~~~~~~~~
8480,-95,-18~~~~~~~~~~~~~~~~~~~~
8102,-110,-71~~~~~~~~~~~~~~~~~~~
7329,-114,-250~~~~~~~~~~~~~~~~~~
5858,-103,-208~~~~~~~~~~~~~~~~~~
4518,-150,-212~~~~~~~~~~~~~~~~~~
8962,-81,180~~~~~~~~~~~~~~~~~~~~
8890,-147,35~~~~~~~~~~~~~~~~~~~~
8558,-108,28~~~~~~~~~~~~~~~~~~~~
8081,-176,-152~~~~~~~~~~~~~~~~~~
6382,-130,-229~~~~~~~~~~~~~~~~~~
5098,-80,-312~~~~~~~~~~~~~~~~~~~
3662,-124,-179~~~~~~~~~~~~~~~~~~
9074,-8,318~~~~~~~~~~~~~~~~~~~~~
9038,-76,365~~~~~~~~~~~~~~~~~~~~
8535,-67,135~~~~~~~~~~~~~~~~~~~~
7941,-130,70~~~~~~~~~~~~~~~~~~~~
6419,-216,-36~~~~~~~~~~~~~~~~~~~
5128,-174,-42~~~~~~~~~~~~~~~~~~~
3608,-187,49~~~~~~~~~~~~~~~~~~~~
9155,-30,565~~~~~~~~~~~~~~~~~~~~
9042,-50,481~~~~~~~~~~~~~~~~~~~~
8577,-95,388~~~~~~~~~~~~~~~~~~~~
8052,-98,209~~~~~~~~~~~~~~~~~~~~
7273,-196,-46~~~~~~~~~~~~~~~~~~~
5803,-217,18~~~~~~~~~~~~~~~~~~~~
4470,-195,69~~~~~~~~~~~~~~~~~~~~
9062,72,386~~~~~~~~~~~~~~~~~~~~~
7661,20,142~~~~~~~~~~~~~~~~~~~~~
6576,42,107~~~~~~~~~~~~~~~~~~~~~
5570,-33,-49~~~~~~~~~~~~~~~~~~~~
4514,19,-40~~~~~~~~~~~~~~~~~~~~~
3462,4,145~~~~~~~~~~~~~~~~~~~~~~
3577,-78,-376~~~~~~~~~~~~~~~~~~~
8582,90,163~~~~~~~~~~~~~~~~~~~~~
7317,-40,84~~~~~~~~~~~~~~~~~~~~~
6204,-29,-2~~~~~~~~~~~~~~~~~~~~~
5243,-40,35~~~~~~~~~~~~~~~~~~~~~
4297,-5,9~~~~~~~~~~~~~~~~~~~~~~~
3009,-57,100~~~~~~~~~~~~~~~~~~~~
2501,55,139~~~~~~~~~~~~~~~~~~~~~
8199,28,185~~~~~~~~~~~~~~~~~~~~~
7015,21,36~~~~~~~~~~~~~~~~~~~~~~
5934,0,-46~~~~~~~~~~~~~~~~~~~~~~
4987,2,-25~~~~~~~~~~~~~~~~~~~~~~
3976,-15,48~~~~~~~~~~~~~~~~~~~~~
2515,-91,125~~~~~~~~~~~~~~~~~~~~
2471,-67,127~~~~~~~~~~~~~~~~~~~~
8601,248,7014~~~~~~~~~~~~~~~~~~~
8565,61,8554~~~~~~~~~~~~~~~~~~~~
8576,510,9973~~~~~~~~~~~~~~~~~~~
7980,367,8073~~~~~~~~~~~~~~~~~~~
7607,414,8499~~~~~~~~~~~~~~~~~~~
6807,178,7527~~~~~~~~~~~~~~~~~~~
6084,256,5397~~~~~~~~~~~~~~~~~~~
8505,902,7272~~~~~~~~~~~~~~~~~~~
8528,997,8477~~~~~~~~~~~~~~~~~~~
8324,1503,9454~~~~~~~~~~~~~~~~~~
7933,1116,7714~~~~~~~~~~~~~~~~~~
7711,1298,8978~~~~~~~~~~~~~~~~~~
6732,1015,6620~~~~~~~~~~~~~~~~~~
6064,981,5739~~~~~~~~~~~~~~~~~~~
8136,1616,6833~~~~~~~~~~~~~~~~~~
8154,1972,8147~~~~~~~~~~~~~~~~~~
7933,2158,9803~~~~~~~~~~~~~~~~~~
7862,2271,9297~~~~~~~~~~~~~~~~~~
7346,2242,8687~~~~~~~~~~~~~~~~~~
6609,1901,6609~~~~~~~~~~~~~~~~~~
5919,1706,5202~~~~~~~~~~~~~~~~~~
7948,2353,6477~~~~~~~~~~~~~~~~~~
7646,2827,7038~~~~~~~~~~~~~~~~~~
6934,2879,6431~~~~~~~~~~~~~~~~~~
6906,3170,6820~~~~~~~~~~~~~~~~~~
6320,2534,5980~~~~~~~~~~~~~~~~~~
5696,2304,4818~~~~~~~~~~~~~~~~~~
5198,1792,3653~~~~~~~~~~~~~~~~~~
7456,3703,4974~~~~~~~~~~~~~~~~~~
6932,3597,4527~~~~~~~~~~~~~~~~~~
6739,4033,5714~~~~~~~~~~~~~~~~~~
6219,4183,4975~~~~~~~~~~~~~~~~~~
5759,3819,4805~~~~~~~~~~~~~~~~~~
5296,3001,4073~~~~~~~~~~~~~~~~~~
4834,2529,3167~~~~~~~~~~~~~~~~~~
6849,4383,3779~~~~~~~~~~~~~~~~~~
6181,4611,3886~~~~~~~~~~~~~~~~~~
6088,4405,4521~~~~~~~~~~~~~~~~~~
5584,5015,4636~~~~~~~~~~~~~~~~~~
5398,5327,4326~~~~~~~~~~~~~~~~~~
4799,3513,3016~~~~~~~~~~~~~~~~~~
4328,2976,2337~~~~~~~~~~~~~~~~~~
6563,4345,2545~~~~~~~~~~~~~~~~~~
6211,4686,3033~~~~~~~~~~~~~~~~~~
5528,5435,4091~~~~~~~~~~~~~~~~~~
5094,5499,3744~~~~~~~~~~~~~~~~~~
5306,5379,4143~~~~~~~~~~~~~~~~~~
4290,4652,3352~~~~~~~~~~~~~~~~~~
3804,3142,1969~~~~~~~~~~~~~~~~~~
6112,4651,2466~~~~~~~~~~~~~~~~~~
5574,5187,2891~~~~~~~~~~~~~~~~~~
4522,5631,4080~~~~~~~~~~~~~~~~~~
4328,5112,3453~~~~~~~~~~~~~~~~~~
3993,4091,2501~~~~~~~~~~~~~~~~~~
3565,2945,2060~~~~~~~~~~~~~~~~~~
3272,2607,1539~~~~~~~~~~~~~~~~~~
5940,4691,1893~~~~~~~~~~~~~~~~~~
5251,5475,2473~~~~~~~~~~~~~~~~~~
4754,5512,3490~~~~~~~~~~~~~~~~~~
4553,4379,2644~~~~~~~~~~~~~~~~~~
4249,5366,3077~~~~~~~~~~~~~~~~~~
3975,4630,2641~~~~~~~~~~~~~~~~~~
3496,3743,2477~~~~~~~~~~~~~~~~~~
5986,4908,1255~~~~~~~~~~~~~~~~~~
5189,5212,1424~~~~~~~~~~~~~~~~~~
4158,5082,1779~~~~~~~~~~~~~~~~~~
3812,4267,1829~~~~~~~~~~~~~~~~~~
3527,3634,1457~~~~~~~~~~~~~~~~~~
3131,2730,1133~~~~~~~~~~~~~~~~~~
2981,2219,1034~~~~~~~~~~~~~~~~~~
5713,4753,409~~~~~~~~~~~~~~~~~~~
4913,5063,893~~~~~~~~~~~~~~~~~~~
4725,4605,1192~~~~~~~~~~~~~~~~~~
4721,4442,1182~~~~~~~~~~~~~~~~~~
4335,3765,88~~~~~~~~~~~~~~~~~~~~
3515,3194,1589~~~~~~~~~~~~~~~~~~
3161,1866,600~~~~~~~~~~~~~~~~~~~
6318,3950,-613~~~~~~~~~~~~~~~~~~
5599,4738,-517~~~~~~~~~~~~~~~~~~
5319,3880,-496~~~~~~~~~~~~~~~~~~
4658,4379,-296~~~~~~~~~~~~~~~~~~
4351,3681,-547~~~~~~~~~~~~~~~~~~
3612,3703,-324~~~~~~~~~~~~~~~~~~
2844,2319,-56~~~~~~~~~~~~~~~~~~~
6282,3242,-1607~~~~~~~~~~~~~~~~~
5231,3458,-1732~~~~~~~~~~~~~~~~~
4631,3831,-1617~~~~~~~~~~~~~~~~~
4228,3280,-1560~~~~~~~~~~~~~~~~~
3807,3378,-1205~~~~~~~~~~~~~~~~~
3339,2712,-1029~~~~~~~~~~~~~~~~~
3100,1860,-749~~~~~~~~~~~~~~~~~~
6825,1919,-1656~~~~~~~~~~~~~~~~~
5181,2717,-2504~~~~~~~~~~~~~~~~~
4186,2554,-2397~~~~~~~~~~~~~~~~~
3956,2892,-2188~~~~~~~~~~~~~~~~~
3371,2331,-1674~~~~~~~~~~~~~~~~~
3046,1746,-1420~~~~~~~~~~~~~~~~~
3063,1327,-1025~~~~~~~~~~~~~~~~~
6561,1336,-2471~~~~~~~~~~~~~~~~~
5107,1749,-3375~~~~~~~~~~~~~~~~~
4244,1729,-3153~~~~~~~~~~~~~~~~~
3297,1652,-3016~~~~~~~~~~~~~~~~~
3167,1344,-3110~~~~~~~~~~~~~~~~~
3036,1164,-2334~~~~~~~~~~~~~~~~~
2960,650,-1484~~~~~~~~~~~~~~~~~~
5041,604,-3934~~~~~~~~~~~~~~~~~~
4556,1166,-4323~~~~~~~~~~~~~~~~~
4113,819,-3882~~~~~~~~~~~~~~~~~~
3397,1160,-4678~~~~~~~~~~~~~~~~~
3270,851,-3690~~~~~~~~~~~~~~~~~~
2648,918,-3458~~~~~~~~~~~~~~~~~~
2702,723,-2775~~~~~~~~~~~~~~~~~~
5160,-83,-4104~~~~~~~~~~~~~~~~~~
4644,63,-4943~~~~~~~~~~~~~~~~~~~
3635,575,-5362~~~~~~~~~~~~~~~~~~
3343,491,-4923~~~~~~~~~~~~~~~~~~
3044,527,-4604~~~~~~~~~~~~~~~~~~
3174,200,-3953~~~~~~~~~~~~~~~~~~
2806,630,-4361~~~~~~~~~~~~~~~~~~
4710,-944,-4741~~~~~~~~~~~~~~~~~
4168,-674,-5346~~~~~~~~~~~~~~~~~
3726,-444,-4727~~~~~~~~~~~~~~~~~
3242,22,-4929~~~~~~~~~~~~~~~~~~~
3178,35,-4572~~~~~~~~~~~~~~~~~~~
2894,-55,-3771~~~~~~~~~~~~~~~~~~
2746,-55,-2670~~~~~~~~~~~~~~~~~~
4946,-1755,-4363~~~~~~~~~~~~~~~~
4426,-1678,-4131~~~~~~~~~~~~~~~~
4006,-1331,-3767~~~~~~~~~~~~~~~~
3876,-1135,-3318~~~~~~~~~~~~~~~~
3535,-1026,-3353~~~~~~~~~~~~~~~~
3189,-803,-3042~~~~~~~~~~~~~~~~~
3019,-554,-2368~~~~~~~~~~~~~~~~~
5811,-2342,-3192~~~~~~~~~~~~~~~~
5233,-2145,-3186~~~~~~~~~~~~~~~~
4784,-1827,-2797~~~~~~~~~~~~~~~~
4229,-1916,-3145~~~~~~~~~~~~~~~~
3823,-1545,-2814~~~~~~~~~~~~~~~~
3281,-1159,-1956~~~~~~~~~~~~~~~~
3112,-969,-1962~~~~~~~~~~~~~~~~~
5776,-2958,-1322~~~~~~~~~~~~~~~~
5397,-3464,-1633~~~~~~~~~~~~~~~~
5046,-2840,-1357~~~~~~~~~~~~~~~~
4747,-3003,-1338~~~~~~~~~~~~~~~~
4057,-2582,-1283~~~~~~~~~~~~~~~~
3712,-2016,-963~~~~~~~~~~~~~~~~~
3232,-1738,-822~~~~~~~~~~~~~~~~~
6703,-3953,304~~~~~~~~~~~~~~~~~~
5638,-3952,327~~~~~~~~~~~~~~~~~~
5202,-2905,5~~~~~~~~~~~~~~~~~~~~
4597,-3792,194~~~~~~~~~~~~~~~~~~
4159,-2730,42~~~~~~~~~~~~~~~~~~~
3734,-2223,145~~~~~~~~~~~~~~~~~~
3118,-1891,-23~~~~~~~~~~~~~~~~~~
7140,-3379,1853~~~~~~~~~~~~~~~~~
6741,-3771,2126~~~~~~~~~~~~~~~~~
6255,-4368,2372~~~~~~~~~~~~~~~~~
5701,-3718,1783~~~~~~~~~~~~~~~~~
4093,-3084,1514~~~~~~~~~~~~~~~~~
3835,-2657,1249~~~~~~~~~~~~~~~~~
3389,-2010,809~~~~~~~~~~~~~~~~~~
7437,-2768,3440~~~~~~~~~~~~~~~~~
7181,-3007,3941~~~~~~~~~~~~~~~~~
6638,-3425,4626~~~~~~~~~~~~~~~~~
5701,-3194,4006~~~~~~~~~~~~~~~~~
5120,-2692,3257~~~~~~~~~~~~~~~~~
4592,-2223,2410~~~~~~~~~~~~~~~~~
4203,-1752,1845~~~~~~~~~~~~~~~~~
7829,-1862,4518~~~~~~~~~~~~~~~~~
7649,-2048,5395~~~~~~~~~~~~~~~~~
7199,-2509,6213~~~~~~~~~~~~~~~~~
6273,-2483,6016~~~~~~~~~~~~~~~~~
5669,-2021,4639~~~~~~~~~~~~~~~~~
5092,-1291,3347~~~~~~~~~~~~~~~~~
4536,-711,2372~~~~~~~~~~~~~~~~~~
8240,-1262,5579~~~~~~~~~~~~~~~~~
7990,-1385,6404~~~~~~~~~~~~~~~~~
7820,-1740,8459~~~~~~~~~~~~~~~~~
6929,-1323,5841~~~~~~~~~~~~~~~~~
6780,-1083,6382~~~~~~~~~~~~~~~~~
6021,-963,4967~~~~~~~~~~~~~~~~~~
5418,-726,3968~~~~~~~~~~~~~~~~~~
8465,-590,7284~~~~~~~~~~~~~~~~~~
8574,-299,7999~~~~~~~~~~~~~~~~~~
7936,-240,6165~~~~~~~~~~~~~~~~~~
7876,-454,7654~~~~~~~~~~~~~~~~~~
6921,-102,5771~~~~~~~~~~~~~~~~~~
6767,-265,7162~~~~~~~~~~~~~~~~~~
6189,-63,4542~~~~~~~~~~~~~~~~~~~
names~~~~~~~~~~~~~~~~~~~~~~~~~~~
UNIK 001-1 A~~~~~~~~~~~~~~~~~~~~
UNIK 001-2 A~~~~~~~~~~~~~~~~~~~~
UNIK 001-3 A~~~~~~~~~~~~~~~~~~~~
UNIK 001-4 A~~~~~~~~~~~~~~~~~~~~
UNIK 002-1 A~~~~~~~~~~~~~~~~~~~~
UNIK 002-2 A~~~~~~~~~~~~~~~~~~~~
UNIK 002-3 A~~~~~~~~~~~~~~~~~~~~
UNIK 002-4 A~~~~~~~~~~~~~~~~~~~~
UNIK 003-1 A~~~~~~~~~~~~~~~~~~~~
UNIK 003-2 A~~~~~~~~~~~~~~~~~~~~
UNIK 003-3 A~~~~~~~~~~~~~~~~~~~~
UNIK 003-4 A~~~~~~~~~~~~~~~~~~~~
UNIK 004-1 A~~~~~~~~~~~~~~~~~~~~
UNIK 004-2 A~~~~~~~~~~~~~~~~~~~~
UNIK 004-3 A~~~~~~~~~~~~~~~~~~~~
UNIK 004-4 A~~~~~~~~~~~~~~~~~~~~
UNIK 005-1 A~~~~~~~~~~~~~~~~~~~~
UNIK 005-2 A~~~~~~~~~~~~~~~~~~~~
UNIK 005-3 A~~~~~~~~~~~~~~~~~~~~
UNIK 005-4 A~~~~~~~~~~~~~~~~~~~~
UNIK 006-1 A~~~~~~~~~~~~~~~~~~~~
UNIK 006-2 A~~~~~~~~~~~~~~~~~~~~
UNIK 006-3 A~~~~~~~~~~~~~~~~~~~~
UNIK 006-4 A~~~~~~~~~~~~~~~~~~~~
UNIK 007-1 A~~~~~~~~~~~~~~~~~~~~
UNIK 007-2 A~~~~~~~~~~~~~~~~~~~~
UNIK 007-3 A~~~~~~~~~~~~~~~~~~~~
UNIK 007-4 A~~~~~~~~~~~~~~~~~~~~
UNIK 008-1 A~~~~~~~~~~~~~~~~~~~~
UNIK 008-2 A~~~~~~~~~~~~~~~~~~~~
UNIK 008-3 A~~~~~~~~~~~~~~~~~~~~
UNIK 008-4 A~~~~~~~~~~~~~~~~~~~~
UNIK 009-1 A~~~~~~~~~~~~~~~~~~~~
UNIK 009-2 A~~~~~~~~~~~~~~~~~~~~
UNIK 009-3 A~~~~~~~~~~~~~~~~~~~~
UNIK 009-4 A~~~~~~~~~~~~~~~~~~~~
UNIK 010-1 A~~~~~~~~~~~~~~~~~~~~
UNIK 010-2 A~~~~~~~~~~~~~~~~~~~~
UNIK 010-3 A~~~~~~~~~~~~~~~~~~~~
UNIK 010-4 A~~~~~~~~~~~~~~~~~~~~
UNIK 011-1 A~~~~~~~~~~~~~~~~~~~~
UNIK 011-2 A~~~~~~~~~~~~~~~~~~~~
UNIK 011-3 A~~~~~~~~~~~~~~~~~~~~
UNIK 011-4 A~~~~~~~~~~~~~~~~~~~~
UNIK 011-5 B~~~~~~~~~~~~~~~~~~~~
UNIK 011-6 B~~~~~~~~~~~~~~~~~~~~
UNIK 011-7 B~~~~~~~~~~~~~~~~~~~~
UNIK 012-1 A~~~~~~~~~~~~~~~~~~~~
UNIK 012-2 A~~~~~~~~~~~~~~~~~~~~
UNIK 012-3 A~~~~~~~~~~~~~~~~~~~~
UNIK 012-4 A~~~~~~~~~~~~~~~~~~~~
UNIK 012-5 B~~~~~~~~~~~~~~~~~~~~
UNIK 012-6 B~~~~~~~~~~~~~~~~~~~~
UNIK 012-7 B~~~~~~~~~~~~~~~~~~~~
UNIK 013-1 A~~~~~~~~~~~~~~~~~~~~
UNIK 013-2 A~~~~~~~~~~~~~~~~~~~~
UNIK 013-3 A~~~~~~~~~~~~~~~~~~~~
UNIK 013-4 B~~~~~~~~~~~~~~~~~~~~
UNIK 013-5 B~~~~~~~~~~~~~~~~~~~~
UNIK 013-6 B~~~~~~~~~~~~~~~~~~~~
UNIK 013-7 B~~~~~~~~~~~~~~~~~~~~
UNIK 014-1 A~~~~~~~~~~~~~~~~~~~~
UNIK 014-2 A~~~~~~~~~~~~~~~~~~~~
UNIK 014-3 A~~~~~~~~~~~~~~~~~~~~
UNIK 014-4 B~~~~~~~~~~~~~~~~~~~~
UNIK 014-5 B~~~~~~~~~~~~~~~~~~~~
UNIK 014-6 B~~~~~~~~~~~~~~~~~~~~
UNIK 014-7 B~~~~~~~~~~~~~~~~~~~~
UNIK 015-1 A~~~~~~~~~~~~~~~~~~~~
UNIK 015-2 A~~~~~~~~~~~~~~~~~~~~
UNIK 015-3 A~~~~~~~~~~~~~~~~~~~~
UNIK 015-4 A~~~~~~~~~~~~~~~~~~~~
UNIK 015-5 B~~~~~~~~~~~~~~~~~~~~
UNIK 015-6 B~~~~~~~~~~~~~~~~~~~~
UNIK 015-7 D~~~~~~~~~~~~~~~~~~~~
UNIK 016-1 A~~~~~~~~~~~~~~~~~~~~
UNIK 016-2 A~~~~~~~~~~~~~~~~~~~~
UNIK 016-3 A~~~~~~~~~~~~~~~~~~~~
UNIK 016-4 A~~~~~~~~~~~~~~~~~~~~
UNIK 016-5 B~~~~~~~~~~~~~~~~~~~~
UNIK 016-6 B~~~~~~~~~~~~~~~~~~~~
UNIK 016-7 B~~~~~~~~~~~~~~~~~~~~
UNIK 017-1 A~~~~~~~~~~~~~~~~~~~~
UNIK 017-2 A~~~~~~~~~~~~~~~~~~~~
UNIK 017-3 A~~~~~~~~~~~~~~~~~~~~
UNIK 017-4 A~~~~~~~~~~~~~~~~~~~~
UNIK 017-5 B~~~~~~~~~~~~~~~~~~~~
UNIK 017-6 B~~~~~~~~~~~~~~~~~~~~
UNIK 017-7 B~~~~~~~~~~~~~~~~~~~~
UNIK 018-1 A~~~~~~~~~~~~~~~~~~~~
UNIK 018-2 A~~~~~~~~~~~~~~~~~~~~
UNIK 018-3 A~~~~~~~~~~~~~~~~~~~~
UNIK 018-4 A~~~~~~~~~~~~~~~~~~~~
UNIK 018-5 A~~~~~~~~~~~~~~~~~~~~
UNIK 018-6 B~~~~~~~~~~~~~~~~~~~~
UNIK 018-7 B~~~~~~~~~~~~~~~~~~~~
UNIK 019-1 A~~~~~~~~~~~~~~~~~~~~
UNIK 019-2 A~~~~~~~~~~~~~~~~~~~~
UNIK 019-3 A~~~~~~~~~~~~~~~~~~~~
UNIK 019-4 A~~~~~~~~~~~~~~~~~~~~
UNIK 019-5 A~~~~~~~~~~~~~~~~~~~~
UNIK 019-6 A~~~~~~~~~~~~~~~~~~~~
UNIK 019-7 B~~~~~~~~~~~~~~~~~~~~
UNIK 020-1 A~~~~~~~~~~~~~~~~~~~~
UNIK 020-2 A~~~~~~~~~~~~~~~~~~~~
UNIK 020-3 A~~~~~~~~~~~~~~~~~~~~
UNIK 020-4 A~~~~~~~~~~~~~~~~~~~~
UNIK 020-5 A~~~~~~~~~~~~~~~~~~~~
UNIK 020-6 B~~~~~~~~~~~~~~~~~~~~
UNIK 020-7 B~~~~~~~~~~~~~~~~~~~~
UNIK 021-1 A~~~~~~~~~~~~~~~~~~~~
UNIK 021-2 A~~~~~~~~~~~~~~~~~~~~
UNIK 021-3 A~~~~~~~~~~~~~~~~~~~~
UNIK 021-4 A~~~~~~~~~~~~~~~~~~~~
UNIK 021-5 A~~~~~~~~~~~~~~~~~~~~
UNIK 021-6 B~~~~~~~~~~~~~~~~~~~~
UNIK 021-7 C~~~~~~~~~~~~~~~~~~~~
UNIK 022-1 A~~~~~~~~~~~~~~~~~~~~
UNIK 022-2 A~~~~~~~~~~~~~~~~~~~~
UNIK 022-3 A~~~~~~~~~~~~~~~~~~~~
UNIK 022-4 A~~~~~~~~~~~~~~~~~~~~
UNIK 022-5 A~~~~~~~~~~~~~~~~~~~~
UNIK 022-6 C~~~~~~~~~~~~~~~~~~~~
UNIK 022-7 C~~~~~~~~~~~~~~~~~~~~
UNIK 023-1 A~~~~~~~~~~~~~~~~~~~~
UNIK 023-2 A~~~~~~~~~~~~~~~~~~~~
UNIK 023-3 A~~~~~~~~~~~~~~~~~~~~
UNIK 023-4 A~~~~~~~~~~~~~~~~~~~~
UNIK 023-5 A~~~~~~~~~~~~~~~~~~~~
UNIK 023-6 B~~~~~~~~~~~~~~~~~~~~
UNIK 023-7 B~~~~~~~~~~~~~~~~~~~~
UNIK 024-1 A~~~~~~~~~~~~~~~~~~~~
UNIK 024-2 A~~~~~~~~~~~~~~~~~~~~
UNIK 024-3 A~~~~~~~~~~~~~~~~~~~~
UNIK 024-4 A~~~~~~~~~~~~~~~~~~~~
UNIK 024-5 A~~~~~~~~~~~~~~~~~~~~
UNIK 024-6 A~~~~~~~~~~~~~~~~~~~~
UNIK 024-7 B~~~~~~~~~~~~~~~~~~~~
UNIK 025-1 A~~~~~~~~~~~~~~~~~~~~
UNIK 025-2 A~~~~~~~~~~~~~~~~~~~~
UNIK 025-3 A~~~~~~~~~~~~~~~~~~~~
UNIK 025-4 A~~~~~~~~~~~~~~~~~~~~
UNIK 025-5 A~~~~~~~~~~~~~~~~~~~~
UNIK 025-6 A~~~~~~~~~~~~~~~~~~~~
UNIK 025-7 B~~~~~~~~~~~~~~~~~~~~
UNIK 026-1 A~~~~~~~~~~~~~~~~~~~~
UNIK 026-2 A~~~~~~~~~~~~~~~~~~~~
UNIK 026-3 A~~~~~~~~~~~~~~~~~~~~
UNIK 026-4 A~~~~~~~~~~~~~~~~~~~~
UNIK 026-5 A~~~~~~~~~~~~~~~~~~~~
UNIK 026-6 A~~~~~~~~~~~~~~~~~~~~
UNIK 026-7 A~~~~~~~~~~~~~~~~~~~~
UNIK 027-1 A~~~~~~~~~~~~~~~~~~~~
UNIK 027-2 A~~~~~~~~~~~~~~~~~~~~
UNIK 027-3 A~~~~~~~~~~~~~~~~~~~~
UNIK 027-4 A~~~~~~~~~~~~~~~~~~~~
UNIK 027-5 A~~~~~~~~~~~~~~~~~~~~
UNIK 027-6 A~~~~~~~~~~~~~~~~~~~~
UNIK 027-7 B~~~~~~~~~~~~~~~~~~~~
UNIK 028-1 A~~~~~~~~~~~~~~~~~~~~
UNIK 028-2 A~~~~~~~~~~~~~~~~~~~~
UNIK 028-3 A~~~~~~~~~~~~~~~~~~~~
UNIK 028-4 A~~~~~~~~~~~~~~~~~~~~
UNIK 028-5 A~~~~~~~~~~~~~~~~~~~~
UNIK 028-6 A~~~~~~~~~~~~~~~~~~~~
UNIK 028-7 C~~~~~~~~~~~~~~~~~~~~
UNIK 029-1 A~~~~~~~~~~~~~~~~~~~~
UNIK 029-2 A~~~~~~~~~~~~~~~~~~~~
UNIK 029-3 A~~~~~~~~~~~~~~~~~~~~
UNIK 029-4 A~~~~~~~~~~~~~~~~~~~~
UNIK 029-5 A~~~~~~~~~~~~~~~~~~~~
UNIK 029-6 B~~~~~~~~~~~~~~~~~~~~
UNIK 029-7 B~~~~~~~~~~~~~~~~~~~~
UNIK 030-1 A~~~~~~~~~~~~~~~~~~~~
UNIK 030-2 A~~~~~~~~~~~~~~~~~~~~
UNIK 030-3 A~~~~~~~~~~~~~~~~~~~~
UNIK 030-4 A~~~~~~~~~~~~~~~~~~~~
UNIK 030-5 A~~~~~~~~~~~~~~~~~~~~
UNIK 030-6 B~~~~~~~~~~~~~~~~~~~~
UNIK 030-7 B~~~~~~~~~~~~~~~~~~~~
UNIK 031-1 A~~~~~~~~~~~~~~~~~~~~
UNIK 031-2 A~~~~~~~~~~~~~~~~~~~~
UNIK 031-3 A~~~~~~~~~~~~~~~~~~~~
UNIK 031-4 A~~~~~~~~~~~~~~~~~~~~
UNIK 031-5 B~~~~~~~~~~~~~~~~~~~~
UNIK 031-6 B~~~~~~~~~~~~~~~~~~~~
UNIK 031-7 B~~~~~~~~~~~~~~~~~~~~
UNIK 032-1 A~~~~~~~~~~~~~~~~~~~~
UNIK 032-2 A~~~~~~~~~~~~~~~~~~~~
UNIK 032-3 A~~~~~~~~~~~~~~~~~~~~
UNIK 032-4 A~~~~~~~~~~~~~~~~~~~~
UNIK 032-5 B~~~~~~~~~~~~~~~~~~~~
UNIK 032-6 B~~~~~~~~~~~~~~~~~~~~
UNIK 032-7 B~~~~~~~~~~~~~~~~~~~~
UNIK 033-1 A~~~~~~~~~~~~~~~~~~~~
UNIK 033-2 A~~~~~~~~~~~~~~~~~~~~
UNIK 033-3 A~~~~~~~~~~~~~~~~~~~~
UNIK 033-4 A~~~~~~~~~~~~~~~~~~~~
UNIK 033-5 B~~~~~~~~~~~~~~~~~~~~
UNIK 033-6 B~~~~~~~~~~~~~~~~~~~~
UNIK 033-7 B~~~~~~~~~~~~~~~~~~~~
UNIK 034-1 A~~~~~~~~~~~~~~~~~~~~
UNIK 034-2 A~~~~~~~~~~~~~~~~~~~~
UNIK 034-3 A~~~~~~~~~~~~~~~~~~~~
UNIK 034-4 A~~~~~~~~~~~~~~~~~~~~
UNIK 034-5 B~~~~~~~~~~~~~~~~~~~~
UNIK 034-6 B~~~~~~~~~~~~~~~~~~~~
UNIK 034-7 B~~~~~~~~~~~~~~~~~~~~
UNIK 035-1 A~~~~~~~~~~~~~~~~~~~~
UNIK 035-2 A~~~~~~~~~~~~~~~~~~~~
UNIK 035-3 A~~~~~~~~~~~~~~~~~~~~
UNIK 035-4 B~~~~~~~~~~~~~~~~~~~~
UNIK 035-5 B~~~~~~~~~~~~~~~~~~~~
UNIK 035-6 B~~~~~~~~~~~~~~~~~~~~
UNIK 035-7 D~~~~~~~~~~~~~~~~~~~~
UNIK 036-1 A~~~~~~~~~~~~~~~~~~~~
UNIK 036-2 A~~~~~~~~~~~~~~~~~~~~
UNIK 036-3 B~~~~~~~~~~~~~~~~~~~~
UNIK 036-4 B~~~~~~~~~~~~~~~~~~~~
UNIK 036-5 B~~~~~~~~~~~~~~~~~~~~
UNIK 036-6 B~~~~~~~~~~~~~~~~~~~~
UNIK 036-7 C~~~~~~~~~~~~~~~~~~~~
UNIK 037-1 A~~~~~~~~~~~~~~~~~~~~
UNIK 037-2 A~~~~~~~~~~~~~~~~~~~~
UNIK 037-3 B~~~~~~~~~~~~~~~~~~~~
UNIK 037-4 B~~~~~~~~~~~~~~~~~~~~
UNIK 037-5 B~~~~~~~~~~~~~~~~~~~~
UNIK 037-6 C~~~~~~~~~~~~~~~~~~~~
UNIK 037-7 C~~~~~~~~~~~~~~~~~~~~
UNIK 038-1 A~~~~~~~~~~~~~~~~~~~~
UNIK 038-2 A~~~~~~~~~~~~~~~~~~~~
UNIK 038-3 B~~~~~~~~~~~~~~~~~~~~
UNIK 038-4 B~~~~~~~~~~~~~~~~~~~~
UNIK 038-5 B~~~~~~~~~~~~~~~~~~~~
UNIK 038-6 C~~~~~~~~~~~~~~~~~~~~
UNIK 038-7 C~~~~~~~~~~~~~~~~~~~~
UNIK 039-1 A~~~~~~~~~~~~~~~~~~~~
UNIK 039-2 A~~~~~~~~~~~~~~~~~~~~
UNIK 039-3 B~~~~~~~~~~~~~~~~~~~~
UNIK 039-4 B~~~~~~~~~~~~~~~~~~~~
UNIK 039-5 B~~~~~~~~~~~~~~~~~~~~
UNIK 039-6 B~~~~~~~~~~~~~~~~~~~~
UNIK 039-7 C~~~~~~~~~~~~~~~~~~~~
UNIK 040-1 A~~~~~~~~~~~~~~~~~~~~
UNIK 040-2 A~~~~~~~~~~~~~~~~~~~~
UNIK 040-3 B~~~~~~~~~~~~~~~~~~~~
UNIK 040-4 B~~~~~~~~~~~~~~~~~~~~
UNIK 040-5 B~~~~~~~~~~~~~~~~~~~~
UNIK 040-6 B~~~~~~~~~~~~~~~~~~~~
UNIK 040-7 C~~~~~~~~~~~~~~~~~~~~
UNIK 041-1 A~~~~~~~~~~~~~~~~~~~~
UNIK 041-2 A~~~~~~~~~~~~~~~~~~~~
UNIK 041-3 A~~~~~~~~~~~~~~~~~~~~
UNIK 041-4 B~~~~~~~~~~~~~~~~~~~~
UNIK 041-5 B~~~~~~~~~~~~~~~~~~~~
UNIK 041-6 B~~~~~~~~~~~~~~~~~~~~
UNIK 041-7 C~~~~~~~~~~~~~~~~~~~~
UNIK 042-1 A~~~~~~~~~~~~~~~~~~~~
UNIK 042-2 A~~~~~~~~~~~~~~~~~~~~
UNIK 042-3 A~~~~~~~~~~~~~~~~~~~~
UNIK 042-4 A~~~~~~~~~~~~~~~~~~~~
UNIK 042-5 B~~~~~~~~~~~~~~~~~~~~
UNIK 042-6 B~~~~~~~~~~~~~~~~~~~~
UNIK 042-7 C~~~~~~~~~~~~~~~~~~~~
UNIK 043-1 A~~~~~~~~~~~~~~~~~~~~
UNIK 043-2 A~~~~~~~~~~~~~~~~~~~~
UNIK 043-3 A~~~~~~~~~~~~~~~~~~~~
UNIK 043-4 A~~~~~~~~~~~~~~~~~~~~
UNIK 043-5 B~~~~~~~~~~~~~~~~~~~~
UNIK 043-6 B~~~~~~~~~~~~~~~~~~~~
UNIK 043-7 C~~~~~~~~~~~~~~~~~~~~
UNIK 044-1 A~~~~~~~~~~~~~~~~~~~~
UNIK 044-2 A~~~~~~~~~~~~~~~~~~~~
UNIK 044-3 A~~~~~~~~~~~~~~~~~~~~
UNIK 044-4 A~~~~~~~~~~~~~~~~~~~~
UNIK 044-5 B~~~~~~~~~~~~~~~~~~~~
UNIK 044-6 B~~~~~~~~~~~~~~~~~~~~
UNIK 044-7 C~~~~~~~~~~~~~~~~~~~~
UNIK 045-1 A~~~~~~~~~~~~~~~~~~~~
UNIK 045-2 A~~~~~~~~~~~~~~~~~~~~
UNIK 045-3 A~~~~~~~~~~~~~~~~~~~~
UNIK 045-4 A~~~~~~~~~~~~~~~~~~~~
UNIK 045-5 B~~~~~~~~~~~~~~~~~~~~
UNIK 045-6 B~~~~~~~~~~~~~~~~~~~~
UNIK 045-7 C~~~~~~~~~~~~~~~~~~~~
UNIK 046-1 A~~~~~~~~~~~~~~~~~~~~
UNIK 046-2 A~~~~~~~~~~~~~~~~~~~~
UNIK 046-3 A~~~~~~~~~~~~~~~~~~~~
UNIK 046-4 A~~~~~~~~~~~~~~~~~~~~
UNIK 046-5 B~~~~~~~~~~~~~~~~~~~~
UNIK 046-6 B~~~~~~~~~~~~~~~~~~~~
UNIK 046-7 C~~~~~~~~~~~~~~~~~~~~
UNIK 047-1 A~~~~~~~~~~~~~~~~~~~~
UNIK 047-2 A~~~~~~~~~~~~~~~~~~~~
UNIK 047-3 A~~~~~~~~~~~~~~~~~~~~
UNIK 047-4 B~~~~~~~~~~~~~~~~~~~~
UNIK 047-5 B~~~~~~~~~~~~~~~~~~~~
UNIK 047-6 C~~~~~~~~~~~~~~~~~~~~
UNIK 047-7 C~~~~~~~~~~~~~~~~~~~~
UNIK 048-1 A~~~~~~~~~~~~~~~~~~~~
UNIK 048-2 A~~~~~~~~~~~~~~~~~~~~
UNIK 048-3 A~~~~~~~~~~~~~~~~~~~~
UNIK 048-4 B~~~~~~~~~~~~~~~~~~~~
UNIK 048-5 B~~~~~~~~~~~~~~~~~~~~
UNIK 048-6 C~~~~~~~~~~~~~~~~~~~~
UNIK 048-7 C~~~~~~~~~~~~~~~~~~~~
UNIK 049-1 A~~~~~~~~~~~~~~~~~~~~
UNIK 049-2 A~~~~~~~~~~~~~~~~~~~~
UNIK 049-3 A~~~~~~~~~~~~~~~~~~~~
UNIK 049-4 B~~~~~~~~~~~~~~~~~~~~
UNIK 049-5 B~~~~~~~~~~~~~~~~~~~~
UNIK 049-6 C~~~~~~~~~~~~~~~~~~~~
UNIK 049-7 C~~~~~~~~~~~~~~~~~~~~
UNIK 050-1 A~~~~~~~~~~~~~~~~~~~~
UNIK 050-2 A~~~~~~~~~~~~~~~~~~~~
UNIK 050-3 A~~~~~~~~~~~~~~~~~~~~
UNIK 050-4 A~~~~~~~~~~~~~~~~~~~~
UNIK 050-5 B~~~~~~~~~~~~~~~~~~~~
UNIK 050-6 B~~~~~~~~~~~~~~~~~~~~
UNIK 050-7 C~~~~~~~~~~~~~~~~~~~~
UNIK 051-1 A~~~~~~~~~~~~~~~~~~~~
UNIK 051-2 A~~~~~~~~~~~~~~~~~~~~
UNIK 051-3 A~~~~~~~~~~~~~~~~~~~~
UNIK 051-4 A~~~~~~~~~~~~~~~~~~~~
UNIK 051-5 B~~~~~~~~~~~~~~~~~~~~
UNIK 051-6 B~~~~~~~~~~~~~~~~~~~~
UNIK 051-7 C~~~~~~~~~~~~~~~~~~~~
UNIK 052-1 A~~~~~~~~~~~~~~~~~~~~
UNIK 052-2 A~~~~~~~~~~~~~~~~~~~~
UNIK 052-3 A~~~~~~~~~~~~~~~~~~~~
UNIK 052-4 A~~~~~~~~~~~~~~~~~~~~
UNIK 052-5 B~~~~~~~~~~~~~~~~~~~~
UNIK 052-6 B~~~~~~~~~~~~~~~~~~~~
UNIK 052-7 C~~~~~~~~~~~~~~~~~~~~
UNIK 053-1 A~~~~~~~~~~~~~~~~~~~~
UNIK 053-2 A~~~~~~~~~~~~~~~~~~~~
UNIK 053-3 A~~~~~~~~~~~~~~~~~~~~
UNIK 053-4 A~~~~~~~~~~~~~~~~~~~~
UNIK 053-5 B~~~~~~~~~~~~~~~~~~~~
UNIK 053-6 B~~~~~~~~~~~~~~~~~~~~
UNIK 053-7 C~~~~~~~~~~~~~~~~~~~~
UNIK 054-1 A~~~~~~~~~~~~~~~~~~~~
UNIK 054-2 A~~~~~~~~~~~~~~~~~~~~
UNIK 054-3 A~~~~~~~~~~~~~~~~~~~~
UNIK 054-4 B~~~~~~~~~~~~~~~~~~~~
UNIK 054-5 B~~~~~~~~~~~~~~~~~~~~
UNIK 054-6 B~~~~~~~~~~~~~~~~~~~~
UNIK 054-7 C~~~~~~~~~~~~~~~~~~~~
UNIK 055-1 A~~~~~~~~~~~~~~~~~~~~
UNIK 055-2 A~~~~~~~~~~~~~~~~~~~~
UNIK 055-3 A~~~~~~~~~~~~~~~~~~~~
UNIK 055-4 B~~~~~~~~~~~~~~~~~~~~
UNIK 055-5 B~~~~~~~~~~~~~~~~~~~~
UNIK 055-6 C~~~~~~~~~~~~~~~~~~~~
UNIK 055-7 C~~~~~~~~~~~~~~~~~~~~
UNIK 056-1 A~~~~~~~~~~~~~~~~~~~~
UNIK 056-2 A~~~~~~~~~~~~~~~~~~~~
UNIK 056-3 B~~~~~~~~~~~~~~~~~~~~
UNIK 056-4 B~~~~~~~~~~~~~~~~~~~~
UNIK 056-5 B~~~~~~~~~~~~~~~~~~~~
UNIK 056-6 C~~~~~~~~~~~~~~~~~~~~
UNIK 056-7 C~~~~~~~~~~~~~~~~~~~~
UNIK 057-1 A~~~~~~~~~~~~~~~~~~~~
UNIK 057-2 A~~~~~~~~~~~~~~~~~~~~
UNIK 057-3 B~~~~~~~~~~~~~~~~~~~~
UNIK 057-4 B~~~~~~~~~~~~~~~~~~~~
UNIK 057-5 B~~~~~~~~~~~~~~~~~~~~
UNIK 057-6 C~~~~~~~~~~~~~~~~~~~~
UNIK 057-7 C~~~~~~~~~~~~~~~~~~~~
UNIK 058-1 A~~~~~~~~~~~~~~~~~~~~
UNIK 058-2 A~~~~~~~~~~~~~~~~~~~~
UNIK 058-3 B~~~~~~~~~~~~~~~~~~~~
UNIK 058-4 B~~~~~~~~~~~~~~~~~~~~
UNIK 058-5 B~~~~~~~~~~~~~~~~~~~~
UNIK 058-6 B~~~~~~~~~~~~~~~~~~~~
UNIK 058-7 C~~~~~~~~~~~~~~~~~~~~
UNIK 059-1 A~~~~~~~~~~~~~~~~~~~~
UNIK 059-2 B~~~~~~~~~~~~~~~~~~~~
UNIK 059-3 B~~~~~~~~~~~~~~~~~~~~
UNIK 059-4 B~~~~~~~~~~~~~~~~~~~~
UNIK 059-5 C~~~~~~~~~~~~~~~~~~~~
UNIK 059-6 C~~~~~~~~~~~~~~~~~~~~
UNIK 059-7 C~~~~~~~~~~~~~~~~~~~~
UNIK 060-1 A~~~~~~~~~~~~~~~~~~~~
UNIK 060-2 B~~~~~~~~~~~~~~~~~~~~
UNIK 060-3 B~~~~~~~~~~~~~~~~~~~~
UNIK 060-4 B~~~~~~~~~~~~~~~~~~~~
UNIK 060-5 C~~~~~~~~~~~~~~~~~~~~
UNIK 060-6 C~~~~~~~~~~~~~~~~~~~~
UNIK 060-7 C~~~~~~~~~~~~~~~~~~~~
UNIK 061-1 A~~~~~~~~~~~~~~~~~~~~
UNIK 061-2 B~~~~~~~~~~~~~~~~~~~~
UNIK 061-3 B~~~~~~~~~~~~~~~~~~~~
UNIK 061-4 C~~~~~~~~~~~~~~~~~~~~
UNIK 061-5 C~~~~~~~~~~~~~~~~~~~~
UNIK 061-6 C~~~~~~~~~~~~~~~~~~~~
UNIK 061-7 C~~~~~~~~~~~~~~~~~~~~
UNIK 062-1 A~~~~~~~~~~~~~~~~~~~~
UNIK 062-2 B~~~~~~~~~~~~~~~~~~~~
UNIK 062-3 B~~~~~~~~~~~~~~~~~~~~
UNIK 062-4 B~~~~~~~~~~~~~~~~~~~~
UNIK 062-5 C~~~~~~~~~~~~~~~~~~~~
UNIK 062-6 C~~~~~~~~~~~~~~~~~~~~
UNIK 062-7 C~~~~~~~~~~~~~~~~~~~~
UNIK 063-1 A~~~~~~~~~~~~~~~~~~~~
UNIK 063-2 A~~~~~~~~~~~~~~~~~~~~
UNIK 063-3 B~~~~~~~~~~~~~~~~~~~~
UNIK 063-4 B~~~~~~~~~~~~~~~~~~~~
UNIK 063-5 C~~~~~~~~~~~~~~~~~~~~
UNIK 063-6 C~~~~~~~~~~~~~~~~~~~~
UNIK 063-7 C~~~~~~~~~~~~~~~~~~~~
UNIK 064-1 A~~~~~~~~~~~~~~~~~~~~
UNIK 064-2 A~~~~~~~~~~~~~~~~~~~~
UNIK 064-3 A~~~~~~~~~~~~~~~~~~~~
UNIK 064-4 B~~~~~~~~~~~~~~~~~~~~
UNIK 064-5 B~~~~~~~~~~~~~~~~~~~~
UNIK 064-6 C~~~~~~~~~~~~~~~~~~~~
UNIK 064-7 D~~~~~~~~~~~~~~~~~~~~
UNIK 065-1 A~~~~~~~~~~~~~~~~~~~~
UNIK 065-2 A~~~~~~~~~~~~~~~~~~~~
UNIK 065-3 A~~~~~~~~~~~~~~~~~~~~
UNIK 065-4 B~~~~~~~~~~~~~~~~~~~~
UNIK 065-5 B~~~~~~~~~~~~~~~~~~~~
UNIK 065-6 C~~~~~~~~~~~~~~~~~~~~
UNIK 065-7 D~~~~~~~~~~~~~~~~~~~~
UNIK 066-1 A~~~~~~~~~~~~~~~~~~~~
UNIK 066-2 A~~~~~~~~~~~~~~~~~~~~
UNIK 066-3 A~~~~~~~~~~~~~~~~~~~~
UNIK 066-4 B~~~~~~~~~~~~~~~~~~~~
UNIK 066-5 B~~~~~~~~~~~~~~~~~~~~
UNIK 066-6 C~~~~~~~~~~~~~~~~~~~~
UNIK 066-7 C~~~~~~~~~~~~~~~~~~~~
UNIK 067-1 A~~~~~~~~~~~~~~~~~~~~
UNIK 067-2 A~~~~~~~~~~~~~~~~~~~~
UNIK 067-3 A~~~~~~~~~~~~~~~~~~~~
UNIK 067-4 B~~~~~~~~~~~~~~~~~~~~
UNIK 067-5 C~~~~~~~~~~~~~~~~~~~~
UNIK 067-6 C~~~~~~~~~~~~~~~~~~~~
UNIK 067-7 C~~~~~~~~~~~~~~~~~~~~
UNIK 068-1 A~~~~~~~~~~~~~~~~~~~~
UNIK 068-2 A~~~~~~~~~~~~~~~~~~~~
UNIK 068-3 B~~~~~~~~~~~~~~~~~~~~
UNIK 068-4 B~~~~~~~~~~~~~~~~~~~~
UNIK 068-5 C~~~~~~~~~~~~~~~~~~~~
UNIK 068-6 C~~~~~~~~~~~~~~~~~~~~
UNIK 068-7 C~~~~~~~~~~~~~~~~~~~~
UNIK 069-1 A~~~~~~~~~~~~~~~~~~~~
UNIK 069-2 A~~~~~~~~~~~~~~~~~~~~
UNIK 069-3 A~~~~~~~~~~~~~~~~~~~~
UNIK 069-4 B~~~~~~~~~~~~~~~~~~~~
UNIK 069-5 B~~~~~~~~~~~~~~~~~~~~
UNIK 069-6 C~~~~~~~~~~~~~~~~~~~~
UNIK 069-7 C~~~~~~~~~~~~~~~~~~~~
UNIK 070-1 A~~~~~~~~~~~~~~~~~~~~
UNIK 070-2 A~~~~~~~~~~~~~~~~~~~~
UNIK 070-3 A~~~~~~~~~~~~~~~~~~~~
UNIK 070-4 B~~~~~~~~~~~~~~~~~~~~
UNIK 070-5 B~~~~~~~~~~~~~~~~~~~~
UNIK 070-6 C~~~~~~~~~~~~~~~~~~~~
UNIK 070-7 C~~~~~~~~~~~~~~~~~~~~
UNIK 071-1 A~~~~~~~~~~~~~~~~~~~~
UNIK 071-2 A~~~~~~~~~~~~~~~~~~~~
UNIK 071-3 B~~~~~~~~~~~~~~~~~~~~
UNIK 071-4 B~~~~~~~~~~~~~~~~~~~~
UNIK 071-5 B~~~~~~~~~~~~~~~~~~~~
UNIK 071-6 B~~~~~~~~~~~~~~~~~~~~
UNIK 071-7 C~~~~~~~~~~~~~~~~~~~~
UNIK 072-1 A~~~~~~~~~~~~~~~~~~~~
UNIK 072-2 A~~~~~~~~~~~~~~~~~~~~
UNIK 072-3 A~~~~~~~~~~~~~~~~~~~~
UNIK 072-4 B~~~~~~~~~~~~~~~~~~~~
UNIK 072-5 B~~~~~~~~~~~~~~~~~~~~
UNIK 072-6 C~~~~~~~~~~~~~~~~~~~~
UNIK 072-7 C~~~~~~~~~~~~~~~~~~~~
UNIK 073-1 A~~~~~~~~~~~~~~~~~~~~
UNIK 073-2 A~~~~~~~~~~~~~~~~~~~~
UNIK 073-3 B~~~~~~~~~~~~~~~~~~~~
UNIK 073-4 B~~~~~~~~~~~~~~~~~~~~
UNIK 073-5 B~~~~~~~~~~~~~~~~~~~~
UNIK 073-6 C~~~~~~~~~~~~~~~~~~~~
UNIK 073-7 C~~~~~~~~~~~~~~~~~~~~
UNIK 074-1 A~~~~~~~~~~~~~~~~~~~~
UNIK 074-2 A~~~~~~~~~~~~~~~~~~~~
UNIK 074-3 B~~~~~~~~~~~~~~~~~~~~
UNIK 074-4 B~~~~~~~~~~~~~~~~~~~~
UNIK 074-5 C~~~~~~~~~~~~~~~~~~~~
UNIK 074-6 C~~~~~~~~~~~~~~~~~~~~
UNIK 074-7 C~~~~~~~~~~~~~~~~~~~~
UNIK 075-1 A~~~~~~~~~~~~~~~~~~~~
UNIK 075-2 B~~~~~~~~~~~~~~~~~~~~
UNIK 075-3 B~~~~~~~~~~~~~~~~~~~~
UNIK 075-4 B~~~~~~~~~~~~~~~~~~~~
UNIK 075-5 C~~~~~~~~~~~~~~~~~~~~
UNIK 075-6 C~~~~~~~~~~~~~~~~~~~~
UNIK 075-7 D~~~~~~~~~~~~~~~~~~~~
UNIK 076-1 A~~~~~~~~~~~~~~~~~~~~
UNIK 076-2 A~~~~~~~~~~~~~~~~~~~~
UNIK 076-3 B~~~~~~~~~~~~~~~~~~~~
UNIK 076-4 B~~~~~~~~~~~~~~~~~~~~
UNIK 076-5 C~~~~~~~~~~~~~~~~~~~~
UNIK 076-6 C~~~~~~~~~~~~~~~~~~~~
UNIK 076-7 C~~~~~~~~~~~~~~~~~~~~
UNIK 077-1 A~~~~~~~~~~~~~~~~~~~~
UNIK 077-2 B~~~~~~~~~~~~~~~~~~~~
UNIK 077-3 B~~~~~~~~~~~~~~~~~~~~
UNIK 077-4 B~~~~~~~~~~~~~~~~~~~~
UNIK 077-5 C~~~~~~~~~~~~~~~~~~~~
UNIK 077-6 C~~~~~~~~~~~~~~~~~~~~
UNIK 077-7 C~~~~~~~~~~~~~~~~~~~~
UNIK 078-1 A~~~~~~~~~~~~~~~~~~~~
UNIK 078-2 B~~~~~~~~~~~~~~~~~~~~
UNIK 078-3 B~~~~~~~~~~~~~~~~~~~~
UNIK 078-4 B~~~~~~~~~~~~~~~~~~~~
UNIK 078-5 C~~~~~~~~~~~~~~~~~~~~
UNIK 078-6 C~~~~~~~~~~~~~~~~~~~~
UNIK 078-7 D~~~~~~~~~~~~~~~~~~~~
UNIK 079-1 B~~~~~~~~~~~~~~~~~~~~
UNIK 079-2 B~~~~~~~~~~~~~~~~~~~~
UNIK 079-3 B~~~~~~~~~~~~~~~~~~~~
UNIK 079-4 C~~~~~~~~~~~~~~~~~~~~
UNIK 079-5 C~~~~~~~~~~~~~~~~~~~~
UNIK 079-6 C~~~~~~~~~~~~~~~~~~~~
UNIK 079-7 C~~~~~~~~~~~~~~~~~~~~
UNIK 080-1 A~~~~~~~~~~~~~~~~~~~~
UNIK 080-2 B~~~~~~~~~~~~~~~~~~~~
UNIK 080-3 B~~~~~~~~~~~~~~~~~~~~
UNIK 080-4 C~~~~~~~~~~~~~~~~~~~~
UNIK 080-5 C~~~~~~~~~~~~~~~~~~~~
UNIK 080-6 C~~~~~~~~~~~~~~~~~~~~
UNIK 080-7 C~~~~~~~~~~~~~~~~~~~~
UNIK 081-1 A~~~~~~~~~~~~~~~~~~~~
UNIK 081-2 B~~~~~~~~~~~~~~~~~~~~
UNIK 081-3 B~~~~~~~~~~~~~~~~~~~~
UNIK 081-4 C~~~~~~~~~~~~~~~~~~~~
UNIK 081-5 C~~~~~~~~~~~~~~~~~~~~
UNIK 081-6 C~~~~~~~~~~~~~~~~~~~~
UNIK 081-7 C~~~~~~~~~~~~~~~~~~~~
UNIK 082-1 A~~~~~~~~~~~~~~~~~~~~
UNIK 082-2 B~~~~~~~~~~~~~~~~~~~~
UNIK 082-3 B~~~~~~~~~~~~~~~~~~~~
UNIK 082-4 B~~~~~~~~~~~~~~~~~~~~
UNIK 082-5 C~~~~~~~~~~~~~~~~~~~~
UNIK 082-6 C~~~~~~~~~~~~~~~~~~~~
UNIK 082-7 C~~~~~~~~~~~~~~~~~~~~
UNIK 083-1 A~~~~~~~~~~~~~~~~~~~~
UNIK 083-2 A~~~~~~~~~~~~~~~~~~~~
UNIK 083-3 B~~~~~~~~~~~~~~~~~~~~
UNIK 083-4 B~~~~~~~~~~~~~~~~~~~~
UNIK 083-5 C~~~~~~~~~~~~~~~~~~~~
UNIK 083-6 D~~~~~~~~~~~~~~~~~~~~
UNIK 083-7 C~~~~~~~~~~~~~~~~~~~~
UNIK 084-1 A~~~~~~~~~~~~~~~~~~~~
UNIK 084-2 A~~~~~~~~~~~~~~~~~~~~
UNIK 084-3 B~~~~~~~~~~~~~~~~~~~~
UNIK 084-4 B~~~~~~~~~~~~~~~~~~~~
UNIK 084-5 C~~~~~~~~~~~~~~~~~~~~
UNIK 084-6 C~~~~~~~~~~~~~~~~~~~~
UNIK 084-7 C~~~~~~~~~~~~~~~~~~~~
UNIK 085-1 A~~~~~~~~~~~~~~~~~~~~
UNIK 085-2 A~~~~~~~~~~~~~~~~~~~~
UNIK 085-3 B~~~~~~~~~~~~~~~~~~~~
UNIK 085-4 B~~~~~~~~~~~~~~~~~~~~
UNIK 085-5 C~~~~~~~~~~~~~~~~~~~~
UNIK 085-6 C~~~~~~~~~~~~~~~~~~~~
UNIK 085-7 C~~~~~~~~~~~~~~~~~~~~
UNIK 086-1 A~~~~~~~~~~~~~~~~~~~~
UNIK 086-2 A~~~~~~~~~~~~~~~~~~~~
UNIK 086-3 B~~~~~~~~~~~~~~~~~~~~
UNIK 086-4 B~~~~~~~~~~~~~~~~~~~~
UNIK 086-5 C~~~~~~~~~~~~~~~~~~~~
UNIK 086-6 C~~~~~~~~~~~~~~~~~~~~
UNIK 086-7 C~~~~~~~~~~~~~~~~~~~~
UNIK 087-1 A~~~~~~~~~~~~~~~~~~~~
UNIK 087-2 A~~~~~~~~~~~~~~~~~~~~
UNIK 087-3 B~~~~~~~~~~~~~~~~~~~~
UNIK 087-4 B~~~~~~~~~~~~~~~~~~~~
UNIK 087-5 C~~~~~~~~~~~~~~~~~~~~
UNIK 087-6 C~~~~~~~~~~~~~~~~~~~~
UNIK 087-7 C~~~~~~~~~~~~~~~~~~~~
UNIK 088-1 A~~~~~~~~~~~~~~~~~~~~
UNIK 088-2 A~~~~~~~~~~~~~~~~~~~~
UNIK 088-3 B~~~~~~~~~~~~~~~~~~~~
UNIK 088-4 B~~~~~~~~~~~~~~~~~~~~
UNIK 088-5 C~~~~~~~~~~~~~~~~~~~~
UNIK 088-6 C~~~~~~~~~~~~~~~~~~~~
UNIK 088-7 C~~~~~~~~~~~~~~~~~~~~
UNIK 089-1 A~~~~~~~~~~~~~~~~~~~~
UNIK 089-2 A~~~~~~~~~~~~~~~~~~~~
UNIK 089-3 B~~~~~~~~~~~~~~~~~~~~
UNIK 089-4 B~~~~~~~~~~~~~~~~~~~~
UNIK 089-5 C~~~~~~~~~~~~~~~~~~~~
UNIK 089-6 C~~~~~~~~~~~~~~~~~~~~
UNIK 089-7 C~~~~~~~~~~~~~~~~~~~~
UNIK 090-1 A~~~~~~~~~~~~~~~~~~~~
UNIK 090-2 A~~~~~~~~~~~~~~~~~~~~
UNIK 090-3 B~~~~~~~~~~~~~~~~~~~~
UNIK 090-4 B~~~~~~~~~~~~~~~~~~~~
UNIK 090-5 C~~~~~~~~~~~~~~~~~~~~
UNIK 090-6 C~~~~~~~~~~~~~~~~~~~~
UNIK 090-7 C~~~~~~~~~~~~~~~~~~~~
UNIK 091-1 A~~~~~~~~~~~~~~~~~~~~
UNIK 091-2 A~~~~~~~~~~~~~~~~~~~~
UNIK 091-3 B~~~~~~~~~~~~~~~~~~~~
UNIK 091-4 B~~~~~~~~~~~~~~~~~~~~
UNIK 091-5 C~~~~~~~~~~~~~~~~~~~~
UNIK 091-6 C~~~~~~~~~~~~~~~~~~~~
UNIK 091-7 C~~~~~~~~~~~~~~~~~~~~
UNIK 092-1 A~~~~~~~~~~~~~~~~~~~~
UNIK 092-2 B~~~~~~~~~~~~~~~~~~~~
UNIK 092-3 B~~~~~~~~~~~~~~~~~~~~
UNIK 092-4 C~~~~~~~~~~~~~~~~~~~~
UNIK 092-5 C~~~~~~~~~~~~~~~~~~~~
UNIK 092-6 C~~~~~~~~~~~~~~~~~~~~
UNIK 092-7 C~~~~~~~~~~~~~~~~~~~~
UNIK 093-1 A~~~~~~~~~~~~~~~~~~~~
UNIK 093-2 B~~~~~~~~~~~~~~~~~~~~
UNIK 093-3 B~~~~~~~~~~~~~~~~~~~~
UNIK 093-4 C~~~~~~~~~~~~~~~~~~~~
UNIK 093-5 C~~~~~~~~~~~~~~~~~~~~
UNIK 093-6 C~~~~~~~~~~~~~~~~~~~~
UNIK 093-7 C~~~~~~~~~~~~~~~~~~~~
UNIK 094-1 B~~~~~~~~~~~~~~~~~~~~
UNIK 094-2 B~~~~~~~~~~~~~~~~~~~~
UNIK 094-3 B~~~~~~~~~~~~~~~~~~~~
UNIK 094-4 C~~~~~~~~~~~~~~~~~~~~
UNIK 094-5 C~~~~~~~~~~~~~~~~~~~~
UNIK 094-6 C~~~~~~~~~~~~~~~~~~~~
UNIK 094-7 C~~~~~~~~~~~~~~~~~~~~
UNIK 095-1 B~~~~~~~~~~~~~~~~~~~~
UNIK 095-2 B~~~~~~~~~~~~~~~~~~~~
UNIK 095-3 B~~~~~~~~~~~~~~~~~~~~
UNIK 095-4 C~~~~~~~~~~~~~~~~~~~~
UNIK 095-5 C~~~~~~~~~~~~~~~~~~~~
UNIK 095-6 C~~~~~~~~~~~~~~~~~~~~
UNIK 095-7 C~~~~~~~~~~~~~~~~~~~~
UNIK 096-1 B~~~~~~~~~~~~~~~~~~~~
UNIK 096-2 B~~~~~~~~~~~~~~~~~~~~
UNIK 096-3 B~~~~~~~~~~~~~~~~~~~~
UNIK 096-4 C~~~~~~~~~~~~~~~~~~~~
UNIK 096-5 C~~~~~~~~~~~~~~~~~~~~
UNIK 096-6 C~~~~~~~~~~~~~~~~~~~~
UNIK 096-7 C~~~~~~~~~~~~~~~~~~~~
UNIK 097-1 A~~~~~~~~~~~~~~~~~~~~
UNIK 097-2 A~~~~~~~~~~~~~~~~~~~~
UNIK 097-3 B~~~~~~~~~~~~~~~~~~~~
UNIK 097-4 B~~~~~~~~~~~~~~~~~~~~
UNIK 097-5 C~~~~~~~~~~~~~~~~~~~~
UNIK 097-6 C~~~~~~~~~~~~~~~~~~~~
UNIK 097-7 C~~~~~~~~~~~~~~~~~~~~
UNIK 098-1 A~~~~~~~~~~~~~~~~~~~~
UNIK 098-2 A~~~~~~~~~~~~~~~~~~~~
UNIK 098-3 A~~~~~~~~~~~~~~~~~~~~
UNIK 098-4 B~~~~~~~~~~~~~~~~~~~~
UNIK 098-5 B~~~~~~~~~~~~~~~~~~~~
UNIK 098-6 C~~~~~~~~~~~~~~~~~~~~
UNIK 098-7 C~~~~~~~~~~~~~~~~~~~~
UNIK 099-1 A~~~~~~~~~~~~~~~~~~~~
UNIK 099-2 A~~~~~~~~~~~~~~~~~~~~
UNIK 099-3 A~~~~~~~~~~~~~~~~~~~~
UNIK 099-4 B~~~~~~~~~~~~~~~~~~~~
UNIK 099-5 B~~~~~~~~~~~~~~~~~~~~
UNIK 099-6 C~~~~~~~~~~~~~~~~~~~~
UNIK 099-7 C~~~~~~~~~~~~~~~~~~~~
UNIK 100-1 A~~~~~~~~~~~~~~~~~~~~
UNIK 100-2 A~~~~~~~~~~~~~~~~~~~~
UNIK 100-3 A~~~~~~~~~~~~~~~~~~~~
UNIK 100-4 B~~~~~~~~~~~~~~~~~~~~
UNIK 100-5 B~~~~~~~~~~~~~~~~~~~~
UNIK 100-6 C~~~~~~~~~~~~~~~~~~~~
UNIK 100-7 C~~~~~~~~~~~~~~~~~~~~
UNIK 101-1 A~~~~~~~~~~~~~~~~~~~~
UNIK 101-2 A~~~~~~~~~~~~~~~~~~~~
UNIK 101-3 A~~~~~~~~~~~~~~~~~~~~
UNIK 101-4 B~~~~~~~~~~~~~~~~~~~~
UNIK 101-5 B~~~~~~~~~~~~~~~~~~~~
UNIK 101-6 C~~~~~~~~~~~~~~~~~~~~
UNIK 101-7 C~~~~~~~~~~~~~~~~~~~~
UNIK 102-1 A~~~~~~~~~~~~~~~~~~~~
UNIK 102-2 A~~~~~~~~~~~~~~~~~~~~
UNIK 102-3 B~~~~~~~~~~~~~~~~~~~~
UNIK 102-4 B~~~~~~~~~~~~~~~~~~~~
UNIK 102-5 B~~~~~~~~~~~~~~~~~~~~
UNIK 102-6 C~~~~~~~~~~~~~~~~~~~~
UNIK 102-7 C~~~~~~~~~~~~~~~~~~~~
UNIK 103-1 A~~~~~~~~~~~~~~~~~~~~
UNIK 103-2 A~~~~~~~~~~~~~~~~~~~~
UNIK 103-3 B~~~~~~~~~~~~~~~~~~~~
UNIK 103-4 B~~~~~~~~~~~~~~~~~~~~
UNIK 103-5 C~~~~~~~~~~~~~~~~~~~~
UNIK 103-6 C~~~~~~~~~~~~~~~~~~~~
UNIK 103-7 C~~~~~~~~~~~~~~~~~~~~
UNIK 104-1 A~~~~~~~~~~~~~~~~~~~~
UNIK 104-2 A~~~~~~~~~~~~~~~~~~~~
UNIK 104-3 B~~~~~~~~~~~~~~~~~~~~
UNIK 104-4 B~~~~~~~~~~~~~~~~~~~~
UNIK 104-5 B~~~~~~~~~~~~~~~~~~~~
UNIK 104-6 C~~~~~~~~~~~~~~~~~~~~
UNIK 104-7 C~~~~~~~~~~~~~~~~~~~~
UNIK 105-1 A~~~~~~~~~~~~~~~~~~~~
UNIK 105-2 A~~~~~~~~~~~~~~~~~~~~
UNIK 105-3 B~~~~~~~~~~~~~~~~~~~~
UNIK 105-4 B~~~~~~~~~~~~~~~~~~~~
UNIK 105-5 B~~~~~~~~~~~~~~~~~~~~
UNIK 105-6 C~~~~~~~~~~~~~~~~~~~~
UNIK 105-7 C~~~~~~~~~~~~~~~~~~~~
UNIK 106-1 A~~~~~~~~~~~~~~~~~~~~
UNIK 106-2 A~~~~~~~~~~~~~~~~~~~~
UNIK 106-3 A~~~~~~~~~~~~~~~~~~~~
UNIK 106-4 B~~~~~~~~~~~~~~~~~~~~
UNIK 106-5 B~~~~~~~~~~~~~~~~~~~~
UNIK 106-6 C~~~~~~~~~~~~~~~~~~~~
UNIK 106-7 C~~~~~~~~~~~~~~~~~~~~
UNIK 107-1 A~~~~~~~~~~~~~~~~~~~~
UNIK 107-2 A~~~~~~~~~~~~~~~~~~~~
UNIK 107-3 A~~~~~~~~~~~~~~~~~~~~
UNIK 107-4 B~~~~~~~~~~~~~~~~~~~~
UNIK 107-5 B~~~~~~~~~~~~~~~~~~~~
UNIK 107-6 B~~~~~~~~~~~~~~~~~~~~
UNIK 107-7 C~~~~~~~~~~~~~~~~~~~~
UNIK 108-1 A~~~~~~~~~~~~~~~~~~~~
UNIK 108-2 A~~~~~~~~~~~~~~~~~~~~
UNIK 108-3 A~~~~~~~~~~~~~~~~~~~~
UNIK 108-4 A~~~~~~~~~~~~~~~~~~~~
UNIK 108-5 B~~~~~~~~~~~~~~~~~~~~
UNIK 108-6 B~~~~~~~~~~~~~~~~~~~~
UNIK 108-7 C~~~~~~~~~~~~~~~~~~~~
UNIK 109-1 A~~~~~~~~~~~~~~~~~~~~
UNIK 109-2 A~~~~~~~~~~~~~~~~~~~~
UNIK 109-3 A~~~~~~~~~~~~~~~~~~~~
UNIK 109-4 B~~~~~~~~~~~~~~~~~~~~
UNIK 109-5 B~~~~~~~~~~~~~~~~~~~~
UNIK 109-6 B~~~~~~~~~~~~~~~~~~~~
UNIK 109-7 C~~~~~~~~~~~~~~~~~~~~
UNIK 110-1 A~~~~~~~~~~~~~~~~~~~~
UNIK 110-2 A~~~~~~~~~~~~~~~~~~~~
UNIK 110-3 B~~~~~~~~~~~~~~~~~~~~
UNIK 110-4 B~~~~~~~~~~~~~~~~~~~~
UNIK 110-5 B~~~~~~~~~~~~~~~~~~~~
UNIK 110-6 C~~~~~~~~~~~~~~~~~~~~
UNIK 110-7 C~~~~~~~~~~~~~~~~~~~~
UNIK 111-1 A~~~~~~~~~~~~~~~~~~~~
UNIK 111-2 A~~~~~~~~~~~~~~~~~~~~
UNIK 111-3 A~~~~~~~~~~~~~~~~~~~~
UNIK 111-4 B~~~~~~~~~~~~~~~~~~~~
UNIK 111-5 C~~~~~~~~~~~~~~~~~~~~
UNIK 111-6 C~~~~~~~~~~~~~~~~~~~~
UNIK 111-7 C~~~~~~~~~~~~~~~~~~~~
UNIK 112-1 A~~~~~~~~~~~~~~~~~~~~
UNIK 112-2 A~~~~~~~~~~~~~~~~~~~~
UNIK 112-3 A~~~~~~~~~~~~~~~~~~~~
UNIK 112-4 B~~~~~~~~~~~~~~~~~~~~
UNIK 112-5 B~~~~~~~~~~~~~~~~~~~~
UNIK 112-6 C~~~~~~~~~~~~~~~~~~~~
UNIK 112-7 C~~~~~~~~~~~~~~~~~~~~
UNIK 113-1 A~~~~~~~~~~~~~~~~~~~~
UNIK 113-2 A~~~~~~~~~~~~~~~~~~~~
UNIK 113-3 B~~~~~~~~~~~~~~~~~~~~
UNIK 113-4 B~~~~~~~~~~~~~~~~~~~~
UNIK 113-5 B~~~~~~~~~~~~~~~~~~~~
UNIK 113-6 C~~~~~~~~~~~~~~~~~~~~
UNIK 113-7 C~~~~~~~~~~~~~~~~~~~~
UNIK 114-1 A~~~~~~~~~~~~~~~~~~~~
UNIK 114-2 A~~~~~~~~~~~~~~~~~~~~
UNIK 114-3 A~~~~~~~~~~~~~~~~~~~~
UNIK 114-4 A~~~~~~~~~~~~~~~~~~~~
UNIK 114-5 A~~~~~~~~~~~~~~~~~~~~
UNIK 114-6 B~~~~~~~~~~~~~~~~~~~~
UNIK 114-7 C~~~~~~~~~~~~~~~~~~~~
UNIK 115-1 A~~~~~~~~~~~~~~~~~~~~
UNIK 115-2 A~~~~~~~~~~~~~~~~~~~~
UNIK 115-3 A~~~~~~~~~~~~~~~~~~~~
UNIK 115-4 A~~~~~~~~~~~~~~~~~~~~
UNIK 115-5 A~~~~~~~~~~~~~~~~~~~~
UNIK 115-6 B~~~~~~~~~~~~~~~~~~~~
UNIK 115-7 C~~~~~~~~~~~~~~~~~~~~
UNIK 116-1 A~~~~~~~~~~~~~~~~~~~~
UNIK 116-2 A~~~~~~~~~~~~~~~~~~~~
UNIK 116-3 A~~~~~~~~~~~~~~~~~~~~
UNIK 116-4 A~~~~~~~~~~~~~~~~~~~~
UNIK 116-5 A~~~~~~~~~~~~~~~~~~~~
UNIK 116-6 B~~~~~~~~~~~~~~~~~~~~
UNIK 116-7 C~~~~~~~~~~~~~~~~~~~~
UNIK 117-1 A~~~~~~~~~~~~~~~~~~~~
UNIK 117-2 A~~~~~~~~~~~~~~~~~~~~
UNIK 117-3 A~~~~~~~~~~~~~~~~~~~~
UNIK 117-4 A~~~~~~~~~~~~~~~~~~~~
UNIK 117-5 A~~~~~~~~~~~~~~~~~~~~
UNIK 117-6 B~~~~~~~~~~~~~~~~~~~~
UNIK 117-7 C~~~~~~~~~~~~~~~~~~~~
UNIK 118-1 A~~~~~~~~~~~~~~~~~~~~
UNIK 118-2 A~~~~~~~~~~~~~~~~~~~~
UNIK 118-3 A~~~~~~~~~~~~~~~~~~~~
UNIK 118-4 A~~~~~~~~~~~~~~~~~~~~
UNIK 118-5 A~~~~~~~~~~~~~~~~~~~~
UNIK 118-6 B~~~~~~~~~~~~~~~~~~~~
UNIK 118-7 C~~~~~~~~~~~~~~~~~~~~
UNIK 119-1 A~~~~~~~~~~~~~~~~~~~~
UNIK 119-2 A~~~~~~~~~~~~~~~~~~~~
UNIK 119-3 A~~~~~~~~~~~~~~~~~~~~
UNIK 119-4 A~~~~~~~~~~~~~~~~~~~~
UNIK 119-5 A~~~~~~~~~~~~~~~~~~~~
UNIK 119-6 B~~~~~~~~~~~~~~~~~~~~
UNIK 119-7 C~~~~~~~~~~~~~~~~~~~~
UNIK 120-1 A~~~~~~~~~~~~~~~~~~~~
UNIK 120-2 A~~~~~~~~~~~~~~~~~~~~
UNIK 120-3 A~~~~~~~~~~~~~~~~~~~~
UNIK 120-4 A~~~~~~~~~~~~~~~~~~~~
UNIK 120-5 A~~~~~~~~~~~~~~~~~~~~
UNIK 120-6 B~~~~~~~~~~~~~~~~~~~~
UNIK 120-7 C~~~~~~~~~~~~~~~~~~~~
UNIK 121-1 A~~~~~~~~~~~~~~~~~~~~
UNIK 121-2 A~~~~~~~~~~~~~~~~~~~~
UNIK 121-3 A~~~~~~~~~~~~~~~~~~~~
UNIK 121-4 A~~~~~~~~~~~~~~~~~~~~
UNIK 121-5 A~~~~~~~~~~~~~~~~~~~~
UNIK 121-6 B~~~~~~~~~~~~~~~~~~~~
UNIK 121-7 C~~~~~~~~~~~~~~~~~~~~
UNIK 122-1 A~~~~~~~~~~~~~~~~~~~~
UNIK 122-2 A~~~~~~~~~~~~~~~~~~~~
UNIK 122-3 A~~~~~~~~~~~~~~~~~~~~
UNIK 122-4 B~~~~~~~~~~~~~~~~~~~~
UNIK 122-5 C~~~~~~~~~~~~~~~~~~~~
UNIK 122-6 C~~~~~~~~~~~~~~~~~~~~
UNIK 122-7 C~~~~~~~~~~~~~~~~~~~~
UNIK 123-1 A~~~~~~~~~~~~~~~~~~~~
UNIK 123-2 A~~~~~~~~~~~~~~~~~~~~
UNIK 123-3 A~~~~~~~~~~~~~~~~~~~~
UNIK 123-4 B~~~~~~~~~~~~~~~~~~~~
UNIK 123-5 C~~~~~~~~~~~~~~~~~~~~
UNIK 123-6 C~~~~~~~~~~~~~~~~~~~~
UNIK 123-7 C~~~~~~~~~~~~~~~~~~~~
UNIK 124-1 A~~~~~~~~~~~~~~~~~~~~
UNIK 124-2 A~~~~~~~~~~~~~~~~~~~~
UNIK 124-3 B~~~~~~~~~~~~~~~~~~~~
UNIK 124-4 B~~~~~~~~~~~~~~~~~~~~
UNIK 124-5 C~~~~~~~~~~~~~~~~~~~~
UNIK 124-6 C~~~~~~~~~~~~~~~~~~~~
UNIK 124-7 C~~~~~~~~~~~~~~~~~~~~
UNIK 125-1 B~~~~~~~~~~~~~~~~~~~~
UNIK 125-2 D~~~~~~~~~~~~~~~~~~~~
UNIK 125-3 D~~~~~~~~~~~~~~~~~~~~
UNIK 125-4 D~~~~~~~~~~~~~~~~~~~~
UNIK 125-5 D~~~~~~~~~~~~~~~~~~~~
UNIK 125-6 D~~~~~~~~~~~~~~~~~~~~
UNIK 125-7 C~~~~~~~~~~~~~~~~~~~~
UNIK 126-1 B~~~~~~~~~~~~~~~~~~~~
UNIK 126-2 D~~~~~~~~~~~~~~~~~~~~
UNIK 126-3 D~~~~~~~~~~~~~~~~~~~~
UNIK 126-4 D~~~~~~~~~~~~~~~~~~~~
UNIK 126-5 D~~~~~~~~~~~~~~~~~~~~
UNIK 126-6 D~~~~~~~~~~~~~~~~~~~~
UNIK 126-7 C~~~~~~~~~~~~~~~~~~~~
UNIK 127-1 B~~~~~~~~~~~~~~~~~~~~
UNIK 127-2 B~~~~~~~~~~~~~~~~~~~~
UNIK 127-3 D~~~~~~~~~~~~~~~~~~~~
UNIK 127-4 D~~~~~~~~~~~~~~~~~~~~
UNIK 127-5 D~~~~~~~~~~~~~~~~~~~~
UNIK 127-6 C~~~~~~~~~~~~~~~~~~~~
UNIK 127-7 D~~~~~~~~~~~~~~~~~~~~
UNIK 128-1 B~~~~~~~~~~~~~~~~~~~~
UNIK 128-2 B~~~~~~~~~~~~~~~~~~~~
UNIK 128-3 D~~~~~~~~~~~~~~~~~~~~
UNIK 128-4 D~~~~~~~~~~~~~~~~~~~~
UNIK 128-5 C~~~~~~~~~~~~~~~~~~~~
UNIK 128-6 C~~~~~~~~~~~~~~~~~~~~
UNIK 128-7 C~~~~~~~~~~~~~~~~~~~~
UNIK 129-1 B~~~~~~~~~~~~~~~~~~~~
UNIK 129-2 D~~~~~~~~~~~~~~~~~~~~
UNIK 129-3 C~~~~~~~~~~~~~~~~~~~~
UNIK 129-4 D~~~~~~~~~~~~~~~~~~~~
UNIK 129-5 C~~~~~~~~~~~~~~~~~~~~
UNIK 129-6 C~~~~~~~~~~~~~~~~~~~~
UNIK 129-7 C~~~~~~~~~~~~~~~~~~~~
UNIK 130-1 B~~~~~~~~~~~~~~~~~~~~
UNIK 130-2 D~~~~~~~~~~~~~~~~~~~~
UNIK 130-3 C~~~~~~~~~~~~~~~~~~~~
UNIK 130-4 D~~~~~~~~~~~~~~~~~~~~
UNIK 130-5 D~~~~~~~~~~~~~~~~~~~~
UNIK 130-6 C~~~~~~~~~~~~~~~~~~~~
UNIK 130-7 C~~~~~~~~~~~~~~~~~~~~
UNIK 131-1 B~~~~~~~~~~~~~~~~~~~~
UNIK 131-2 C~~~~~~~~~~~~~~~~~~~~
UNIK 131-3 D~~~~~~~~~~~~~~~~~~~~
UNIK 131-4 D~~~~~~~~~~~~~~~~~~~~
UNIK 131-5 D~~~~~~~~~~~~~~~~~~~~
UNIK 131-6 D~~~~~~~~~~~~~~~~~~~~
UNIK 131-7 C~~~~~~~~~~~~~~~~~~~~
UNIK 132-1 B~~~~~~~~~~~~~~~~~~~~
UNIK 132-2 C~~~~~~~~~~~~~~~~~~~~
UNIK 132-3 D~~~~~~~~~~~~~~~~~~~~
UNIK 132-4 D~~~~~~~~~~~~~~~~~~~~
UNIK 132-5 D~~~~~~~~~~~~~~~~~~~~
UNIK 132-6 D~~~~~~~~~~~~~~~~~~~~
UNIK 132-7 D~~~~~~~~~~~~~~~~~~~~
UNIK 133-1 B~~~~~~~~~~~~~~~~~~~~
UNIK 133-2 B~~~~~~~~~~~~~~~~~~~~
UNIK 133-3 D~~~~~~~~~~~~~~~~~~~~
UNIK 133-4 C~~~~~~~~~~~~~~~~~~~~
UNIK 133-5 D~~~~~~~~~~~~~~~~~~~~
UNIK 133-6 D~~~~~~~~~~~~~~~~~~~~
UNIK 133-7 D~~~~~~~~~~~~~~~~~~~~
UNIK 134-1 B~~~~~~~~~~~~~~~~~~~~
UNIK 134-2 C~~~~~~~~~~~~~~~~~~~~
UNIK 134-3 C~~~~~~~~~~~~~~~~~~~~
UNIK 134-4 C~~~~~~~~~~~~~~~~~~~~
UNIK 134-5 C~~~~~~~~~~~~~~~~~~~~
UNIK 134-6 C~~~~~~~~~~~~~~~~~~~~
UNIK 134-7 C~~~~~~~~~~~~~~~~~~~~
UNIK 135-1 C~~~~~~~~~~~~~~~~~~~~
UNIK 135-2 C~~~~~~~~~~~~~~~~~~~~
UNIK 135-3 C~~~~~~~~~~~~~~~~~~~~
UNIK 135-4 C~~~~~~~~~~~~~~~~~~~~
UNIK 135-5 C~~~~~~~~~~~~~~~~~~~~
UNIK 135-6 C~~~~~~~~~~~~~~~~~~~~
UNIK 135-7 C~~~~~~~~~~~~~~~~~~~~
UNIK 136-1 A~~~~~~~~~~~~~~~~~~~~
UNIK 136-2 C~~~~~~~~~~~~~~~~~~~~
UNIK 136-3 C~~~~~~~~~~~~~~~~~~~~
UNIK 136-4 C~~~~~~~~~~~~~~~~~~~~
UNIK 136-5 C~~~~~~~~~~~~~~~~~~~~
UNIK 136-6 C~~~~~~~~~~~~~~~~~~~~
UNIK 136-7 C~~~~~~~~~~~~~~~~~~~~
UNIK 137-1 A~~~~~~~~~~~~~~~~~~~~
UNIK 137-2 B~~~~~~~~~~~~~~~~~~~~
UNIK 137-3 C~~~~~~~~~~~~~~~~~~~~
UNIK 137-4 C~~~~~~~~~~~~~~~~~~~~
UNIK 137-5 C~~~~~~~~~~~~~~~~~~~~
UNIK 137-6 C~~~~~~~~~~~~~~~~~~~~
UNIK 137-7 C~~~~~~~~~~~~~~~~~~~~
UNIK 138-1 A~~~~~~~~~~~~~~~~~~~~
UNIK 138-2 B~~~~~~~~~~~~~~~~~~~~
UNIK 138-3 C~~~~~~~~~~~~~~~~~~~~
UNIK 138-4 C~~~~~~~~~~~~~~~~~~~~
UNIK 138-5 C~~~~~~~~~~~~~~~~~~~~
UNIK 138-6 C~~~~~~~~~~~~~~~~~~~~
UNIK 138-7 C~~~~~~~~~~~~~~~~~~~~
UNIK 139-1 B~~~~~~~~~~~~~~~~~~~~
UNIK 139-2 C~~~~~~~~~~~~~~~~~~~~
UNIK 139-3 C~~~~~~~~~~~~~~~~~~~~
UNIK 139-4 C~~~~~~~~~~~~~~~~~~~~
UNIK 139-5 C~~~~~~~~~~~~~~~~~~~~
UNIK 139-6 C~~~~~~~~~~~~~~~~~~~~
UNIK 139-7 C~~~~~~~~~~~~~~~~~~~~
UNIK 140-1 C~~~~~~~~~~~~~~~~~~~~
UNIK 140-2 C~~~~~~~~~~~~~~~~~~~~
UNIK 140-3 C~~~~~~~~~~~~~~~~~~~~
UNIK 140-4 C~~~~~~~~~~~~~~~~~~~~
UNIK 140-5 C~~~~~~~~~~~~~~~~~~~~
UNIK 140-6 C~~~~~~~~~~~~~~~~~~~~
UNIK 140-7 C~~~~~~~~~~~~~~~~~~~~
UNIK 141-1 B~~~~~~~~~~~~~~~~~~~~
UNIK 141-2 C~~~~~~~~~~~~~~~~~~~~
UNIK 141-3 C~~~~~~~~~~~~~~~~~~~~
UNIK 141-4 C~~~~~~~~~~~~~~~~~~~~
UNIK 141-5 C~~~~~~~~~~~~~~~~~~~~
UNIK 141-6 C~~~~~~~~~~~~~~~~~~~~
UNIK 141-7 C~~~~~~~~~~~~~~~~~~~~
UNIK 142-1 B~~~~~~~~~~~~~~~~~~~~
UNIK 142-2 C~~~~~~~~~~~~~~~~~~~~
UNIK 142-3 C~~~~~~~~~~~~~~~~~~~~
UNIK 142-4 C~~~~~~~~~~~~~~~~~~~~
UNIK 142-5 C~~~~~~~~~~~~~~~~~~~~
UNIK 142-6 C~~~~~~~~~~~~~~~~~~~~
UNIK 142-7 C~~~~~~~~~~~~~~~~~~~~
UNIK 143-1 C~~~~~~~~~~~~~~~~~~~~
UNIK 143-2 C~~~~~~~~~~~~~~~~~~~~
UNIK 143-3 C~~~~~~~~~~~~~~~~~~~~
UNIK 143-4 C~~~~~~~~~~~~~~~~~~~~
UNIK 143-5 C~~~~~~~~~~~~~~~~~~~~
UNIK 143-6 C~~~~~~~~~~~~~~~~~~~~
UNIK 143-7 C~~~~~~~~~~~~~~~~~~~~
UNIK 144-1 B~~~~~~~~~~~~~~~~~~~~
UNIK 144-2 C~~~~~~~~~~~~~~~~~~~~
UNIK 144-3 C~~~~~~~~~~~~~~~~~~~~
UNIK 144-4 C~~~~~~~~~~~~~~~~~~~~
UNIK 144-5 C~~~~~~~~~~~~~~~~~~~~
UNIK 144-6 C~~~~~~~~~~~~~~~~~~~~
UNIK 144-7 C~~~~~~~~~~~~~~~~~~~~
UNIK 145-1 B~~~~~~~~~~~~~~~~~~~~
UNIK 145-2 C~~~~~~~~~~~~~~~~~~~~
UNIK 145-3 C~~~~~~~~~~~~~~~~~~~~
UNIK 145-4 C~~~~~~~~~~~~~~~~~~~~
UNIK 145-5 C~~~~~~~~~~~~~~~~~~~~
UNIK 145-6 C~~~~~~~~~~~~~~~~~~~~
UNIK 145-7 C~~~~~~~~~~~~~~~~~~~~
UNIK 146-1 B~~~~~~~~~~~~~~~~~~~~
UNIK 146-2 C~~~~~~~~~~~~~~~~~~~~
UNIK 146-3 C~~~~~~~~~~~~~~~~~~~~
UNIK 146-4 C~~~~~~~~~~~~~~~~~~~~
UNIK 146-5 C~~~~~~~~~~~~~~~~~~~~
UNIK 146-6 C~~~~~~~~~~~~~~~~~~~~
UNIK 146-7 C~~~~~~~~~~~~~~~~~~~~
UNIK 147-1 B~~~~~~~~~~~~~~~~~~~~
UNIK 147-2 B~~~~~~~~~~~~~~~~~~~~
UNIK 147-3 C~~~~~~~~~~~~~~~~~~~~
UNIK 147-4 C~~~~~~~~~~~~~~~~~~~~
UNIK 147-5 C~~~~~~~~~~~~~~~~~~~~
UNIK 147-6 C~~~~~~~~~~~~~~~~~~~~
UNIK 147-7 C~~~~~~~~~~~~~~~~~~~~
UNIK 148-1 B~~~~~~~~~~~~~~~~~~~~
UNIK 148-2 C~~~~~~~~~~~~~~~~~~~~
UNIK 148-3 C~~~~~~~~~~~~~~~~~~~~
UNIK 148-4 D~~~~~~~~~~~~~~~~~~~~
UNIK 148-5 C~~~~~~~~~~~~~~~~~~~~
UNIK 148-6 C~~~~~~~~~~~~~~~~~~~~
UNIK 148-7 C~~~~~~~~~~~~~~~~~~~~
UNIK 149-1 B~~~~~~~~~~~~~~~~~~~~
UNIK 149-2 B~~~~~~~~~~~~~~~~~~~~
UNIK 149-3 D~~~~~~~~~~~~~~~~~~~~
UNIK 149-4 C~~~~~~~~~~~~~~~~~~~~
UNIK 149-5 C~~~~~~~~~~~~~~~~~~~~
UNIK 149-6 C~~~~~~~~~~~~~~~~~~~~
UNIK 149-7 C~~~~~~~~~~~~~~~~~~~~
UNIK 150-1 B~~~~~~~~~~~~~~~~~~~~
UNIK 150-2 D~~~~~~~~~~~~~~~~~~~~
UNIK 150-3 D~~~~~~~~~~~~~~~~~~~~
UNIK 150-4 D~~~~~~~~~~~~~~~~~~~~
UNIK 150-5 D~~~~~~~~~~~~~~~~~~~~
UNIK 150-6 D~~~~~~~~~~~~~~~~~~~~
UNIK 150-7 D~~~~~~~~~~~~~~~~~~~~
UNIK 151-1 D~~~~~~~~~~~~~~~~~~~~
UNIK 151-2 D~~~~~~~~~~~~~~~~~~~~
UNIK 151-3 C~~~~~~~~~~~~~~~~~~~~
UNIK 151-4 D~~~~~~~~~~~~~~~~~~~~
UNIK 151-5 D~~~~~~~~~~~~~~~~~~~~
UNIK 151-6 D~~~~~~~~~~~~~~~~~~~~
UNIK 151-7 D~~~~~~~~~~~~~~~~~~~~